<?xml version="1.0" ?><svg cb-auto-time="04/13/2018 16:46:02" cb-classname="ControlFunction" cb-create-time="04/13/2018" cb-drop-id="1" cb-filename="Z:\OVATION\NET0\UNIT0\CONTROLFUNCTIONS\0005.svg" cb-function-id="0005" cb-key="123424433215" cb-modified-timestamp="1523652363" cb-modify-id="00000001" cb-path="Z:/OVATION/NET0/UNIT0/CONTROLFUNCTIONS" cb-revision="A" cb-sheet-number="002" cb-sheet-title="PBLOCK test" cb-snap-grid="10" cb-task-id="2" height="3522" id="1" width="5450" xmlns="http://www.w3.org/2000/svg">
<style cb-classname="EntityStyle" id="2" type="text/css">
	.algorithm { fill: white; stroke: black; stroke-width: 3 }
	.algorithm-function { fill: black; stroke: none }
	.algorithm-functionline { fill: none; stroke: black; stroke-linecap: round; stroke-width: 3 }
	.algorithm-name { fill: black; stroke: none }
	.algorithm-nameline { fill: none; stroke: black; stroke-linecap: round; stroke-width: 3 }
	.algorithm-sequence { fill: black; stroke: none; visibility: hidden }
	.algorithm-sequenceline { fill: none; stroke: black; stroke-linecap: round; stroke-width: 3; visibility: hidden }
	.algorithmline { fill: none; stroke: black; stroke-linecap: round; stroke-width: 3 }
	.annotation { fill: black; stroke: none }
	.annotationline { fill: none; stroke: black; stroke-linecap: round; stroke-width: 3 }
	.frame { fill: black; stroke: none }
	.frameline { fill: none; stroke: black; stroke-linecap: round; stroke-width: 3 }
	.signal { fill: black; stroke: none }
	.signalline { fill: none; stroke: black; stroke-linecap: round; stroke-width: 3 }
	text.algorithm { fill: black; font-family: Arial; font-size: 22; stroke: none }
	text.algorithm-function { fill: black; font-family: Arial; font-size: 22; stroke: none }
	text.algorithm-name { fill: black; font-family: Arial; font-size: 22; stroke: none }
	text.algorithm-sequence { fill: black; font-family: Arial; font-size: 22; stroke: none; visibility: hidden }
	text.annotation { fill: black; font-family: Arial; font-size: 22; stroke: none }
	text.frame { fill: black; font-family: Arial; font-size: 18; stroke: none }
	text.signal { fill: black; font-family: Arial; font-size: 12; stroke: none }
</style>
<g cb-classname="NamedObject" cb-objectname="Comments" id="3"/>
<g cb-classname="AlgorithmContainer" cb-objectname="Algorithms" id="4">
<g cb-alg-dia2="65" cb-alg-vVP3="1000" cb-algorithm-id="002" cb-classname="ControlAlgorithm" cb-function-name="AVALGEN" cb-modify-id="00000001" id="6d">
<polygon cb-classname="GraphicPolygonEntity" class="algorithm" id="6e" points="1930,980 1970,940 1930,900 1890,940"/>
<text baseline-shift="-50%" cb-classname="GraphicTextEntity" class="algorithm" font-size="44" id="6o" text-anchor="middle" x="1930" y="923">
A
</text>
<g cb-classname="ControlPin" cb-pin-name="sn-5Tc-FUF" id="6C">
<line cb-classname="GraphicLineEntity" class="signalline" id="6I" x1="1930" x2="1930" y1="980" y2="1000"/>
<g cb-classname="DynamicText" cb-source="i8-5mS-6RCt" class="signal" id="7M" text-anchor="end">
<text cb-classname="GraphicTextEntity" class="signal" fill="black" font-style="normal" font-weight="normal" id="7U" text-anchor="end" text-decoration="normal" transform="translate(1927,994)rotate(-90)"/>
</g>
<g cb-classname="SignalSegment" id="7P">
<g cb-classname="SignalConnection" cb-graphic-line="$74$" cb-input-pin="$40$" id="79"/>
<line cb-classname="GraphicLineEntity" class="signalline" id="7v" x1="1930" x2="1930" y1="1000" y2="1100"/>
</g>
</g>
</g>
<g cb-alg-SASh="200000" cb-alg-VdB="$65$cb-alg-out$" cb-alg-fjG6="52" cb-alg-fjG8="52" cb-alg-fjGL="51" cb-alg-fjGn="52" cb-alg-fjM3="52" cb-alg-fjMH="52" cb-alg-fjMO="52" cb-alg-fjMT="52" cb-alg-fjMg="0" cb-alg-fjMl="52" cb-algorithm-id="001" cb-classname="ProgrammableBlock" cb-function-name="TEST-NEW-04" cb-modify-id="00000001" id="7d">
<rect cb-classname="GraphicRectangleEntity" class="annotation" height="120" id="7e" width="120" x="1870" y="1120"/>
<g cb-classname="ControlPin" cb-pin-name="ZY-sYk-ORI" id="7o">
<line cb-classname="GraphicLineEntity" class="signalline" id="7C" x1="1930" x2="1930" y1="1100" y2="1120"/>
<polygon cb-classname="GraphicPolygonEntity" class="signal" id="7I" points="1930,1120 1935,1109 1924,1109"/>
<g cb-classname="DynamicText" cb-source="re-3iX-r29G" id="8M">
<text cb-classname="GraphicTextEntity" class="signal" id="8U" text-anchor="start" transform="translate(1927,1105)rotate(-90)"/>
</g>
</g>
<g cb-classname="ControlPin" cb-pin-name="xv-47V-ndF9" id="8P">
<line cb-classname="GraphicLineEntity" class="signalline" id="89" x1="1930" x2="1930" y1="1240" y2="1260"/>
<g cb-classname="DynamicText" cb-source="Pj-8Vd-17EH" id="8v">
<text cb-classname="GraphicTextEntity" class="signal" id="8d" text-anchor="end" transform="translate(1927,1254)rotate(-90)"/>
</g>
<g cb-classname="SignalSegment" id="8e">
<g cb-classname="SignalConnection" cb-graphic-line="$88$" cb-input-pin="$6X$" id="8o"/>
<line cb-classname="GraphicLineEntity" class="signalline" id="8C" x1="1930" x2="1930" y1="1260" y2="1380"/>
</g>
</g>
</g>
<g cb-alg-0DRn="76" cb-alg-D7Dd="1.000000" cb-alg-I4Ne="ON" cb-alg-M4Rt="2.500000" cb-alg-MSJ4="999999999" cb-alg-Mqpz="ON" cb-alg-tDRl="0.000000" cb-alg-tFJ4="-999999999" cb-algorithm-id="003" cb-classname="ControlAlgorithm" cb-function-name="GAINBIAS" cb-modify-id="00000001" id="8I">
<rect cb-classname="GraphicRectangleEntity" class="algorithm" height="60" id="9M" width="100" x="1880" y="1400"/>
<text baseline-shift="-50%" cb-classname="GraphicTextEntity" class="algorithm" font-size="33" id="9U" text-anchor="middle" x="1930" y="1425">
K
</text>
<g cb-classname="ControlPin" cb-pin-name="Dz-pMM-4ru" id="9P">
<line cb-classname="GraphicLineEntity" class="signalline" id="99" x1="1930" x2="1930" y1="1380" y2="1400"/>
<polygon cb-classname="GraphicPolygonEntity" class="signal" id="9v" points="1930,1400 1934,1389 1926,1389"/>
<g cb-classname="DynamicText" cb-source="xv-c4r-d7PF" class="signal" id="9d">
<text baseline-shift="5%" cb-classname="GraphicTextEntity" class="signal" fill="black" font-style="normal" font-weight="normal" id="9e" text-decoration="normal" transform="translate(1920,1380)rotate(-90)"/>
</g>
</g>
<g cb-classname="ControlPin" cb-pin-name="Pj-LhD-Nho" id="9o">
<line cb-classname="GraphicLineEntity" class="signalline" id="9C" x1="1930" x2="1930" y1="1460" y2="1480"/>
<g cb-classname="DynamicText" cb-source="mi-ID1-iSWi" class="signal" id="9I" text-anchor="end">
<text baseline-shift="5%" cb-classname="GraphicTextEntity" class="signal" fill="black" font-style="normal" font-weight="normal" id="1MO" text-anchor="end" text-decoration="normal" transform="translate(1922,1472)rotate(-90)"/>
</g>
</g>
</g>
<g cb-alg-1A7M="128" cb-alg-hE6M="1" cb-algorithm-id="005" cb-classname="ControlAlgorithm" cb-function-name="KEYBOARD" cb-modify-id="00000001" id="1Mj">
<rect cb-classname="GraphicRectangleEntity" class="algorithm" height="140" id="1M0" width="100" x="2140" y="1550"/>
<text cb-classname="GraphicTextEntity" class="algorithm" font-size="18" id="1MI" text-anchor="middle" x="2190" y="1608">
KEY
</text>
<text cb-classname="GraphicTextEntity" class="algorithm" font-size="18" id="1Mq" text-anchor="middle" x="2190" y="1634">
BOARD
</text>
<g cb-classname="DynamicText" cb-source="Dz-pMM-aJr" class="algorithm" id="1Mm">
<text baseline-shift="5%" cb-classname="GraphicTextEntity" class="algorithm" fill="black" font-family="Arial" font-size="12" font-style="normal" font-weight="normal" id="1Mn" text-decoration="normal" x="2250" y="1702"/>
</g>
<g cb-classname="ControlPin" cb-pin-name="sn-5Tc-xkB" id="1Ml">
<line cb-classname="GraphicLineEntity" class="signalline" id="1Mv" x1="2240" x2="2260" y1="1650" y2="1650"/>
<g cb-classname="DynamicText" cb-source="i8-5mS-6RCt" class="signal" id="1M5">
<text baseline-shift="5%" cb-classname="GraphicTextEntity" class="signal" fill="black" font-style="normal" font-weight="normal" id="1UO" text-decoration="normal" x="2276" y="1646"/>
</g>
<g cb-classname="SignalSegment" id="1Uj">
<line cb-classname="GraphicLineEntity" class="signalline" id="1U0" stroke="#1e12bf" stroke-dasharray="5,4" x1="2260" x2="2510" y1="1650" y2="1650"/>
<g cb-classname="SignalSegment" id="1UI">
<line cb-classname="GraphicLineEntity" class="signalline" id="1Uq" stroke="#1e12bf" stroke-dasharray="5,4" x1="2510" x2="2510" y1="1650" y2="1610"/>
<g cb-classname="SignalSegment" id="1Um">
<line cb-classname="GraphicLineEntity" class="signalline" id="1Un" stroke="#1e12bf" stroke-dasharray="5,4" x1="2510" x2="2540" y1="1610" y2="1610"/>
<g cb-classname="SignalConnection" cb-graphic-line="$116$" cb-input-pin="$Unf$" id="1Ul"/>
<line cb-classname="GraphicLineEntity" class="signalline" id="1Uv" stroke="#1e12bf" stroke-dasharray="5,4" x1="2510" x2="2510" y1="1610" y2="1530"/>
<g cb-classname="SignalSegment" id="1U5">
<line cb-classname="GraphicLineEntity" class="signalline" id="1PO" stroke="#1e12bf" stroke-dasharray="5,4" x1="2510" x2="2540" y1="1530" y2="1530"/>
<g cb-classname="SignalConnection" cb-graphic-line="$120$" cb-input-pin="$LIR$" id="1Pj"/>
</g>
<ellipse cb-classname="GraphicEllipseEntity" class="signal" cx="2510" cy="1610" fill="#1e12bf" id="1P0" rx="5" ry="5" stroke="#1e12bf" stroke-dasharray="5,4"/>
</g>
</g>
</g>
</g>
<g cb-classname="ControlPin" cb-pin-name="Pj-LhD-hzY" id="1PI">
<line cb-classname="GraphicLineEntity" class="signalline" id="1Pq" x1="2240" x2="2260" y1="1670" y2="1670"/>
<g cb-classname="DynamicText" cb-source="mi-ID1-iSWi" class="signal" id="1Pm">
<text baseline-shift="5%" cb-classname="GraphicTextEntity" class="signal" fill="black" font-style="normal" font-weight="normal" id="1Pn" text-decoration="normal" x="2276" y="1666"/>
</g>
<g cb-classname="SignalSegment" id="1Pl">
<g cb-classname="SignalConnection" cb-graphic-line="$129$" cb-input-pin="$Bjj$" id="1Pv"/>
<line cb-classname="GraphicLineEntity" class="signalline" id="1P5" stroke="#1e12bf" stroke-dasharray="5,4" x1="2260" x2="2760" y1="1670" y2="1670"/>
</g>
</g>
<g cb-classname="ControlPin" cb-pin-name="cN-wNR-u5XS" id="19O">
<line cb-classname="GraphicLineEntity" class="signalline" id="19j" x1="2240" x2="2260" y1="1570" y2="1570"/>
<g cb-classname="DynamicText" cb-source="re-3iX-r29G" class="signal" id="190">
<text baseline-shift="5%" cb-classname="GraphicTextEntity" class="signal" fill="black" font-style="normal" font-weight="normal" id="19I" text-decoration="normal" x="2276" y="1566"/>
</g>
</g>
<g cb-classname="ControlPin" cb-pin-name="xv-47V-bXNl" id="19q">
<line cb-classname="GraphicLineEntity" class="signalline" id="19m" x1="2240" x2="2260" y1="1590" y2="1590"/>
<g cb-classname="DynamicText" cb-source="Pj-8Vd-17EH" class="signal" id="19n">
<text baseline-shift="5%" cb-classname="GraphicTextEntity" class="signal" fill="black" font-style="normal" font-weight="normal" id="19l" text-decoration="normal" x="2276" y="1586"/>
</g>
</g>
<g cb-classname="ControlPin" cb-pin-name="mi-sXM-s1jp" id="19v">
<line cb-classname="GraphicLineEntity" class="signalline" id="195" x1="2240" x2="2260" y1="1610" y2="1610"/>
<g cb-classname="DynamicText" cb-source="et-hMi-VaXc" class="signal" id="1vO">
<text baseline-shift="5%" cb-classname="GraphicTextEntity" class="signal" fill="black" font-style="normal" font-weight="normal" id="1vj" text-decoration="normal" x="2276" y="1606"/>
</g>
</g>
<g cb-classname="ControlPin" cb-pin-name="ZY-sYk-X74" id="1v0">
<line cb-classname="GraphicLineEntity" class="signalline" id="1vI" x1="2240" x2="2260" y1="1630" y2="1630"/>
<g cb-classname="DynamicText" cb-source="Dz-u9m-VLqE" class="signal" id="1vq">
<text baseline-shift="5%" cb-classname="GraphicTextEntity" class="signal" fill="black" font-style="normal" font-weight="normal" id="1vm" text-decoration="normal" x="2276" y="1626"/>
</g>
</g>
</g>
<g cb-alg-k5L="$101$cb-alg-pk1$" cb-alg-k5g="$101$cb-alg-pk1$" cb-algorithm-id="009" cb-classname="FastBooleanAlgorithm" cb-function-name="OR" cb-modify-id="00000001" id="1vn">
<ellipse cb-classname="GraphicEllipseEntity" class="algorithm" cx="2600" cy="1570" id="1vl" rx="40" ry="40"/>
<text baseline-shift="-50%" cb-classname="GraphicTextEntity" class="algorithm" id="1vv" text-anchor="middle" x="2600" y="1569">
OR
</text>
<line cb-classname="GraphicLineEntity" class="algorithmline" id="1v5" x1="2560" x2="2560" y1="1510" y2="1630"/>
<g cb-classname="ControlPin" cb-pin-name="U3-2ao-MiL" id="1dO">
<line cb-classname="GraphicLineEntity" class="signalline" id="1dj" x1="2540" x2="2560" y1="1530" y2="1530"/>
<polygon cb-classname="GraphicPolygonEntity" class="signal" id="1d0" points="2560,1530 2549,1526 2549,1534"/>
<g cb-classname="DynamicText" cb-source="et-hMi-VaXc" class="signal" id="1dI" text-anchor="end">
<text baseline-shift="5%" cb-classname="GraphicTextEntity" class="signal" fill="black" font-style="normal" font-weight="normal" id="1dq" text-anchor="end" text-decoration="normal" x="2559" y="1524"/>
</g>
</g>
<g cb-classname="ControlPin" cb-pin-name="ZY-sYk-djX" id="1dm">
<line cb-classname="GraphicLineEntity" class="signalline" id="1dn" x1="2640" x2="2660" y1="1570" y2="1570"/>
<g cb-classname="DynamicText" cb-source="Dz-u9m-VLqE" class="signal" id="1dl">
<text baseline-shift="5%" cb-classname="GraphicTextEntity" class="signal" fill="black" font-style="normal" font-weight="normal" id="1dv" text-decoration="normal" x="2654" y="1561"/>
</g>
<g cb-classname="SignalSegment" id="1d5">
<line cb-classname="GraphicLineEntity" class="signalline" id="1eO" stroke="#1e12bf" stroke-dasharray="5,4" x1="2660" x2="2710" y1="1570" y2="1570"/>
<g cb-classname="SignalSegment" id="1ej">
<line cb-classname="GraphicLineEntity" class="signalline" id="1e0" stroke="#1e12bf" stroke-dasharray="5,4" x1="2710" x2="2710" y1="1570" y2="1610"/>
<g cb-classname="SignalSegment" id="1eI">
<line cb-classname="GraphicLineEntity" class="signalline" id="1eq" stroke="#1e12bf" stroke-dasharray="5,4" x1="2710" x2="2760" y1="1610" y2="1610"/>
<g cb-classname="SignalConnection" cb-graphic-line="$164$" cb-input-pin="$uRP$" id="1em"/>
</g>
</g>
</g>
</g>
<g cb-classname="ControlPin" cb-pin-name="et-ROp-Hrn" id="1en">
<line cb-classname="GraphicLineEntity" class="signalline" id="1el" x1="2540" x2="2560" y1="1610" y2="1610"/>
<polygon cb-classname="GraphicPolygonEntity" class="signal" id="1ev" points="2560,1610 2549,1606 2549,1614"/>
<g cb-classname="DynamicText" cb-source="cN-Rhy-Xasw" class="signal" id="1e5" text-anchor="end">
<text baseline-shift="5%" cb-classname="GraphicTextEntity" class="signal" fill="black" font-style="normal" font-weight="normal" id="1oO" text-anchor="end" text-decoration="normal" x="2558" y="1604"/>
</g>
</g>
<g cb-classname="ControlPin" cb-pin-name="re-6gb-mSG" id="1oj">
<line cb-classname="GraphicLineEntity" class="signalline" id="1o0" x1="2540" x2="2560" y1="1570" y2="1570"/>
<polygon cb-classname="GraphicPolygonEntity" class="signal" id="1oI" points="2560,1570 2549,1566 2549,1574"/>
<g cb-classname="DynamicText" cb-source="i8-5mS-6RCt" class="signal" id="1oq" text-anchor="end">
<text baseline-shift="5%" cb-classname="GraphicTextEntity" class="signal" fill="black" font-style="normal" font-weight="normal" id="1om" text-anchor="end" text-decoration="normal" x="2558" y="1564"/>
</g>
</g>
</g>
<g cb-alg-FaJJ="555" cb-alg-f4Lr="65" cb-algorithm-id="006" cb-classname="ControlAlgorithm" cb-function-name="AVALGEN" cb-modify-id="00000001" id="1on">
<polygon cb-classname="GraphicPolygonEntity" class="algorithm" id="1ol" points="2850,1410 2890,1370 2850,1330 2810,1370"/>
<text baseline-shift="-50%" cb-classname="GraphicTextEntity" class="algorithm" font-size="44" id="1ov" text-anchor="middle" x="2850" y="1353">
A
</text>
<g cb-classname="ControlPin" cb-pin-name="et-ROp-4sj" id="1o5">
<line cb-classname="GraphicLineEntity" class="signalline" id="1CO" x1="2850" x2="2850" y1="1410" y2="1430"/>
<g cb-classname="DynamicText" cb-source="ZY-ktV-b7ms" class="signal" id="1Cj" text-anchor="end">
<text cb-classname="GraphicTextEntity" class="signal" fill="black" font-style="normal" font-weight="normal" id="1C0" text-anchor="end" text-decoration="normal" transform="translate(2847,1424)rotate(-90)"/>
</g>
<g cb-classname="SignalSegment" id="1CI">
<g cb-classname="SignalConnection" cb-graphic-line="$185$" cb-input-pin="$Fij$" id="1Cq"/>
<line cb-classname="GraphicLineEntity" class="signalline" id="1Cm" x1="2850" x2="2850" y1="1430" y2="1570"/>
</g>
</g>
</g>
<g cb-alg-59bc="200000" cb-alg-5r="$176$cb-alg-out$" cb-alg-SK34="87" cb-alg-SK3C="90" cb-alg-SK3K="86" cb-alg-SK3U="87" cb-alg-SK3f="90" cb-alg-SK3j="87" cb-alg-SK3n="90" cb-alg-SK3p="86" cb-alg-SL07="85" cb-alg-SL0A="0" cb-alg-SL0R="87" cb-alg-SL0k="0" cb-alg-SLZ4="84" cb-alg-SLZ7="90" cb-alg-SLZ8="83" cb-alg-SLZA="90" cb-alg-SLZC="87" cb-alg-SLZE="0" cb-alg-SLZH="83" cb-alg-SLZK="83" cb-alg-SLZR="90" cb-alg-SLZU="87" cb-alg-SLZf="87" cb-alg-SLZj="84" cb-alg-SLZk="90" cb-alg-SLZn="87" cb-alg-SLZp="84" cb-alg-SLZs="90" cb-alg-hy0="$146$cb-alg-out$" cb-alg-oHE="$101$cb-alg-pk2$" cb-algorithm-id="004" cb-classname="ProgrammableBlock" cb-function-name="TEST-NEW-05" cb-modify-id="00000001" id="1Cn">
<rect cb-classname="GraphicRectangleEntity" class="annotation" height="120" id="1Cl" width="120" x="2790" y="1590"/>
<g cb-classname="ControlPin" cb-pin-name="Pj-LhD-DdW" id="1Cv">
<line cb-classname="GraphicLineEntity" class="signalline" id="1C5" x1="2760" x2="2790" y1="1610" y2="1610"/>
<polygon cb-classname="GraphicPolygonEntity" class="signal" id="1IO" points="2790,1610 2779,1604 2779,1615"/>
<g cb-classname="DynamicText" cb-source="PZ-SDd-aEgx" id="1Ij">
<text cb-classname="GraphicTextEntity" class="signal" id="1I0" text-anchor="end" x="2775" y="1607"/>
</g>
</g>
<g cb-classname="ControlPin" cb-pin-name="bq-755-FGz" id="1II">
<line cb-classname="GraphicLineEntity" class="signalline" id="1Iq" x1="2760" x2="2790" y1="1670" y2="1670"/>
<polygon cb-classname="GraphicPolygonEntity" class="signal" id="1Im" points="2790,1670 2779,1664 2779,1675"/>
<g cb-classname="DynamicText" cb-source="Dz-u9m-VLqE" id="1In">
<text cb-classname="GraphicTextEntity" class="signal" id="1Il" text-anchor="end" x="2775" y="1667"/>
</g>
</g>
<g cb-classname="ControlPin" cb-pin-name="sn-5Tc-Sn" id="1Iv">
<line cb-classname="GraphicLineEntity" class="signalline" id="1I5" x1="2850" x2="2850" y1="1570" y2="1590"/>
<polygon cb-classname="GraphicPolygonEntity" class="signal" id="2MO" points="2850,1590 2855,1579 2844,1579"/>
<g cb-classname="DynamicText" cb-source="Pj-8Vd-17EH" id="2Mj">
<text cb-classname="GraphicTextEntity" class="signal" id="2M0" text-anchor="start" transform="translate(2847,1575)rotate(-90)"/>
</g>
</g>
<g cb-classname="ControlPin" cb-pin-name="mi-sXM-Q1j5" id="2MI">
<line cb-classname="GraphicLineEntity" class="signalline" id="2Mq" x1="2910" x2="2940" y1="1610" y2="1610"/>
<g cb-classname="DynamicText" cb-source="et-hMi-VaXc" id="2Mm">
<text cb-classname="GraphicTextEntity" class="signal" id="2Mn" text-anchor="start" x="2924" y="1607"/>
</g>
<g cb-classname="SignalSegment" id="2Ml">
<g cb-classname="SignalConnection" cb-graphic-line="$209$" cb-input-pin="$Pml$" id="2Mv"/>
<line cb-classname="GraphicLineEntity" class="signalline" id="2M5" stroke="#1e12bf" stroke-dasharray="5,4" x1="2940" x2="3070" y1="1610" y2="1610"/>
</g>
</g>
<g cb-classname="ControlPin" cb-pin-name="re-6gb-UJMp" id="2UO">
<line cb-classname="GraphicLineEntity" class="signalline" id="2Uj" x1="2910" x2="2940" y1="1670" y2="1670"/>
<g cb-classname="DynamicText" cb-source="xv-c4r-d7PF" id="2U0">
<text cb-classname="GraphicTextEntity" class="signal" id="2UI" text-anchor="start" x="2924" y="1667"/>
</g>
<g cb-classname="SignalSegment" id="2Uq">
<g cb-classname="SignalSegment" id="2Um">
<line cb-classname="GraphicLineEntity" class="signalline" id="2Un" x1="3060" x2="3060" y1="1670" y2="1820"/>
<g cb-classname="SignalConnection" cb-graphic-line="$216$" cb-input-pin="$avB$" id="2Ul"/>
</g>
<line cb-classname="GraphicLineEntity" class="signalline" id="2Uv" x1="2940" x2="3060" y1="1670" y2="1670"/>
</g>
</g>
<g cb-classname="ControlPin" cb-pin-name="bq-755-pFzs" id="2U5">
<line cb-classname="GraphicLineEntity" class="signalline" id="2PO" x1="2850" x2="2850" y1="1710" y2="1730"/>
<g cb-classname="DynamicText" cb-source="cN-Rhy-Xasw" id="2Pj">
<text cb-classname="GraphicTextEntity" class="signal" id="2P0" text-anchor="end" transform="translate(2847,1724)rotate(-90)"/>
</g>
<g cb-classname="SignalSegment" id="2PI">
<g cb-classname="SignalConnection" cb-graphic-line="$225$" cb-input-pin="$Mga$" id="2Pq"/>
<line cb-classname="GraphicLineEntity" class="signalline" id="2Pm" x1="2850" x2="2850" y1="1730" y2="1820"/>
</g>
</g>
</g>
<g cb-alg-3tu6="ON" cb-alg-Di4c="76" cb-alg-I8Tt="ON" cb-alg-Ibem="999999999" cb-alg-It4k="2.500000" cb-alg-R5PV="1.000000" cb-alg-vEem="-999999999" cb-alg-vi42="0.000000" cb-algorithm-id="007" cb-classname="ControlAlgorithm" cb-function-name="GAINBIAS" cb-modify-id="00000001" id="2Pn">
<rect cb-classname="GraphicRectangleEntity" class="algorithm" height="60" id="2Pl" width="100" x="2800" y="1840"/>
<text baseline-shift="-50%" cb-classname="GraphicTextEntity" class="algorithm" font-size="33" id="2Pv" text-anchor="middle" x="2850" y="1865">
K
</text>
<g cb-classname="ControlPin" cb-pin-name="mi-sXM-zai" id="2P5">
<line cb-classname="GraphicLineEntity" class="signalline" id="29O" x1="2850" x2="2850" y1="1820" y2="1840"/>
<polygon cb-classname="GraphicPolygonEntity" class="signal" id="29j" points="2850,1840 2854,1829 2846,1829"/>
<g cb-classname="DynamicText" cb-source="bq-Aza-rQvb" class="signal" id="290">
<text baseline-shift="5%" cb-classname="GraphicTextEntity" class="signal" fill="black" font-style="normal" font-weight="normal" id="29I" text-decoration="normal" transform="translate(2840,1820)rotate(-90)"/>
</g>
</g>
<g cb-classname="ControlPin" cb-pin-name="cN-wNR-uIl" id="29q">
<line cb-classname="GraphicLineEntity" class="signalline" id="29m" x1="2850" x2="2850" y1="1900" y2="1920"/>
<g cb-classname="DynamicText" cb-source="re-3iX-r29G" class="signal" id="29n" text-anchor="end">
<text baseline-shift="5%" cb-classname="GraphicTextEntity" class="signal" fill="black" font-style="normal" font-weight="normal" id="29l" text-anchor="end" text-decoration="normal" transform="translate(2842,1912)rotate(-90)"/>
</g>
</g>
</g>
<g cb-alg-06iX="1.000000" cb-alg-J3qU="999999999" cb-alg-JA5I="2.500000" cb-alg-Jvgq="ON" cb-alg-l95b="76" cb-alg-n95e="0.000000" cb-alg-nIqU="-999999999" cb-alg-uA29="ON" cb-algorithm-id="008" cb-classname="ControlAlgorithm" cb-function-name="GAINBIAS" cb-modify-id="00000001" id="29v">
<rect cb-classname="GraphicRectangleEntity" class="algorithm" height="60" id="295" width="100" x="3010" y="1840"/>
<text baseline-shift="-50%" cb-classname="GraphicTextEntity" class="algorithm" font-size="33" id="2vO" text-anchor="middle" x="3060" y="1865">
K
</text>
<g cb-classname="ControlPin" cb-pin-name="U3-2ao-MiL" id="2vj">
<line cb-classname="GraphicLineEntity" class="signalline" id="2v0" x1="3060" x2="3060" y1="1820" y2="1840"/>
<polygon cb-classname="GraphicPolygonEntity" class="signal" id="2vI" points="3060,1840 3064,1829 3056,1829"/>
<g cb-classname="DynamicText" cb-source="et-hMi-VaXc" class="signal" id="2vq">
<text baseline-shift="5%" cb-classname="GraphicTextEntity" class="signal" fill="black" font-style="normal" font-weight="normal" id="2vm" text-decoration="normal" transform="translate(3050,1820)rotate(-90)"/>
</g>
</g>
<g cb-classname="ControlPin" cb-pin-name="ZY-sYk-djX" id="2vn">
<line cb-classname="GraphicLineEntity" class="signalline" id="2vl" x1="3060" x2="3060" y1="1900" y2="1920"/>
<g cb-classname="DynamicText" cb-source="Dz-u9m-VLqE" class="signal" id="2vv" text-anchor="end">
<text baseline-shift="5%" cb-classname="GraphicTextEntity" class="signal" fill="black" font-style="normal" font-weight="normal" id="2v5" text-anchor="end" text-decoration="normal" transform="translate(3052,1912)rotate(-90)"/>
</g>
</g>
</g>
<g cb-algorithm-id="00D" cb-classname="FastBooleanAlgorithm" cb-function-name="NOT" id="2dO">
<rect cb-classname="GraphicRectangleEntity" class="algorithm" height="40" id="2dj" width="40" x="3090" y="1590"/>
<text baseline-shift="-50%" cb-classname="GraphicTextEntity" class="algorithm" font-size="28" id="2d0" text-anchor="middle" x="3109" y="1602">
N
</text>
<g cb-classname="ControlPin" cb-pin-name="Pj-LhD-DdW" id="2dI">
<line cb-classname="GraphicLineEntity" class="signalline" id="2dq" x1="3070" x2="3090" y1="1610" y2="1610"/>
<polygon cb-classname="GraphicPolygonEntity" class="signal" id="2dm" points="3090,1610 3079,1606 3079,1614"/>
<g cb-classname="DynamicText" cb-source="PZ-SDd-aEgx" class="signal" id="2dn" text-anchor="end">
<text baseline-shift="5%" cb-classname="GraphicTextEntity" class="signal" fill="black" font-style="normal" font-weight="normal" id="2dl" text-anchor="end" text-decoration="normal" x="3085" y="1602"/>
</g>
</g>
<g cb-classname="ControlPin" cb-pin-name="bq-755-pFz" id="2dv">
<line cb-classname="GraphicLineEntity" class="signalline" id="2d5" x1="3130" x2="3150" y1="1610" y2="1610"/>
<g cb-classname="DynamicText" cb-source="cN-Rhy-Xasw" class="signal" id="2eO">
<text baseline-shift="5%" cb-classname="GraphicTextEntity" class="signal" fill="black" font-style="normal" font-weight="normal" id="2ej" text-decoration="normal" x="3142" y="1602"/>
</g>
<g cb-classname="SignalSegment" id="2e0">
<g cb-classname="SignalConnection" cb-graphic-line="$264$" cb-input-pin="$Mj0$" id="2eI"/>
<line cb-classname="GraphicLineEntity" class="signalline" id="2eq" stroke="#1e12bf" stroke-dasharray="5,4" x1="3150" x2="3240" y1="1610" y2="1610"/>
</g>
</g>
</g>
<g cb-alg-Di4c="69" cb-alg-w5TI="0.000000" cb-algorithm-id="00A" cb-classname="ControlAlgorithm" cb-function-name="DVALGEN" cb-modify-id="00000001" id="2em">
<rect cb-classname="GraphicRectangleEntity" class="algorithm" height="60" id="2en" width="100" x="3010" y="1490"/>
<text baseline-shift="-50%" cb-classname="GraphicTextEntity" class="algorithm" font-size="18" id="2el" text-anchor="middle" x="3060" y="1507">
DVAL
</text>
<text baseline-shift="-50%" cb-classname="GraphicTextEntity" class="algorithm" font-size="18" id="2ev" text-anchor="middle" x="3060" y="1533">
GEN
</text>
<g cb-classname="ControlPin" cb-pin-name="PZ-7pn-0d0" id="2e5">
<line cb-classname="GraphicLineEntity" class="signalline" id="2oO" x1="3110" x2="3130" y1="1520" y2="1520"/>
<g cb-classname="DynamicText" cb-source="bq-Aza-rQvb" class="signal" id="2oj">
<text baseline-shift="5%" cb-classname="GraphicTextEntity" class="signal" fill="black" font-style="normal" font-weight="normal" id="2o0" text-decoration="normal" x="3124" y="1510"/>
</g>
<g cb-classname="SignalSegment" id="2oI">
<line cb-classname="GraphicLineEntity" class="signalline" id="2oq" stroke="#1e12bf" stroke-dasharray="5,4" x1="3130" x2="3280" y1="1520" y2="1520"/>
<g cb-classname="SignalSegment" id="2om">
<line cb-classname="GraphicLineEntity" class="signalline" id="2on" stroke="#1e12bf" stroke-dasharray="5,4" x1="3280" x2="3280" y1="1520" y2="1570"/>
<g cb-classname="SignalConnection" cb-graphic-line="$276$" cb-input-pin="$VZk$" id="2ol"/>
</g>
</g>
</g>
</g>
<g cb-alg-9m7="$265$cb-alg-out$" cb-alg-9mk="$250$cb-alg-out$" cb-algorithm-id="00B" cb-classname="FastBooleanAlgorithm" cb-function-name="AND" cb-modify-id="00000001" id="2ov">
<rect cb-classname="GraphicRectangleEntity" class="annotation" fill="white" height="40" id="2o5" width="40" x="3260" y="1590"/>
<text baseline-shift="0%" cb-classname="GraphicTextEntity" class="annotation" fill="#000000" font-family="MS Shell Dlg 2" font-size="18" id="2CO" x="3270" y="1620">
&amp;
</text>
<g cb-classname="ControlPin" cb-pin-name="mi-sXM-zai" id="2Cj">
<line cb-classname="GraphicLineEntity" class="signalline" id="2C0" x1="3240" x2="3260" y1="1610" y2="1610"/>
<polygon cb-classname="GraphicPolygonEntity" class="signal" id="2CI" points="3260,1610 3249,1604 3249,1615"/>
<g cb-classname="DynamicText" cb-source="bq-Aza-rQvb" id="2Cq">
<text cb-classname="GraphicTextEntity" class="signal" id="2Cm" text-anchor="end" x="3245" y="1607"/>
</g>
</g>
<g cb-classname="ControlPin" cb-pin-name="cN-wNR-uIl" id="2Cn">
<line cb-classname="GraphicLineEntity" class="signalline" id="2Cl" x1="3300" x2="3320" y1="1610" y2="1610"/>
<g cb-classname="DynamicText" cb-source="re-3iX-r29G" id="2Cv">
<text cb-classname="GraphicTextEntity" class="signal" id="2C5" text-anchor="start" x="3314" y="1607"/>
</g>
<g cb-classname="SignalSegment" id="2IO">
<line cb-classname="GraphicLineEntity" class="signalline" id="2Ij" stroke="#1e12bf" stroke-dasharray="5,4" x1="3320" x2="3400" y1="1610" y2="1610"/>
<g cb-classname="SignalSegment" id="2I0">
<line cb-classname="GraphicLineEntity" class="signalline" id="2II" stroke="#1e12bf" stroke-dasharray="5,4" x1="3400" x2="3400" y1="1610" y2="1240"/>
<g cb-classname="SignalSegment" id="2Iq">
<g cb-classname="SignalSegment" id="2Im">
<line cb-classname="GraphicLineEntity" class="signalline" id="2In" stroke="#1e12bf" stroke-dasharray="5,4" x1="2370" x2="2370" y1="1240" y2="1530"/>
<g cb-classname="SignalSegment" id="2Il">
<line cb-classname="GraphicLineEntity" class="signalline" id="2Iv" stroke="#1e12bf" stroke-dasharray="5,4" x1="2370" x2="2410" y1="1530" y2="1530"/>
<g cb-classname="SignalConnection" cb-graphic-line="$298$" cb-input-pin="$9jl$" id="2I5"/>
</g>
</g>
<line cb-classname="GraphicLineEntity" class="signalline" id="3MO" stroke="#1e12bf" stroke-dasharray="5,4" x1="3400" x2="2370" y1="1240" y2="1240"/>
</g>
</g>
</g>
</g>
<g cb-classname="ControlPin" cb-pin-name="re-6gb-mSX" id="3Mj">
<line cb-classname="GraphicLineEntity" class="signalline" id="3M0" x1="3280" x2="3280" y1="1570" y2="1590"/>
<polygon cb-classname="GraphicPolygonEntity" class="signal" id="3MI" points="3280,1590 3285,1579 3274,1579"/>
<g cb-classname="DynamicText" cb-source="i8-5mS-6RCt" id="3Mq">
<text cb-classname="GraphicTextEntity" class="signal" id="3Mm" text-anchor="start" transform="translate(3277,1575)rotate(-90)"/>
</g>
</g>
</g>
<g cb-alg-CHXM="POSITIVE" cb-alg-IaCr="0" cb-alg-PVO="$278$cb-alg-out$" cb-alg-SkUxM="RETRIGGABLE" cb-alg-T50="1" cb-alg-f4Lr="98" cb-alg-ja0w="1.000000" cb-algorithm-id="00C" cb-classname="ControlAlgorithm" cb-function-name="ONESHOT" cb-modify-id="00000001" id="3Mn">
<rect cb-classname="GraphicRectangleEntity" class="algorithm" height="40" id="3Ml" width="40" x="2430" y="1510"/>
<line cb-classname="GraphicLineEntity" class="algorithmline" id="3Mv" x1="2433" x2="2443" y1="1540" y2="1540"/>
<line cb-classname="GraphicLineEntity" class="algorithmline" id="3M5" x1="2443" x2="2443" y1="1540" y2="1520"/>
<line cb-classname="GraphicLineEntity" class="algorithmline" id="3UO" x1="2443" x2="2457" y1="1520" y2="1520"/>
<line cb-classname="GraphicLineEntity" class="algorithmline" id="3Uj" x1="2457" x2="2457" y1="1520" y2="1540"/>
<line cb-classname="GraphicLineEntity" class="algorithmline" id="3U0" x1="2457" x2="2467" y1="1540" y2="1540"/>
<g cb-classname="ControlPin" cb-pin-name="Dz-pMM-4ru" id="3UI">
<line cb-classname="GraphicLineEntity" class="signalline" id="3Uq" x1="2410" x2="2430" y1="1530" y2="1530"/>
<polygon cb-classname="GraphicPolygonEntity" class="signal" id="3Um" points="2430,1530 2419,1526 2419,1534"/>
<g cb-classname="DynamicText" cb-source="xv-c4r-d7PF" class="signal" id="3Un" text-anchor="end">
<text baseline-shift="5%" cb-classname="GraphicTextEntity" class="signal" fill="black" font-style="normal" font-weight="normal" id="3Ul" text-anchor="end" text-decoration="normal" x="2431" y="1517"/>
</g>
</g>
<g cb-classname="ControlPin" cb-pin-name="Pj-LhD-Nho" id="3Uv">
<line cb-classname="GraphicLineEntity" class="signalline" id="3U5" x1="2470" x2="2490" y1="1530" y2="1530"/>
<g cb-classname="DynamicText" cb-source="mi-ID1-iSWi" class="signal" id="3PO">
<text baseline-shift="5%" cb-classname="GraphicTextEntity" class="signal" fill="black" font-style="normal" font-weight="normal" id="3Pj" text-decoration="normal" x="2482" y="1519"/>
</g>
</g>
</g>
</g>
<g cb-classname="IncludeDocument" cb-modify-time="03/12/2018 11:07:58" cb-objectname="frame" id="5">
<text cb-classname="GraphicTextEntity" class="frame" font-size="50" id="3P0" x="3660" y="3146">
Project Title &lt;Edit in FRAME.SVG&gt;
</text>
<g baseline-shift="-50%" cb-classname="DynamicText" cb-source="bq-H10J-Ou" class="frame" id="3PI">
<text cb-classname="GraphicTextEntity" class="frame" fill="black" font-family="arial" font-size="25" font-style="normal" font-weight="normal" id="3Pq" text-decoration="normal" x="4715" y="3325">
1
</text>
</g>
<g baseline-shift="-50%" cb-classname="DynamicText" cb-source="cN-jorb-4D" class="frame" id="3Pm" text-anchor="middle">
<text cb-classname="GraphicTextEntity" class="frame" fill="black" font-family="arial" font-size="48" font-style="normal" font-weight="normal" id="3Pn" text-anchor="middle" text-decoration="normal" x="4900" y="3320">
1
</text>
</g>
<g baseline-shift="-50%" cb-classname="DynamicText" cb-source="re-I5et-V0" class="frame" id="3Pl" text-anchor="middle">
<text cb-classname="GraphicTextEntity" class="frame" fill="black" font-family="arial" font-size="48" font-style="normal" font-weight="normal" id="3Pv" text-anchor="middle" text-decoration="normal" x="5067" y="3324">
2
</text>
</g>
<g cb-classname="DynamicText" cb-source="xv-enXwM-FMoYv" class="frame" id="3P5">
<text cb-classname="GraphicTextEntity" class="frame" fill="black" font-family="arial" font-size="48" font-style="normal" font-weight="normal" id="39O" text-decoration="normal" x="3660" y="3224">
PBLOCK test
</text>
</g>
<g baseline-shift="-50%" cb-classname="DynamicText" cb-source="Pj-0DEGF-i1WPxY" class="frame" id="39j" text-anchor="middle">
<text cb-classname="GraphicTextEntity" class="frame" fill="black" font-family="arial" font-size="48" font-style="normal" font-weight="normal" id="390" text-anchor="middle" text-decoration="normal" x="5270" y="3324">
002
</text>
</g>
<g baseline-shift="0%" cb-classname="DynamicText" cb-source="mi-LGtMrt4r" class="frame" id="39I" text-anchor="middle">
<text cb-classname="GraphicTextEntity" class="frame" fill="black" font-family="arial" font-size="36" font-style="normal" font-weight="normal" id="39q" text-anchor="middle" text-decoration="normal" x="5270" y="3150">
A
</text>
</g>
<g baseline-shift="0%" cb-classname="DynamicText" cb-source="et-WFHtuDdR-3c4P" class="frame" id="39m" text-anchor="middle">
<text cb-classname="GraphicTextEntity" class="frame" fill="black" font-family="arial" font-size="20" font-style="normal" font-weight="normal" id="39n" text-anchor="middle" text-decoration="normal" x="5270" y="3230">

</text>
</g>
<g baseline-shift="-50%" cb-classname="DynamicText" cb-source="ZY-takDbcbU" class="frame" id="39l" text-anchor="end">
<text cb-classname="GraphicTextEntity" class="frame" fill="black" font-family="arial" font-size="26" font-style="normal" font-weight="normal" id="39v" text-anchor="end" text-decoration="normal" x="4500" y="3420">

</text>
</g>
<g baseline-shift="-50%" cb-classname="DynamicText" cb-source="Dz-oznPAAwL" class="frame" id="395" text-anchor="end">
<text cb-classname="GraphicTextEntity" class="frame" fill="black" font-family="arial" font-size="26" font-style="normal" font-weight="normal" id="3vO" text-anchor="end" text-decoration="normal" x="5353" y="3420">

</text>
</g>
<g cb-classname="GraphicShape" cb-tag="BORDER" id="3vj">
<line cb-classname="GraphicLineEntity" class="frameline" id="3v0" x1="40" x2="40" y1="40" y2="3460"/>
<line cb-classname="GraphicLineEntity" class="frameline" id="3vI" x1="40" x2="5380" y1="3460" y2="3460"/>
<line cb-classname="GraphicLineEntity" class="frameline" id="3vq" x1="5380" x2="5380" y1="3460" y2="40"/>
<line cb-classname="GraphicLineEntity" class="frameline" id="3vm" x1="5380" x2="40" y1="40" y2="40"/>
<line cb-classname="GraphicLineEntity" class="frame" id="3vn" x1="5430" x2="5440" y1="3510" y2="3510"/>
</g>
<g cb-classname="GraphicShape" cb-tag="TITLE BOX" id="3vl">
<line cb-classname="GraphicLineEntity" class="frameline" id="3vv" x1="2340" x2="2340" y1="3080" y2="3460"/>
<line cb-classname="GraphicLineEntity" class="frameline" id="3v5" x1="2340" x2="5380" y1="3080" y2="3080"/>
<line cb-classname="GraphicLineEntity" class="frameline" id="3dO" x1="3650" x2="3650" y1="3460" y2="3080"/>
<line cb-classname="GraphicLineEntity" class="frameline" id="3dj" x1="3650" x2="5380" y1="3240" y2="3240"/>
<line cb-classname="GraphicLineEntity" class="frameline" id="3d0" x1="3650" x2="5380" y1="3390" y2="3390"/>
<line cb-classname="GraphicLineEntity" class="frameline" id="3dI" x1="3650" x2="5380" y1="3160" y2="3160"/>
<line cb-classname="GraphicLineEntity" class="frameline" id="3dq" x1="3650" x2="4520" y1="3320" y2="3320"/>
<line cb-classname="GraphicLineEntity" class="frameline" id="3dm" x1="4520" x2="5380" y1="3290" y2="3290"/>
<line cb-classname="GraphicLineEntity" class="frameline" id="3dn" x1="4520" x2="5380" y1="3240" y2="3240"/>
<line cb-classname="GraphicLineEntity" class="frameline" id="3dl" x1="4520" x2="4520" y1="3240" y2="3460"/>
<line cb-classname="GraphicLineEntity" class="frameline" id="3dv" x1="4810" x2="4810" y1="3240" y2="3390"/>
<line cb-classname="GraphicLineEntity" class="frameline" id="3d5" x1="4990" x2="4990" y1="3240" y2="3390"/>
<line cb-classname="GraphicLineEntity" class="frameline" id="3eO" x1="5150" x2="5150" y1="3080" y2="3390"/>
</g>
<g cb-classname="GraphicShape" cb-tag="TEXT LABELS" id="3ej">
<text baseline-shift="-50%" cb-classname="GraphicTextEntity" class="frame" font-size="25" id="3e0" text-anchor="middle" x="4890" y="3252">
Drop
</text>
<text baseline-shift="-50%" cb-classname="GraphicTextEntity" class="frame" font-size="25" id="3eI" text-anchor="middle" x="5075" y="3252">
Task
</text>
<text baseline-shift="-50%" cb-classname="GraphicTextEntity" class="frame" font-size="25" id="3eq" text-anchor="middle" x="5265" y="3252">
Sheet
</text>
<text cb-classname="GraphicTextEntity" class="frame" font-size="25" id="3em" x="5152" y="3107">
Rev.
</text>
<text cb-classname="GraphicTextEntity" class="frame" font-size="25" id="3en" x="3653" y="3418">
Engineer
</text>
<text cb-classname="GraphicTextEntity" class="frame" font-size="25" id="3el" x="4528" y="3419">
Approved
</text>
<text cb-classname="GraphicTextEntity" class="frame" font-size="25" id="3ev" x="5152" y="3187">
Date
</text>
<text baseline-shift="-50%" cb-classname="GraphicTextEntity" class="frame" font-size="25" id="3e5" text-anchor="middle" x="4660" y="3252">
Drawing Number
</text>
<text baseline-shift="-50%" cb-classname="GraphicTextEntity" class="frame" font-size="25" id="3oO" text-anchor="middle" x="4680" y="3325">
CTL
</text>
</g>
<text baseline-shift="-50%" cb-classname="GraphicTextEntity" class="frame" font-size="48" id="3oj" text-anchor="middle" x="3000" y="3100">
EMERSON PROCESS MANAGEMENT
</text>
<g baseline-shift="-100%" cb-anchor-x="2360" cb-anchor-y="3140" cb-classname="GroupText" cb-max-width="1260" fill="black" id="3o0">
<text baseline-shift="-100%" cb-classname="GraphicTextEntity" class="frame" fill="black" font-family="arial" font-size="22" font-weight="normal" id="3oI" text-anchor="start" text-decoration="normal" x="2360" y="3140">
THIS DOCUMENT CONTAINS INFORMATION PROPRIETARY TO EMERSON PROCESS
</text>
<text baseline-shift="-100%" cb-classname="GraphicTextEntity" class="frame" fill="black" font-family="arial" font-size="22" font-weight="normal" id="3oq" text-anchor="start" text-decoration="normal" x="2360" y="3176">
MANAGEMENT POWER &amp; WATER SOLUTIONS, INC. IT IS SUBMITTED IN CONFIDENCE AND
</text>
<text baseline-shift="-100%" cb-classname="GraphicTextEntity" class="frame" fill="black" font-family="arial" font-size="22" font-weight="normal" id="3om" text-anchor="start" text-decoration="normal" x="2360" y="3212">
TRUST, IS TO BE USED BY YOU SOLELY FOR THE PURPOSES FOR WHICH IT IS
</text>
<text baseline-shift="-100%" cb-classname="GraphicTextEntity" class="frame" fill="black" font-family="arial" font-size="22" font-weight="normal" id="3on" text-anchor="start" text-decoration="normal" x="2360" y="3248">
FURNISHED AND IS TO BE RETURNED UPON REQUEST. THIS DOCUMENT AND ANY
</text>
<text baseline-shift="-100%" cb-classname="GraphicTextEntity" class="frame" fill="black" font-family="arial" font-size="22" font-weight="normal" id="3ol" text-anchor="start" text-decoration="normal" x="2360" y="3284">
OTHER INFORMATION PROVIDED TO YOU IS NOT TO BE REPRODUCED, TRANSMITTED,
</text>
<text baseline-shift="-100%" cb-classname="GraphicTextEntity" class="frame" fill="black" font-family="arial" font-size="22" font-weight="normal" id="3ov" text-anchor="start" text-decoration="normal" x="2360" y="3320">
DISCLOSED, OR USED OTHERWISE IN WHOLE OR IN PART WITHOUT THE PRIOR
</text>
<text baseline-shift="-100%" cb-classname="GraphicTextEntity" class="frame" fill="black" font-family="arial" font-size="22" font-weight="normal" id="3o5" text-anchor="start" text-decoration="normal" x="2360" y="3356">
WRITTEN AUTHORIZATION OF EMERSON PROCESS MANAGEMENT POWER &amp; WATER
</text>
<text baseline-shift="-100%" cb-classname="GraphicTextEntity" class="frame" fill="black" font-family="arial" font-size="22" font-weight="normal" id="3CO" text-anchor="start" text-decoration="normal" x="2360" y="3392">
SOLUTIONS,INC.
</text>
</g>
</g>
</svg>