<?xml version="1.0" ?><svg cb-auto-time="03/12/2018 10:01:59" cb-classname="ControlFunction" cb-create-time="12/06/2017" cb-drop-id="2" cb-engineer="R.Kragnys" cb-filename="Z:\OVATION\NET0\UNIT0\CONTROLFUNCTIONS\0016.svg" cb-function-id="0016" cb-key="234244332152" cb-modified-timestamp="1569932189" cb-modify-id="00000004" cb-path="Z:/OVATION/NET0/UNIT0/CONTROLFUNCTIONS" cb-revision="A" cb-revision-time="03/12/2018" cb-sheet-number="035" cb-sheet-title="LeanAIR - load component calculation" cb-snap-grid="10" cb-task-id="2" height="3522" id="1" width="5450" xmlns="http://www.w3.org/2000/svg">
<style cb-classname="EntityStyle" id="2" type="text/css">
	.algorithm { fill: white; stroke: black; stroke-width: 3 }
	.algorithm-function { fill: black; stroke: none }
	.algorithm-functionline { fill: none; stroke: black; stroke-linecap: round; stroke-width: 3 }
	.algorithm-name { fill: black; stroke: none }
	.algorithm-nameline { fill: none; stroke: black; stroke-linecap: round; stroke-width: 3 }
	.algorithm-sequence { fill: black; stroke: none; visibility: hidden }
	.algorithm-sequenceline { fill: none; stroke: black; stroke-linecap: round; stroke-width: 3; visibility: hidden }
	.algorithmline { fill: none; stroke: black; stroke-linecap: round; stroke-width: 3 }
	.annotation { fill: black; stroke: none }
	.annotationline { fill: none; stroke: black; stroke-linecap: round; stroke-width: 3 }
	.description { fill: black; stroke: none }
	.descriptionline { fill: none; stroke: black; stroke-linecap: round; stroke-width: 3 }
	.frame { fill: black; stroke: none }
	.frameline { fill: none; stroke: black; stroke-linecap: round; stroke-width: 3 }
	.signal { fill: black; stroke: none }
	.signalline { fill: none; stroke: black; stroke-linecap: round; stroke-width: 3 }
	text.algorithm { fill: black; font-family: Arial; font-size: 22; stroke: none }
	text.algorithm-function { fill: black; font-family: Arial; font-size: 22; stroke: none }
	text.algorithm-name { fill: black; font-family: Arial; font-size: 22; stroke: none }
	text.algorithm-sequence { fill: black; font-family: Arial; font-size: 22; stroke: none; visibility: hidden }
	text.annotation { fill: black; font-family: Arial; font-size: 22; stroke: none }
	text.description { fill: black; font-family: Arial; font-size: 28; stroke: none }
	text.frame { fill: black; font-family: Arial; font-size: 18; stroke: none }
	text.signal { fill: black; font-family: Arial; font-size: 12; stroke: none }
</style>
<g cb-classname="NamedObject" cb-objectname="Comments" id="3">
<text baseline-shift="0%" cb-classname="GraphicTextEntity" class="annotation" fill="#000000" font-family="MS Shell Dlg 2" font-size="22" id="1iZi" x="1010" y="660">
%
</text>
<text baseline-shift="0%" cb-classname="GraphicTextEntity" class="annotation" fill="#000000" font-family="MS Shell Dlg 2" font-size="22" id="1iw2" x="1810" y="650">
%
</text>
<text baseline-shift="0%" cb-classname="GraphicTextEntity" class="annotation" fill="#000000" font-family="MS Shell Dlg 2" font-size="22" id="1iw3" x="3360" y="650">
%
</text>
<text baseline-shift="0%" cb-classname="GraphicTextEntity" class="annotation" fill="#000000" font-family="MS Shell Dlg 2" font-size="22" id="1iwh" x="4960" y="650">
%
</text>
<rect cb-classname="GraphicRectangleEntity" class="annotation" fill="none" height="810" id="2QK1" stroke="red" stroke-dasharray="5,4" stroke-width="6" width="1300" x="3800" y="1210"/>
<text baseline-shift="0%" cb-classname="GraphicTextEntity" class="annotation" fill="#000000" font-family="MS Shell Dlg 2" font-size="22" id="2QKZ" x="4850" y="2000">
CROSS LIMITING
</text>
</g>
<g cb-classname="AlgorithmContainer" cb-objectname="Algorithms" id="4">
<g cb-alg-EZa3="NO" cb-alg-EiZ="LA-BLRDMD-FFRAW" cb-algorithm-id="00E" cb-classname="ExternalPointInterface" cb-function-name="INPUT" id="8O">
<ellipse cb-classname="GraphicEllipseEntity" class="algorithm" cx="3330" cy="330" id="9Q" rx="40" ry="40"/>
<rect cb-classname="GraphicRectangleEntity" class="algorithm" height="30" id="9V" width="80" x="3290" y="260"/>
<line cb-classname="GraphicLineEntity" class="algorithm" id="9F" x1="3330" x2="3330" y1="290" y2="260"/>
<g cb-classname="PointStatusIndicator" cb-indicator-type="Highway" cb-source="B5-MuP-tjn" id="91" visibility="hidden">
<line cb-classname="GraphicLineEntity" class="algorithmline" id="9j" x1="3330" x2="3290" y1="290" y2="330"/>
<line cb-classname="GraphicLineEntity" class="algorithmline" id="9b" x1="3290" x2="3330" y1="330" y2="370"/>
<line cb-classname="GraphicLineEntity" class="algorithmline" id="9i" x1="3330" x2="3370" y1="370" y2="330"/>
<line cb-classname="GraphicLineEntity" class="algorithmline" id="92" x1="3370" x2="3330" y1="330" y2="290"/>
</g>
<g cb-classname="PointStatusIndicator" cb-indicator-type="hardware" cb-source="M1-gia-uhi" id="9E" visibility="hidden">
<line cb-classname="GraphicLineEntity" class="algorithmline" id="9O" x1="3290" x2="3290" y1="290" y2="370"/>
<line cb-classname="GraphicLineEntity" class="algorithmline" id="1Qp" x1="3290" x2="3370" y1="370" y2="370"/>
<line cb-classname="GraphicLineEntity" class="algorithmline" id="1QA" x1="3370" x2="3370" y1="370" y2="290"/>
</g>
<g cb-classname="PointStatusIndicator" cb-indicator-type="alarm" cb-source="0V-rq6-cbw" id="1QK" visibility="hidden">
<text baseline-shift="-50%" cb-classname="GraphicTextEntity" class="algorithm" fill="#000000" font-family="Arial" font-size="20" id="1QI" text-anchor="middle" x="3310" y="271">
A
</text>
</g>
<g cb-classname="PointStatusIndicator" cb-indicator-type="ingraphic" cb-source="cJ-xRb-TSU" id="1QX" visibility="hidden">
<text baseline-shift="-50%" cb-classname="GraphicTextEntity" class="algorithm" fill="#000000" font-family="Arial" font-size="20" id="1Qs" text-anchor="middle" x="3350" y="269">
G
</text>
</g>
<g cb-classname="DynamicText" cb-labeled="false" cb-pin-name="iPw" cb-source="B5-MuP-tjn" class="algorithm" id="1QS" text-anchor="middle">
<text cb-classname="GraphicTextEntity" class="algorithm" fill="black" font-family="Arial" font-size="20" font-style="normal" font-weight="normal" id="1QQ" text-anchor="middle" text-decoration="normal" x="3330" y="250"/>
</g>
<g baseline-shift="-100%" cb-anchor-x="3343" cb-anchor-y="383" cb-classname="PointReferences" cb-max-width="240" cb-originator="true" cb-source="iW-Unn-EiZ" class="signal" id="1QZ" text-anchor="start">
<text baseline-shift="-100%" cb-classname="GraphicTextEntity" class="algorithm" id="1Qw" text-anchor="start" x="3343" y="383">
2/040
</text>
</g>
<g baseline-shift="0%" cb-anchor-x="3330" cb-anchor-y="220" cb-classname="PointDescription" cb-content="extended" cb-labeled="false" cb-max-width="240" cb-source="02-ybJ-Mci" class="algorithm" id="1Vp" text-anchor="middle">
<text baseline-shift="0%" cb-classname="GraphicTextEntity" class="algorithm" id="1VA" text-anchor="middle" x="3330" y="150">
Boiler demand FF
</text>
<text baseline-shift="0%" cb-classname="GraphicTextEntity" class="algorithm" id="1VK" text-anchor="middle" x="3330" y="186">
without forsage
</text>
<text baseline-shift="0%" cb-classname="GraphicTextEntity" class="algorithm" id="1VI" text-anchor="middle" x="3330" y="222">
0 - 105 MWth
</text>
</g>
<g cb-classname="ControlPin" cb-pin-name="ls-lxx-I8L" id="1VX">
<line cb-classname="GraphicLineEntity" class="signalline" id="1Vs" x1="3330" x2="3330" y1="370" y2="390"/>
<g cb-classname="SignalSegment" id="1VS">
<line cb-classname="GraphicLineEntity" class="signalline" id="1VQ" x1="3330" x2="3330" y1="390" y2="540"/>
<g cb-classname="SignalConnection" cb-graphic-line="$117$" cb-input-pin="$K3P$" id="1VZ"/>
</g>
</g>
</g>
<g cb-alg-YLu="LA-HEATREAL" cb-alg-YNjb="NO" cb-algorithm-id="001" cb-classname="ExternalPointInterface" cb-function-name="INPUT" id="1Vw">
<ellipse cb-classname="GraphicEllipseEntity" class="algorithm" cx="4970" cy="330" id="1Fp" rx="40" ry="40"/>
<rect cb-classname="GraphicRectangleEntity" class="algorithm" height="30" id="1FA" width="80" x="4930" y="260"/>
<line cb-classname="GraphicLineEntity" class="algorithm" id="1FK" x1="4970" x2="4970" y1="290" y2="260"/>
<g cb-classname="PointStatusIndicator" cb-indicator-type="Highway" cb-source="02-ybJ-Mci" id="1FI" visibility="hidden">
<line cb-classname="GraphicLineEntity" class="algorithmline" id="1FX" x1="4970" x2="4930" y1="290" y2="330"/>
<line cb-classname="GraphicLineEntity" class="algorithmline" id="1Fs" x1="4930" x2="4970" y1="330" y2="370"/>
<line cb-classname="GraphicLineEntity" class="algorithmline" id="1FS" x1="4970" x2="5010" y1="370" y2="330"/>
<line cb-classname="GraphicLineEntity" class="algorithmline" id="1FQ" x1="5010" x2="4970" y1="330" y2="290"/>
</g>
<g cb-classname="PointStatusIndicator" cb-indicator-type="hardware" cb-source="0V-rq6-cbw" id="1FZ" visibility="hidden">
<line cb-classname="GraphicLineEntity" class="algorithmline" id="1Fw" x1="4930" x2="4930" y1="290" y2="370"/>
<line cb-classname="GraphicLineEntity" class="algorithmline" id="11p" x1="4930" x2="5010" y1="370" y2="370"/>
<line cb-classname="GraphicLineEntity" class="algorithmline" id="11A" x1="5010" x2="5010" y1="370" y2="290"/>
</g>
<g cb-classname="PointStatusIndicator" cb-indicator-type="alarm" cb-source="B5-MuP-tjn" id="11K" visibility="hidden">
<text baseline-shift="-50%" cb-classname="GraphicTextEntity" class="algorithm" fill="#000000" font-family="Arial" font-size="20" id="11I" text-anchor="middle" x="4950" y="271">
A
</text>
</g>
<g cb-classname="PointStatusIndicator" cb-indicator-type="ingraphic" cb-source="iW-Unn-EiZ" id="11X" visibility="hidden">
<text baseline-shift="-50%" cb-classname="GraphicTextEntity" class="algorithm" fill="#000000" font-family="Arial" font-size="20" id="11s" text-anchor="middle" x="4990" y="269">
G
</text>
</g>
<g cb-classname="DynamicText" cb-labeled="false" cb-pin-name="DWH" cb-source="02-ybJ-Mci" class="algorithm" id="11S" text-anchor="middle">
<text cb-classname="GraphicTextEntity" class="algorithm" fill="black" font-family="Arial" font-size="20" font-style="normal" font-weight="normal" id="11Q" text-anchor="middle" text-decoration="normal" x="4970" y="250"/>
</g>
<g baseline-shift="-100%" cb-anchor-x="4983" cb-anchor-y="383" cb-classname="PointReferences" cb-max-width="240" cb-originator="true" cb-source="zW-u3B-Vqh" class="signal" id="11Z" text-anchor="start">
<text baseline-shift="-100%" cb-classname="GraphicTextEntity" class="algorithm" id="11w" text-anchor="start" x="4983" y="383">
2/021
</text>
</g>
<g baseline-shift="0%" cb-anchor-x="4970" cb-anchor-y="220" cb-classname="PointDescription" cb-content="extended" cb-labeled="false" cb-max-width="320" cb-source="ls-lxx-I8L" class="algorithm" id="1jp" text-anchor="middle">
<text baseline-shift="0%" cb-classname="GraphicTextEntity" class="algorithm" id="1jA" text-anchor="middle" x="4970" y="185">
Heat realise
</text>
<text baseline-shift="0%" cb-classname="GraphicTextEntity" class="algorithm" id="1jK" text-anchor="middle" x="4970" y="221">
0 - 105 MWth
</text>
</g>
<g cb-classname="ControlPin" cb-pin-name="cJ-xRb-TSU" id="1jI">
<line cb-classname="GraphicLineEntity" class="signalline" id="1jX" x1="4970" x2="4970" y1="370" y2="390"/>
<g cb-classname="SignalSegment" id="1js">
<g cb-classname="SignalConnection" cb-graphic-line="$147$" cb-input-pin="$9Td$" id="1jS"/>
<line cb-classname="GraphicLineEntity" class="signalline" id="1jQ" x1="4970" x2="4970" y1="390" y2="540"/>
</g>
</g>
</g>
<g cb-alg-CK07="NO" cb-alg-Cz6="LA-K2" cb-algorithm-id="008" cb-classname="ExternalPointInterface" cb-function-name="INPUT" id="1jZ">
<ellipse cb-classname="GraphicEllipseEntity" class="algorithm" cx="630" cy="470" id="1jw" rx="40" ry="40"/>
<rect cb-classname="GraphicRectangleEntity" class="algorithm" height="80" id="1bp" width="30" x="560" y="430"/>
<line cb-classname="GraphicLineEntity" class="algorithm" id="1bA" x1="560" x2="590" y1="470" y2="470"/>
<g cb-classname="PointStatusIndicator" cb-indicator-type="Highway" cb-source="4h-ST3-9Aa" id="1bK" visibility="hidden">
<line cb-classname="GraphicLineEntity" class="algorithmline" id="1bI" x1="590" x2="630" y1="470" y2="430"/>
<line cb-classname="GraphicLineEntity" class="algorithmline" id="1bX" x1="630" x2="670" y1="430" y2="470"/>
<line cb-classname="GraphicLineEntity" class="algorithmline" id="1bs" x1="670" x2="630" y1="470" y2="510"/>
<line cb-classname="GraphicLineEntity" class="algorithmline" id="1bS" x1="630" x2="590" y1="510" y2="470"/>
</g>
<g cb-classname="PointStatusIndicator" cb-indicator-type="hardware" cb-source="DU-SzB-xIv" id="1bQ" visibility="hidden">
<line cb-classname="GraphicLineEntity" class="algorithmline" id="1bZ" x1="590" x2="670" y1="430" y2="430"/>
<line cb-classname="GraphicLineEntity" class="algorithmline" id="1bw" x1="670" x2="670" y1="430" y2="510"/>
<line cb-classname="GraphicLineEntity" class="algorithmline" id="1ip" x1="670" x2="590" y1="510" y2="510"/>
</g>
<g cb-classname="PointStatusIndicator" cb-indicator-type="alarm" cb-source="Uv-GeA-Y9i" id="1iA" visibility="hidden">
<text cb-classname="GraphicTextEntity" class="algorithm" fill="#000000" font-family="arial" font-size="20" id="1iK" x="567" y="459">
A
</text>
</g>
<g cb-classname="PointStatusIndicator" cb-indicator-type="ingraphic" cb-source="M1-gia-uhi" id="1iI" visibility="hidden">
<text cb-classname="GraphicTextEntity" class="algorithm" fill="#000000" font-family="Arial" font-size="20" id="1iX" x="565" y="499">
G
</text>
</g>
<g baseline-shift="-50%" cb-anchor-x="542" cb-anchor-y="464" cb-classname="PointDescription" cb-content="extended" cb-labeled="false" cb-max-width="420" cb-source="4h-ST3-9Aa" class="algorithm" id="1is" text-anchor="end">
<text baseline-shift="-50%" cb-classname="GraphicTextEntity" class="algorithm" id="1iS" text-anchor="end" x="542" y="447">
Boiler thermal load for 100%
</text>
<text baseline-shift="-50%" cb-classname="GraphicTextEntity" class="algorithm" id="1iQ" text-anchor="end" x="542" y="483">
0 - 105 MWth
</text>
</g>
<g cb-classname="DynamicText" cb-labeled="false" cb-pin-name="fuX" cb-source="cG-yOV-lMo" class="algorithm" id="1iZ" text-anchor="start">
<text baseline-shift="0%" cb-classname="GraphicTextEntity" class="algorithm" fill="black" font-family="Arial" font-size="20" font-style="normal" font-weight="normal" id="1iw" text-anchor="start" text-decoration="normal" x="690" y="450"/>
</g>
<g baseline-shift="-100%" cb-anchor-x="690" cb-anchor-y="480" cb-classname="PointReferences" cb-max-width="230" cb-originator="true" cb-source="DU-SzB-xIv" class="signal" id="12p" text-anchor="start">
<text baseline-shift="-100%" cb-classname="GraphicTextEntity" class="algorithm" id="12A" text-anchor="start" x="690" y="480">
2/001
</text>
</g>
<g cb-classname="ControlPin" cb-pin-name="Hf-f77-qbn" id="12K">
<line cb-classname="GraphicLineEntity" class="signalline" id="12I" x1="670" x2="690" y1="470" y2="470"/>
<g cb-classname="SignalSegment" id="12X">
<g cb-classname="SignalSegment" id="12s">
<g cb-classname="SignalConnection" cb-graphic-line="$186$" cb-input-pin="$zeN$" id="1Es"/>
<line cb-classname="GraphicLineEntity" class="signalline" id="1ES" x1="1020" x2="1020" y1="470" y2="540"/>
<ellipse cb-classname="GraphicEllipseEntity" class="signal" cx="1020" cy="470" id="1EQ" rx="5" ry="5" stroke="black"/>
<g cb-classname="SignalSegment" id="1bAU">
<line cb-classname="GraphicLineEntity" class="signalline" id="1bAm" x1="3370" x2="3370" y1="470" y2="540"/>
<g cb-classname="SignalConnection" cb-graphic-line="$1516$" cb-input-pin="$ZF7$" id="1bA1"/>
<ellipse cb-classname="GraphicEllipseEntity" class="signal" cx="3370" cy="470" id="1bAZ" rx="5" ry="5" stroke="black"/>
<g cb-classname="SignalSegment" id="91p">
<g cb-classname="SignalConnection" cb-graphic-line="$2014$" cb-input-pin="$FXR$" id="2QAU"/>
<line cb-classname="GraphicLineEntity" class="signalline" id="2QAR" x1="5010" x2="5010" y1="470" y2="540"/>
</g>
<line cb-classname="GraphicLineEntity" class="signalline" id="2QAh" x1="3370" x2="5010" y1="470" y2="470"/>
</g>
<line cb-classname="GraphicLineEntity" class="signalline" id="1bAR" x1="1020" x2="3370" y1="470" y2="470"/>
</g>
<line cb-classname="GraphicLineEntity" class="signalline" id="1EZ" x1="690" x2="1020" y1="470" y2="470"/>
</g>
</g>
</g>
<g cb-alg-293l="0.000000" cb-alg-61ew="ON" cb-alg-6Ayv="2.500000" cb-alg-6l3l="120" cb-alg-HNyA="81" cb-alg-Hhv="$148$cb-alg-out$" cb-alg-HhvA="0.01" cb-alg-Hhvh="0.000000" cb-alg-SSd="$89$cb-alg-out$" cb-alg-SSdA="1.000000" cb-alg-SSdh="0.000000" cb-alg-TSU="LA-BLRDMD-RAW-PTC" cb-algorithm-id="00B" cb-classname="ControlAlgorithm" cb-function-name="DIVIDE" cb-modify-id="00000001" id="1Ew">
<rect cb-classname="GraphicRectangleEntity" class="algorithm" height="60" id="1Op" width="100" x="3300" y="560"/>
<ellipse cb-classname="GraphicEllipseEntity" class="algorithm" cx="3350" cy="575" fill="black" id="1OA" rx="6" ry="6"/>
<ellipse cb-classname="GraphicEllipseEntity" class="algorithm" cx="3350" cy="605" fill="black" id="1OK" rx="6" ry="6"/>
<line cb-classname="GraphicLineEntity" class="algorithmline" id="1OI" x1="3330" x2="3370" y1="590" y2="590"/>
<g cb-classname="ControlPin" cb-pin-name="cG-yOV-lMo" id="1OX">
<line cb-classname="GraphicLineEntity" class="signalline" id="1Os" x1="3350" x2="3350" y1="620" y2="640"/>
<g cb-classname="DynamicText" cb-source="DU-8VP-ByPL" class="signal" id="1OS" text-anchor="end">
<text baseline-shift="5%" cb-classname="GraphicTextEntity" class="signal" fill="black" font-style="normal" font-weight="normal" id="1OQ" text-anchor="end" text-decoration="normal" transform="translate(3345,616)rotate(-90)"/>
</g>
<g cb-classname="SignalSegment" id="1OZ">
<line cb-classname="GraphicLineEntity" class="signalline" id="1Ow" x1="3350" x2="3350" y1="640" y2="840"/>
<g cb-classname="SignalSegment" id="2Qp">
<ellipse cb-classname="GraphicEllipseEntity" class="signal" cx="3350" cy="840" id="11Ii" rx="5" ry="5" stroke="black"/>
<line cb-classname="GraphicLineEntity" class="signalline" id="1jQm" x1="3350" x2="3970" y1="840" y2="840"/>
<g cb-classname="SignalSegment" id="1jQ1">
<line cb-classname="GraphicLineEntity" class="signalline" id="1jQZ" x1="3970" x2="3970" y1="840" y2="1600"/>
<g cb-classname="SignalConnection" cb-graphic-line="$1478$" cb-input-pin="$1EW$" id="1jQi"/>
<ellipse cb-classname="GraphicEllipseEntity" class="signal" cx="3970" cy="840" id="1jZ2" rx="5" ry="5" stroke="black"/>
<line cb-classname="GraphicLineEntity" class="signalline" id="1OZh" x1="3970" x2="4890" y1="840" y2="840"/>
<g cb-classname="SignalSegment" id="1OZs">
<line cb-classname="GraphicLineEntity" class="signalline" id="1OZR" x1="4890" x2="4890" y1="840" y2="1090"/>
<g cb-classname="SignalConnection" cb-graphic-line="$1984$" cb-input-pin="$LXWW$" id="1OZU"/>
</g>
</g>
<line cb-classname="GraphicLineEntity" class="signalline" id="1OQR" x1="3350" x2="3350" y1="840" y2="1090"/>
<g cb-classname="SignalConnection" cb-graphic-line="$1974$" cb-input-pin="$sKQf$" id="1OQU"/>
<line cb-classname="GraphicLineEntity" class="signalline" id="1Owm" x1="3350" x2="1910" y1="840" y2="840"/>
<g cb-classname="SignalSegment" id="1Ow1">
<line cb-classname="GraphicLineEntity" class="signalline" id="1OwZ" x1="1910" x2="1910" y1="840" y2="1090"/>
<g cb-classname="SignalConnection" cb-graphic-line="$1998$" cb-input-pin="$FEDK$" id="1Owi"/>
</g>
</g>
</g>
</g>
<g cb-classname="ControlPin" cb-pin-name="B5-MuP-vjx" id="2Vp">
<line cb-classname="GraphicLineEntity" class="signalline" id="2VA" x1="3330" x2="3330" y1="540" y2="560"/>
<polygon cb-classname="GraphicPolygonEntity" class="signal" id="2VK" points="3330,560 3334,549 3326,549"/>
<g cb-classname="DynamicText" cb-source="Uv-lNR-9lPN" class="signal" id="2VI">
<text baseline-shift="5%" cb-classname="GraphicTextEntity" class="signal" fill="black" font-style="normal" font-weight="normal" id="2VX" text-decoration="normal" transform="translate(3327,541)rotate(-90)"/>
</g>
</g>
<g cb-classname="ControlPin" cb-pin-name="M1-gia-sNA" id="2Vs">
<line cb-classname="GraphicLineEntity" class="signalline" id="2VS" x1="3370" x2="3370" y1="540" y2="560"/>
<polygon cb-classname="GraphicPolygonEntity" class="signal" id="2VQ" points="3370,560 3374,549 3366,549"/>
<g cb-classname="DynamicText" cb-source="ls-q28-HCU0" class="signal" id="2VZ">
<text baseline-shift="5%" cb-classname="GraphicTextEntity" class="signal" fill="black" font-style="normal" font-weight="normal" id="2Vw" text-decoration="normal" transform="translate(3367,541)rotate(-90)"/>
</g>
</g>
</g>
<g cb-alg-99P="$119$cb-alg-out$" cb-alg-99P7="0.000000" cb-alg-99Px="1.000000" cb-alg-Barx="81" cb-alg-Bn5="$148$cb-alg-out$" cb-alg-Bn57="0.000000" cb-alg-Bn5x="0.01" cb-alg-VZWe="0.000000" cb-alg-nGxc="ON" cb-alg-nqWe="120" cb-alg-nwri="2.500000" cb-algorithm-id="009" cb-classname="ControlAlgorithm" cb-function-name="DIVIDE" cb-modify-id="00000001" id="2Fp">
<rect cb-classname="GraphicRectangleEntity" class="algorithm" height="60" id="2FA" width="100" x="4940" y="560"/>
<ellipse cb-classname="GraphicEllipseEntity" class="algorithm" cx="4990" cy="575" fill="black" id="2FK" rx="6" ry="6"/>
<ellipse cb-classname="GraphicEllipseEntity" class="algorithm" cx="4990" cy="605" fill="black" id="2FI" rx="6" ry="6"/>
<line cb-classname="GraphicLineEntity" class="algorithmline" id="2FX" x1="4970" x2="5010" y1="590" y2="590"/>
<g cb-classname="ControlPin" cb-pin-name="iW-Unn-EiZ" id="2Fs">
<line cb-classname="GraphicLineEntity" class="signalline" id="2FS" x1="4990" x2="4990" y1="620" y2="640"/>
<g cb-classname="DynamicText" cb-source="02-odC-RrEs" class="signal" id="2FQ" text-anchor="end">
<text baseline-shift="5%" cb-classname="GraphicTextEntity" class="signal" fill="black" font-style="normal" font-weight="normal" id="2FZ" text-anchor="end" text-decoration="normal" transform="translate(4985,616)rotate(-90)"/>
</g>
<g cb-classname="SignalSegment" id="2Fw">
<line cb-classname="GraphicLineEntity" class="signalline" id="21p" x1="4990" x2="4990" y1="640" y2="1020"/>
<g cb-classname="SignalSegment" id="21A">
<ellipse cb-classname="GraphicEllipseEntity" class="signal" cx="4990" cy="1020" id="1OsR" rx="5" ry="5" stroke="black"/>
<g cb-classname="SignalSegment" id="2Qp3">
<line cb-classname="GraphicLineEntity" class="signalline" id="2Qph" x1="4340" x2="4340" y1="1020" y2="1780"/>
<ellipse cb-classname="GraphicEllipseEntity" class="signal" cx="4340" cy="1020" id="2QpR" rx="5" ry="5" stroke="black"/>
<g cb-classname="SignalSegment" id="1OQi">
<line cb-classname="GraphicLineEntity" class="signalline" id="2Qp1" x1="3450" x2="3450" y1="1020" y2="1090"/>
<g cb-classname="SignalConnection" cb-graphic-line="$2007$" cb-input-pin="$A1kZ$" id="2QAm"/>
</g>
<line cb-classname="GraphicLineEntity" class="signalline" id="2QpU" x1="4340" x2="3450" y1="1020" y2="1020"/>
<g cb-classname="SignalConnection" cb-graphic-line="$2002$" cb-input-pin="$RPg$" id="2QA1"/>
</g>
<line cb-classname="GraphicLineEntity" class="signalline" id="2Qp2" x1="4990" x2="4340" y1="1020" y2="1020"/>
<line cb-classname="GraphicLineEntity" class="signalline" id="2QA2" x1="4990" x2="4990" y1="1020" y2="1090"/>
<g cb-classname="SignalConnection" cb-graphic-line="$2010$" cb-input-pin="$Ye4E$" id="2QAZ"/>
</g>
</g>
</g>
<g cb-classname="ControlPin" cb-pin-name="Uv-GeA-99P" id="21w">
<line cb-classname="GraphicLineEntity" class="signalline" id="2jp" x1="4970" x2="4970" y1="540" y2="560"/>
<polygon cb-classname="GraphicPolygonEntity" class="signal" id="2jA" points="4970,560 4974,549 4966,549"/>
<g cb-classname="DynamicText" cb-source="zW-KdR-8MDW" class="signal" id="2jK">
<text baseline-shift="5%" cb-classname="GraphicTextEntity" class="signal" fill="black" font-style="normal" font-weight="normal" id="2jI" text-decoration="normal" transform="translate(4967,541)rotate(-90)"/>
</g>
</g>
<g cb-classname="ControlPin" cb-pin-name="ls-lxx-4WM" id="2jX">
<line cb-classname="GraphicLineEntity" class="signalline" id="2js" x1="5010" x2="5010" y1="540" y2="560"/>
<polygon cb-classname="GraphicPolygonEntity" class="signal" id="2jS" points="5010,560 5014,549 5006,549"/>
<g cb-classname="DynamicText" cb-source="cJ-6jB-SGdz" class="signal" id="2jQ">
<text baseline-shift="5%" cb-classname="GraphicTextEntity" class="signal" fill="black" font-style="normal" font-weight="normal" id="2jZ" text-decoration="normal" transform="translate(5007,541)rotate(-90)"/>
</g>
</g>
</g>
<g cb-alg-JMg="75" cb-alg-jB4="$220$cb-alg-out$" cb-alg-jBN="$189$cb-alg-out$" cb-alg-nFg="LA-AUXA-LOAD-REF" cb-algorithm-id="019" cb-classname="ControlMacroReference" cb-function-name="NRO-ASEL" cb-macro-crc="42675" cb-modify-id="00000004" id="12ZU">
<rect cb-classname="GraphicRectangleEntity" class="annotation" fill="teal" height="50" id="12Zm" width="160" x="3320" y="1110"/>
<text baseline-shift="0%" cb-classname="GraphicTextEntity" class="annotation" fill="#000000" font-family="MS Shell Dlg 2" font-size="12" id="12Z1" x="3330" y="1130">
RATIO IN1 vs IN2
</text>
<g cb-classname="ControlPin" cb-pin-name="M1-gia-28u" id="12ZZ">
<line cb-classname="GraphicLineEntity" class="signalline" id="12Zi" x1="3350" x2="3350" y1="1090" y2="1110"/>
<polygon cb-classname="GraphicPolygonEntity" class="signal" id="12w2" points="3350,1110 3355,1099 3344,1099"/>
<g cb-classname="DynamicText" cb-source="ls-q28-HCU0" id="12w3">
<text cb-classname="GraphicTextEntity" class="signal" id="12wh" text-anchor="start" transform="translate(3347,1095)rotate(-90)"/>
</g>
</g>
<g cb-classname="ControlPin" cb-pin-name="cG-yOV-lMo" id="12ws">
<line cb-classname="GraphicLineEntity" class="signalline" id="12wR" x1="3400" x2="3400" y1="1160" y2="1180"/>
<g cb-classname="DynamicText" cb-source="DU-8VP-ByPL" id="12wU">
<text cb-classname="GraphicTextEntity" class="signal" id="12wm" text-anchor="end" transform="translate(3397,1174)rotate(-90)"/>
</g>
<g cb-classname="SignalSegment" id="1EA3">
<line cb-classname="GraphicLineEntity" class="signalline" id="1OQm" x1="3400" x2="3400" y1="1180" y2="2140"/>
<g cb-classname="SignalConnection" cb-graphic-line="$1976$" cb-input-pin="$ZUl$" id="1OQ1"/>
</g>
</g>
<g cb-classname="ControlPin" cb-pin-name="Hf-f77-dCD" id="12w1">
<line cb-classname="GraphicLineEntity" class="signalline" id="12wZ" x1="3450" x2="3450" y1="1090" y2="1110"/>
<polygon cb-classname="GraphicPolygonEntity" class="signal" id="12wi" points="3450,1110 3455,1099 3444,1099"/>
<g cb-classname="DynamicText" cb-source="02-odC-RrEs" id="1Ep2">
<text cb-classname="GraphicTextEntity" class="signal" id="1Ep3" text-anchor="start" transform="translate(3447,1095)rotate(-90)"/>
</g>
</g>
<g cb-classname="GraphicShape" id="1Eph">
<g cb-classname="DynamicText" cb-labeled="true" cb-source="4h-ST3-GRa" id="1Eps">
<text cb-classname="GraphicTextEntity" class="algorithm" font-size="12" id="1EpR" text-anchor="start" x="3370" y="1150"/>
</g>
</g>
</g>
<g cb-alg-dC="$1785$cb-alg-out$" cb-algorithm-id="010" cb-classname="ExternalPointInterface" cb-function-name="OUTPUT" id="8Fw">
<ellipse cb-classname="GraphicEllipseEntity" class="algorithm" cx="3400" cy="2200" id="81p" rx="40" ry="40"/>
<rect cb-classname="GraphicRectangleEntity" class="algorithm" height="30" id="81A" rx="0" width="80" x="3360" y="2240"/>
<line cb-classname="GraphicLineEntity" class="algorithm" id="81K" x1="3400" x2="3400" y1="2240" y2="2270"/>
<g cb-classname="PointStatusIndicator" cb-indicator-type="hardware" cb-source="DU-SzB-Nv" id="81I" visibility="hidden">
<line cb-classname="GraphicLineEntity" class="algorithmline" id="81X" x1="3360" x2="3360" y1="2240" y2="2160"/>
<line cb-classname="GraphicLineEntity" class="algorithmline" id="81s" x1="3360" x2="3440" y1="2160" y2="2160"/>
<line cb-classname="GraphicLineEntity" class="algorithmline" id="81S" x1="3440" x2="3440" y1="2160" y2="2240"/>
</g>
<g cb-classname="PointStatusIndicator" cb-indicator-type="Highway" cb-source="Uv-GeA-dR" id="81Q" visibility="hidden">
<line cb-classname="GraphicLineEntity" class="algorithmline" id="81Z" x1="3360" x2="3400" y1="2200" y2="2160"/>
<line cb-classname="GraphicLineEntity" class="algorithmline" id="81w" x1="3400" x2="3440" y1="2160" y2="2200"/>
<line cb-classname="GraphicLineEntity" class="algorithmline" id="8jp" x1="3440" x2="3400" y1="2200" y2="2240"/>
<line cb-classname="GraphicLineEntity" class="algorithmline" id="8jA" x1="3400" x2="3360" y1="2240" y2="2200"/>
</g>
<g cb-classname="PointStatusIndicator" cb-indicator-type="alarm" cb-source="ls-lxx-sp" id="8jK" visibility="hidden">
<text cb-classname="GraphicTextEntity" class="algorithm" fill="#000000" font-family="Arial" font-size="20" id="8jI" x="3373" y="2264">
A
</text>
</g>
<g cb-classname="PointStatusIndicator" cb-indicator-type="ingraphic" cb-source="cG-yOV-PH" id="8jX" visibility="hidden">
<text cb-classname="GraphicTextEntity" class="algorithm" fill="#000000" font-family="Arial" font-size="20" id="8js" x="3410" y="2265">
G
</text>
</g>
<g baseline-shift="-100%" cb-anchor-x="3400" cb-anchor-y="2320" cb-classname="PointDescription" cb-content="extended" cb-labeled="false" cb-max-width="240" cb-source="DU-SzB-Nv" class="algorithm" id="8jS" text-anchor="middle">
<text baseline-shift="-100%" cb-classname="GraphicTextEntity" class="algorithm" id="8jQ" text-anchor="middle" x="3400" y="2320">
Load reference for
</text>
<text baseline-shift="-100%" cb-classname="GraphicTextEntity" class="algorithm" id="8jZ" text-anchor="middle" x="3400" y="2356">
AUX air DMD Calc.
</text>
<text baseline-shift="-100%" cb-classname="GraphicTextEntity" class="algorithm" id="1EKs" text-anchor="middle" x="3400" y="2392">
0 - 100 %
</text>
</g>
<g cb-classname="DynamicText" cb-labeled="false" cb-pin-name="o2" cb-source="Uv-GeA-dR" class="algorithm" id="8bp" text-anchor="middle">
<text baseline-shift="-50%" cb-classname="GraphicTextEntity" class="algorithm" fill="black" font-family="Arial" font-size="20" font-style="normal" font-weight="normal" id="8bA" text-anchor="middle" text-decoration="normal" x="3400" y="2290"/>
</g>
<g baseline-shift="0%" cb-anchor-x="3420" cb-anchor-y="2140" cb-classname="PointReferences" cb-max-width="240" cb-originator="false" cb-source="M1-gia-28" class="signal" id="8bK" text-anchor="start">
<text baseline-shift="0%" cb-classname="GraphicTextEntity" class="algorithm" id="8bI" text-anchor="start" x="3420" y="2140">
2/040
</text>
</g>
<g cb-classname="ControlPin" cb-pin-name="0V-rq6-uM" id="8bS">
<line cb-classname="GraphicLineEntity" class="signalline" id="8bQ" x1="3400" x2="3400" y1="2140" y2="2160"/>
<polygon cb-classname="GraphicPolygonEntity" class="signal" id="8bZ" points="3400,2160 3404,2149 3396,2149"/>
</g>
</g>
<g cb-alg-Zli="48" cb-alg-dRb="$220$cb-alg-out$" cb-alg-dRv="$189$cb-alg-out$" cb-algorithm-id="004" cb-classname="ControlMacroReference" cb-function-name="NRO-ASEL" cb-macro-crc="42675" cb-modify-id="00000004" id="1OA2">
<rect cb-classname="GraphicRectangleEntity" class="annotation" fill="teal" height="50" id="1OA3" width="160" x="4860" y="1110"/>
<text baseline-shift="0%" cb-classname="GraphicTextEntity" class="annotation" fill="#000000" font-family="MS Shell Dlg 2" font-size="12" id="1OAh" x="4870" y="1130">
RATIO IN1 vs IN2
</text>
<g cb-classname="ControlPin" cb-pin-name="B5-MuP-NRF" id="1OAs">
<line cb-classname="GraphicLineEntity" class="signalline" id="1OAR" x1="4890" x2="4890" y1="1090" y2="1110"/>
<polygon cb-classname="GraphicPolygonEntity" class="signal" id="1OAU" points="4890,1110 4895,1099 4884,1099"/>
<g cb-classname="DynamicText" cb-source="Uv-lNR-9lPN" id="1OAm">
<text cb-classname="GraphicTextEntity" class="signal" id="1OA1" text-anchor="start" transform="translate(4887,1095)rotate(-90)"/>
</g>
</g>
<g cb-classname="ControlPin" cb-pin-name="M1-gia-uhi" id="1OAZ">
<line cb-classname="GraphicLineEntity" class="signalline" id="1OAi" x1="4940" x2="4940" y1="1160" y2="1180"/>
<g cb-classname="DynamicText" cb-source="4h-za5-AROF" id="1OK2">
<text cb-classname="GraphicTextEntity" class="signal" id="1OK3" text-anchor="end" transform="translate(4937,1174)rotate(-90)"/>
</g>
<g cb-classname="SignalSegment" id="1OsU">
<line cb-classname="GraphicLineEntity" class="signalline" id="2QAi" x1="4940" x2="4940" y1="1180" y2="1270"/>
<g cb-classname="SignalConnection" cb-graphic-line="$2019$" cb-input-pin="$ZuO$" id="2QK2"/>
</g>
</g>
<g cb-classname="ControlPin" cb-pin-name="0V-rq6-uMS" id="1OKh">
<line cb-classname="GraphicLineEntity" class="signalline" id="1OKs" x1="4990" x2="4990" y1="1090" y2="1110"/>
<polygon cb-classname="GraphicPolygonEntity" class="signal" id="1OKR" points="4990,1110 4995,1099 4984,1099"/>
<g cb-classname="DynamicText" cb-source="DU-8VP-ByPL" id="1OKU">
<text cb-classname="GraphicTextEntity" class="signal" id="1OKm" text-anchor="start" transform="translate(4987,1095)rotate(-90)"/>
</g>
</g>
<g cb-classname="GraphicShape" id="1OK1">
<g cb-classname="DynamicText" cb-labeled="true" cb-source="iW-Unn-NSZ" id="1OKZ">
<text cb-classname="GraphicTextEntity" class="algorithm" font-size="12" id="1OKi" text-anchor="start" x="4910" y="1150"/>
</g>
</g>
</g>
<g cb-alg-3F="0" cb-alg-3O="100.000000" cb-alg-5F="1" cb-alg-5O="1" cb-alg-PuyXZs="5" cb-alg-bLSXcL="5" cb-alg-bLSXs8="10" cb-alg-bua96="10" cb-alg-buaX5="5" cb-alg-dC="$1910$cb-alg-out$" cb-alg-hEnZuE="-999999999" cb-alg-l35Vv-ChjR="-999999999" cb-alg-l35Vv-iKjR="999999999" cb-alg-lAwAv-7Rib="5" cb-alg-lF7Dv-Q-F="1" cb-alg-lF7Dv-Q-T="2" cb-alg-lF7Dv-h-F="0" cb-alg-lF7Dv-h-T="100.000000" cb-alg-lFWdv-ORH="30" cb-alg-lX7Jv-ChjR="-999999999" cb-alg-lX7Jv-MH="SUM" cb-alg-lX7Jv-XsCp="84" cb-alg-lX7Jv-iKjR="999999999" cb-alg-lX7Jv-iUCL="2.500000" cb-alg-lX7Jv-iris="ON" cb-alg-lX7Jv-xHED="0.000000" cb-alg-lX7Jv-xHEp="1.000000" cb-alg-lX7Jv-xHFD="0.000000" cb-alg-lX7Jv-xHFp="1" cb-alg-lX7Jv-xHQD="0.000000" cb-alg-lX7Jv-xHQp="1.000000" cb-alg-lX7Jv-xHTD="0.000000" cb-alg-lX7Jv-xHTp="1" cb-alg-lXWAv-ChjR="-999999999" cb-alg-lXWAv-MH="SUM" cb-alg-lXWAv-XsCp="84" cb-alg-lXWAv-iKjR="999999999" cb-alg-lXWAv-iUCL="2.500000" cb-alg-lXWAv-iris="ON" cb-alg-lXWAv-xHED="0.000000" cb-alg-lXWAv-xHEp="1.000000" cb-alg-lXWAv-xHFD="0.000000" cb-alg-lXWAv-xHFp="1" cb-alg-lXWAv-xHQD="0.000000" cb-alg-lXWAv-xHQp="1.000000" cb-alg-lXWAv-xHTD="0.000000" cb-alg-lXWAv-xHTp="-1" cb-alg-mL3nHi="0" cb-alg-vEz="1E+09" cb-algorithm-id="015" cb-classname="ControlMacroReference" cb-function-name="ENRO_EXCESS" cb-macro-crc="39040" cb-modify-id="00000001" id="3jZ">
<rect cb-classname="GraphicRectangleEntity" class="annotation" fill="teal" height="120" id="3jw" width="130" x="4880" y="1290"/>
<text baseline-shift="0%" cb-classname="GraphicTextEntity" class="annotation" fill="#000000" font-family="MS Shell Dlg 2" font-size="18" id="3bp" x="4900" y="1340">
ALWAYS
</text>
<text baseline-shift="0%" cb-classname="GraphicTextEntity" class="annotation" fill="#000000" font-family="MS Shell Dlg 2" font-size="18" id="3bA" x="4920" y="1380">
LEAD
</text>
<g cb-classname="ControlPin" cb-pin-name="B5-MuP-NR" id="3bI">
<line cb-classname="GraphicLineEntity" class="signalline" id="3bX" x1="4940" x2="4940" y1="1270" y2="1290"/>
<polygon cb-classname="GraphicPolygonEntity" class="signal" id="3bs" points="4940,1290 4945,1279 4934,1279"/>
<g cb-classname="DynamicText" cb-source="Uv-lNR-9lPN" id="3bS">
<text cb-classname="GraphicTextEntity" class="signal" id="3bQ" text-anchor="start" transform="translate(4937,1275)rotate(-90)"/>
</g>
</g>
<g cb-classname="ControlPin" cb-pin-name="M1-gia-uhi" id="3bZ">
<line cb-classname="GraphicLineEntity" class="signalline" id="3bw" x1="4950" x2="4950" y1="1410" y2="1430"/>
<g cb-classname="DynamicText" cb-source="4h-za5-AROF" id="3ip">
<text cb-classname="GraphicTextEntity" class="signal" id="3iA" text-anchor="end" transform="translate(4947,1424)rotate(-90)"/>
</g>
<g cb-classname="SignalSegment" id="3iK">
<g cb-classname="SignalSegment" id="2QKh">
<line cb-classname="GraphicLineEntity" class="signalline" id="2QKs" x1="4950" x2="4010" y1="1510" y2="1510"/>
<g cb-classname="SignalSegment" id="2QKR">
<line cb-classname="GraphicLineEntity" class="signalline" id="2QKU" x1="4010" x2="4010" y1="1510" y2="1600"/>
<g cb-classname="SignalConnection" cb-graphic-line="$2025$" cb-input-pin="$XJm$" id="2QKm"/>
</g>
</g>
<line cb-classname="GraphicLineEntity" class="signalline" id="2QK3" x1="4950" x2="4950" y1="1430" y2="1510"/>
</g>
</g>
</g>
<g cb-alg-HzUn="WORSE" cb-alg-IYU7="83" cb-alg-LKU9="2.500000" cb-alg-Lr3z="150" cb-alg-VPE="$348$cb-alg-out$" cb-alg-VPE1="0.000000" cb-alg-VPE7="1.000000" cb-alg-VPh1="0.000000" cb-alg-VPh7="1.000000" cb-alg-VPn1="0.000000" cb-alg-VPn7="1.000000" cb-alg-VPs="$189$cb-alg-out$" cb-alg-VPs1="-15" cb-alg-VPs7="1.000000" cb-alg-Wg3z="0.000000" cb-algorithm-id="030" cb-classname="ControlAlgorithm" cb-function-name="HISELECT" cb-modify-id="00000001" id="3iw">
<rect cb-classname="GraphicRectangleEntity" class="algorithm" height="60" id="32p" width="100" x="3940" y="1620"/>
<line cb-classname="GraphicLineEntity" class="algorithmline" id="32A" x1="3970" x2="4010" y1="1630" y2="1650"/>
<line cb-classname="GraphicLineEntity" class="algorithmline" id="32K" x1="4010" x2="3970" y1="1650" y2="1670"/>
<g cb-classname="ControlPin" cb-pin-name="4h-ST3-xHF" id="32I">
<line cb-classname="GraphicLineEntity" class="signalline" id="32X" x1="3970" x2="3970" y1="1600" y2="1620"/>
<polygon cb-classname="GraphicPolygonEntity" class="signal" id="32s" points="3970,1620 3974,1609 3966,1609"/>
<g cb-classname="DynamicText" cb-source="cG-LxH-M6B8" class="signal" id="32S">
<text baseline-shift="5%" cb-classname="GraphicTextEntity" class="signal" fill="black" font-style="normal" font-weight="normal" id="32Q" text-decoration="normal" transform="translate(3966,1598)rotate(-90)"/>
</g>
</g>
<g cb-classname="ControlPin" cb-pin-name="DU-SzB-xIv" id="32Z">
<line cb-classname="GraphicLineEntity" class="signalline" id="32w" x1="3990" x2="3990" y1="1680" y2="1700"/>
<g cb-classname="DynamicText" cb-source="Hf-r0B-RuUn" class="signal" id="3Ep" text-anchor="end">
<text baseline-shift="5%" cb-classname="GraphicTextEntity" class="signal" fill="black" font-style="normal" font-weight="normal" id="3EA" text-anchor="end" text-decoration="normal" transform="translate(3984,1678)rotate(-90)"/>
</g>
<g cb-classname="SignalSegment" id="3EK">
<line cb-classname="GraphicLineEntity" class="signalline" id="11Qs" x1="3990" x2="3990" y1="1700" y2="1740"/>
<g cb-classname="SignalSegment" id="11QR">
<line cb-classname="GraphicLineEntity" class="signalline" id="11QU" x1="3990" x2="4380" y1="1740" y2="1740"/>
<g cb-classname="SignalSegment" id="11Qm">
<line cb-classname="GraphicLineEntity" class="signalline" id="11Q1" x1="4380" x2="4380" y1="1740" y2="1780"/>
<g cb-classname="SignalConnection" cb-graphic-line="$1377$" cb-input-pin="$jA2$" id="11QZ"/>
</g>
</g>
</g>
</g>
<g cb-classname="ControlPin" cb-pin-name="cG-yOV-PHD" id="3Ew">
<line cb-classname="GraphicLineEntity" class="signalline" id="3Op" x1="4010" x2="4010" y1="1600" y2="1620"/>
<polygon cb-classname="GraphicPolygonEntity" class="signal" id="3OA" points="4010,1620 4014,1609 4006,1609"/>
<g cb-classname="DynamicText" cb-source="B5-QYS-vgxj" class="signal" id="3OK">
<text baseline-shift="5%" cb-classname="GraphicTextEntity" class="signal" fill="black" font-style="normal" font-weight="normal" id="3OI" text-decoration="normal" transform="translate(4006,1598)rotate(-90)"/>
</g>
</g>
<g cb-classname="GraphicShape" id="3OX">
<g cb-classname="DynamicText" cb-labeled="true" cb-source="Uv-GeA-dRv7" id="3Os">
<text cb-classname="GraphicTextEntity" class="algorithm" id="3OS" text-anchor="start" x="3830" y="1610"/>
</g>
</g>
</g>
<g cb-alg-0B2="$369$cb-alg-out$" cb-alg-0B2A="1.000000" cb-alg-0B2h="0" cb-alg-0BXA="1.000000" cb-alg-0BXh="0.000000" cb-alg-0BbA="1.000000" cb-alg-0Bbh="0.000000" cb-alg-0Bm="$220$cb-alg-out$" cb-alg-0BmA="1.000000" cb-alg-0Bmh="-15" cb-alg-293l="0.000000" cb-alg-6Ayv="2.500000" cb-alg-6l3l="150" cb-alg-HNyA="83" cb-alg-TSU="LA-SCA-LOAD-REF" cb-alg-wSyb="WORSE" cb-algorithm-id="00D" cb-classname="ControlAlgorithm" cb-function-name="HISELECT" cb-modify-id="00000001" id="3OQ">
<rect cb-classname="GraphicRectangleEntity" class="algorithm" height="60" id="3OZ" width="100" x="4310" y="1800"/>
<line cb-classname="GraphicLineEntity" class="algorithmline" id="3Ow" x1="4340" x2="4380" y1="1810" y2="1830"/>
<line cb-classname="GraphicLineEntity" class="algorithmline" id="4Qp" x1="4380" x2="4340" y1="1830" y2="1850"/>
<g cb-classname="ControlPin" cb-pin-name="0V-rq6-uMG" id="4QA">
<line cb-classname="GraphicLineEntity" class="signalline" id="4QK" x1="4340" x2="4340" y1="1780" y2="1800"/>
<polygon cb-classname="GraphicPolygonEntity" class="signal" id="4QI" points="4340,1800 4344,1789 4336,1789"/>
<g cb-classname="DynamicText" cb-source="DU-8VP-ByPL" class="signal" id="4QX">
<text baseline-shift="5%" cb-classname="GraphicTextEntity" class="signal" fill="black" font-style="normal" font-weight="normal" id="4Qs" text-decoration="normal" transform="translate(4336,1778)rotate(-90)"/>
</g>
</g>
<g cb-classname="ControlPin" cb-pin-name="Hf-f77-qbn" id="4QS">
<line cb-classname="GraphicLineEntity" class="signalline" id="4QQ" x1="4360" x2="4360" y1="1860" y2="1880"/>
<g cb-classname="DynamicText" cb-source="Uv-lNR-9lPN" class="signal" id="4QZ" text-anchor="end">
<text baseline-shift="5%" cb-classname="GraphicTextEntity" class="signal" fill="black" font-style="normal" font-weight="normal" id="4Qw" text-anchor="end" text-decoration="normal" transform="translate(4354,1858)rotate(-90)"/>
</g>
<g cb-classname="SignalSegment" id="8EQ">
<line cb-classname="GraphicLineEntity" class="signalline" id="1iQ1" x1="4360" x2="4360" y1="1880" y2="2140"/>
<g cb-classname="SignalConnection" cb-graphic-line="$1677$" cb-input-pin="$ZZz$" id="1iQZ"/>
</g>
</g>
<g cb-classname="ControlPin" cb-pin-name="M1-gia-28w" id="4Vp">
<line cb-classname="GraphicLineEntity" class="signalline" id="4VA" x1="4380" x2="4380" y1="1780" y2="1800"/>
<polygon cb-classname="GraphicPolygonEntity" class="signal" id="4VK" points="4380,1800 4384,1789 4376,1789"/>
<g cb-classname="DynamicText" cb-source="ls-q28-HCU0" class="signal" id="4VI">
<text baseline-shift="5%" cb-classname="GraphicTextEntity" class="signal" fill="black" font-style="normal" font-weight="normal" id="4VX" text-decoration="normal" transform="translate(4376,1778)rotate(-90)"/>
</g>
</g>
<g cb-classname="GraphicShape" id="1bA2">
<g cb-classname="DynamicText" cb-labeled="true" cb-source="Hf-f77-dCWG" id="1bA3">
<text cb-classname="GraphicTextEntity" class="algorithm" id="1bAh" text-anchor="start" x="4200" y="1790"/>
</g>
</g>
</g>
<g cb-alg-g8="$397$cb-alg-out$" cb-algorithm-id="011" cb-classname="ExternalPointInterface" cb-function-name="OUTPUT" id="8bw">
<ellipse cb-classname="GraphicEllipseEntity" class="algorithm" cx="4360" cy="2200" id="8ip" rx="40" ry="40"/>
<rect cb-classname="GraphicRectangleEntity" class="algorithm" height="30" id="8iA" rx="0" width="80" x="4320" y="2240"/>
<line cb-classname="GraphicLineEntity" class="algorithm" id="8iK" x1="4360" x2="4360" y1="2240" y2="2270"/>
<g cb-classname="PointStatusIndicator" cb-indicator-type="hardware" cb-source="Uv-GeA-dR" id="8iI" visibility="hidden">
<line cb-classname="GraphicLineEntity" class="algorithmline" id="8iX" x1="4320" x2="4320" y1="2240" y2="2160"/>
<line cb-classname="GraphicLineEntity" class="algorithmline" id="8is" x1="4320" x2="4400" y1="2160" y2="2160"/>
<line cb-classname="GraphicLineEntity" class="algorithmline" id="8iS" x1="4400" x2="4400" y1="2160" y2="2240"/>
</g>
<g cb-classname="PointStatusIndicator" cb-indicator-type="Highway" cb-source="4h-ST3-xH" id="8iQ" visibility="hidden">
<line cb-classname="GraphicLineEntity" class="algorithmline" id="8iZ" x1="4320" x2="4360" y1="2200" y2="2160"/>
<line cb-classname="GraphicLineEntity" class="algorithmline" id="8iw" x1="4360" x2="4400" y1="2160" y2="2200"/>
<line cb-classname="GraphicLineEntity" class="algorithmline" id="82p" x1="4400" x2="4360" y1="2200" y2="2240"/>
<line cb-classname="GraphicLineEntity" class="algorithmline" id="82A" x1="4360" x2="4320" y1="2240" y2="2200"/>
</g>
<g cb-classname="PointStatusIndicator" cb-indicator-type="alarm" cb-source="DU-SzB-Nv" id="82K" visibility="hidden">
<text cb-classname="GraphicTextEntity" class="algorithm" fill="#000000" font-family="Arial" font-size="20" id="82I" x="4333" y="2264">
A
</text>
</g>
<g cb-classname="PointStatusIndicator" cb-indicator-type="ingraphic" cb-source="Hf-f77-dC" id="82X" visibility="hidden">
<text cb-classname="GraphicTextEntity" class="algorithm" fill="#000000" font-family="Arial" font-size="20" id="82s" x="4370" y="2265">
G
</text>
</g>
<g baseline-shift="-100%" cb-anchor-x="4360" cb-anchor-y="2320" cb-classname="PointDescription" cb-content="extended" cb-labeled="false" cb-max-width="240" cb-source="Uv-GeA-dR" class="algorithm" id="82S" text-anchor="middle">
<text baseline-shift="-100%" cb-classname="GraphicTextEntity" class="algorithm" id="82Q" text-anchor="middle" x="4360" y="2320">
Load reference for
</text>
<text baseline-shift="-100%" cb-classname="GraphicTextEntity" class="algorithm" id="82Z" text-anchor="middle" x="4360" y="2356">
TOTAL (SCA) air
</text>
<text baseline-shift="-100%" cb-classname="GraphicTextEntity" class="algorithm" id="9QI" text-anchor="middle" x="4360" y="2392">
DMD Calc.
</text>
<text baseline-shift="-100%" cb-classname="GraphicTextEntity" class="algorithm" id="1iZs" text-anchor="middle" x="4360" y="2428">
0 - 100 %
</text>
</g>
<g cb-classname="DynamicText" cb-labeled="false" cb-pin-name="sB" cb-source="zW-u3B-3A" class="algorithm" id="82w" text-anchor="middle">
<text baseline-shift="-50%" cb-classname="GraphicTextEntity" class="algorithm" fill="black" font-family="Arial" font-size="20" font-style="normal" font-weight="normal" id="8Ep" text-anchor="middle" text-decoration="normal" x="4360" y="2290"/>
</g>
<g baseline-shift="0%" cb-anchor-x="4380" cb-anchor-y="2140" cb-classname="PointReferences" cb-max-width="240" cb-originator="false" cb-source="ls-lxx-sp" class="signal" id="8EA" text-anchor="start">
<text baseline-shift="0%" cb-classname="GraphicTextEntity" class="algorithm" id="8EK" text-anchor="start" x="4380" y="2140">
2/040
</text>
</g>
<g cb-classname="ControlPin" cb-pin-name="cJ-xRb-0B" id="8EX">
<line cb-classname="GraphicLineEntity" class="signalline" id="8Es" x1="4360" x2="4360" y1="2140" y2="2160"/>
<polygon cb-classname="GraphicPolygonEntity" class="signal" id="8ES" points="4360,2160 4364,2149 4356,2149"/>
</g>
</g>
<g cb-alg-Y9i="LA-BIOMASS-MFLOW" cb-alg-Yw2x="NO" cb-algorithm-id="049" cb-classname="ExternalPointInterface" cb-function-name="INPUT" id="4Vs">
<ellipse cb-classname="GraphicEllipseEntity" class="algorithm" cx="1800" cy="330" id="4VS" rx="40" ry="40"/>
<rect cb-classname="GraphicRectangleEntity" class="algorithm" height="30" id="4VQ" width="80" x="1760" y="260"/>
<line cb-classname="GraphicLineEntity" class="algorithm" id="4VZ" x1="1800" x2="1800" y1="290" y2="260"/>
<g cb-classname="PointStatusIndicator" cb-indicator-type="Highway" cb-source="Hf-f77-qbn" id="4Vw" visibility="hidden">
<line cb-classname="GraphicLineEntity" class="algorithmline" id="4Fp" x1="1800" x2="1760" y1="290" y2="330"/>
<line cb-classname="GraphicLineEntity" class="algorithmline" id="4FA" x1="1760" x2="1800" y1="330" y2="370"/>
<line cb-classname="GraphicLineEntity" class="algorithmline" id="4FK" x1="1800" x2="1840" y1="370" y2="330"/>
<line cb-classname="GraphicLineEntity" class="algorithmline" id="4FI" x1="1840" x2="1800" y1="330" y2="290"/>
</g>
<g cb-classname="PointStatusIndicator" cb-indicator-type="hardware" cb-source="zW-u3B-Vqh" id="4FX" visibility="hidden">
<line cb-classname="GraphicLineEntity" class="algorithmline" id="4Fs" x1="1760" x2="1760" y1="290" y2="370"/>
<line cb-classname="GraphicLineEntity" class="algorithmline" id="4FS" x1="1760" x2="1840" y1="370" y2="370"/>
<line cb-classname="GraphicLineEntity" class="algorithmline" id="4FQ" x1="1840" x2="1840" y1="370" y2="290"/>
</g>
<g cb-classname="PointStatusIndicator" cb-indicator-type="alarm" cb-source="cG-yOV-lMo" id="4FZ" visibility="hidden">
<text baseline-shift="-50%" cb-classname="GraphicTextEntity" class="algorithm" fill="#000000" font-family="Arial" font-size="20" id="4Fw" text-anchor="middle" x="1780" y="271">
A
</text>
</g>
<g cb-classname="PointStatusIndicator" cb-indicator-type="ingraphic" cb-source="DU-SzB-xIv" id="41p" visibility="hidden">
<text baseline-shift="-50%" cb-classname="GraphicTextEntity" class="algorithm" fill="#000000" font-family="Arial" font-size="20" id="41A" text-anchor="middle" x="1820" y="269">
G
</text>
</g>
<g cb-classname="DynamicText" cb-labeled="false" cb-pin-name="FCf" cb-source="Hf-f77-qbn" class="algorithm" id="41K" text-anchor="middle">
<text cb-classname="GraphicTextEntity" class="algorithm" fill="black" font-family="Arial" font-size="20" font-style="normal" font-weight="normal" id="41I" text-anchor="middle" text-decoration="normal" x="1800" y="250"/>
</g>
<g baseline-shift="-100%" cb-anchor-x="1813" cb-anchor-y="383" cb-classname="PointReferences" cb-max-width="240" cb-originator="true" cb-source="Uv-GeA-Y9i" class="signal" id="41X" text-anchor="start">
<text baseline-shift="-100%" cb-classname="GraphicTextEntity" class="algorithm" id="41s" text-anchor="start" x="1813" y="383">
2/900
</text>
</g>
<g baseline-shift="0%" cb-anchor-x="1800" cb-anchor-y="220" cb-classname="PointDescription" cb-content="extended" cb-labeled="false" cb-max-width="240" cb-source="M1-gia-uhi" class="algorithm" id="41S" text-anchor="middle">
<text baseline-shift="0%" cb-classname="GraphicTextEntity" class="algorithm" id="41Q" text-anchor="middle" x="1800" y="185">
Biomass mass flow
</text>
<text baseline-shift="0%" cb-classname="GraphicTextEntity" class="algorithm" id="41Z" text-anchor="middle" x="1800" y="221">
0 - 100 t/h
</text>
</g>
<g cb-classname="ControlPin" cb-pin-name="ls-lxx-I8L" id="41w">
<line cb-classname="GraphicLineEntity" class="signalline" id="4jp" x1="1800" x2="1800" y1="370" y2="390"/>
<g cb-classname="SignalSegment" id="4jA">
<line cb-classname="GraphicLineEntity" class="signalline" id="4jK" x1="1800" x2="1800" y1="390" y2="540"/>
<g cb-classname="SignalConnection" cb-graphic-line="$442$" cb-input-pin="$S3y$" id="4jI"/>
</g>
</g>
</g>
<g cb-alg-YLu="LA-BIOM-F-CNTRL" cb-alg-YNjb="NO" cb-algorithm-id="058" cb-classname="ExternalPointInterface" cb-function-name="INPUT" id="4jX">
<ellipse cb-classname="GraphicEllipseEntity" class="algorithm" cx="980" cy="330" id="4js" rx="40" ry="40"/>
<rect cb-classname="GraphicRectangleEntity" class="algorithm" height="30" id="4jS" width="80" x="940" y="260"/>
<line cb-classname="GraphicLineEntity" class="algorithm" id="4jQ" x1="980" x2="980" y1="290" y2="260"/>
<g cb-classname="PointStatusIndicator" cb-indicator-type="Highway" cb-source="02-ybJ-Mci" id="4jZ" visibility="hidden">
<line cb-classname="GraphicLineEntity" class="algorithmline" id="4jw" x1="980" x2="940" y1="290" y2="330"/>
<line cb-classname="GraphicLineEntity" class="algorithmline" id="4bp" x1="940" x2="980" y1="330" y2="370"/>
<line cb-classname="GraphicLineEntity" class="algorithmline" id="4bA" x1="980" x2="1020" y1="370" y2="330"/>
<line cb-classname="GraphicLineEntity" class="algorithmline" id="4bK" x1="1020" x2="980" y1="330" y2="290"/>
</g>
<g cb-classname="PointStatusIndicator" cb-indicator-type="hardware" cb-source="0V-rq6-cbw" id="4bI" visibility="hidden">
<line cb-classname="GraphicLineEntity" class="algorithmline" id="4bX" x1="940" x2="940" y1="290" y2="370"/>
<line cb-classname="GraphicLineEntity" class="algorithmline" id="4bs" x1="940" x2="1020" y1="370" y2="370"/>
<line cb-classname="GraphicLineEntity" class="algorithmline" id="4bS" x1="1020" x2="1020" y1="370" y2="290"/>
</g>
<g cb-classname="PointStatusIndicator" cb-indicator-type="alarm" cb-source="B5-MuP-tjn" id="4bQ" visibility="hidden">
<text baseline-shift="-50%" cb-classname="GraphicTextEntity" class="algorithm" fill="#000000" font-family="Arial" font-size="20" id="4bZ" text-anchor="middle" x="960" y="271">
A
</text>
</g>
<g cb-classname="PointStatusIndicator" cb-indicator-type="ingraphic" cb-source="iW-Unn-EiZ" id="4bw" visibility="hidden">
<text baseline-shift="-50%" cb-classname="GraphicTextEntity" class="algorithm" fill="#000000" font-family="Arial" font-size="20" id="4ip" text-anchor="middle" x="1000" y="269">
G
</text>
</g>
<g cb-classname="DynamicText" cb-labeled="false" cb-pin-name="DWH" cb-source="02-ybJ-Mci" class="algorithm" id="4iA" text-anchor="middle">
<text cb-classname="GraphicTextEntity" class="algorithm" fill="black" font-family="Arial" font-size="20" font-style="normal" font-weight="normal" id="4iK" text-anchor="middle" text-decoration="normal" x="980" y="250"/>
</g>
<g baseline-shift="-100%" cb-anchor-x="993" cb-anchor-y="383" cb-classname="PointReferences" cb-max-width="240" cb-originator="true" cb-source="zW-u3B-Vqh" class="signal" id="4iI" text-anchor="start">
<text baseline-shift="-100%" cb-classname="GraphicTextEntity" class="algorithm" id="4iX" text-anchor="start" x="993" y="383">
2/021
</text>
</g>
<g baseline-shift="0%" cb-anchor-x="980" cb-anchor-y="220" cb-classname="PointDescription" cb-content="extended" cb-labeled="false" cb-max-width="240" cb-source="ls-lxx-I8L" class="algorithm" id="4is" text-anchor="middle">
<text baseline-shift="0%" cb-classname="GraphicTextEntity" class="algorithm" id="4iS" text-anchor="middle" x="980" y="115">
Fuel/Combustion
</text>
<text baseline-shift="0%" cb-classname="GraphicTextEntity" class="algorithm" id="4iQ" text-anchor="middle" x="980" y="151">
Demand without
</text>
<text baseline-shift="0%" cb-classname="GraphicTextEntity" class="algorithm" id="4iZ" text-anchor="middle" x="980" y="187">
d/dt
</text>
<text baseline-shift="0%" cb-classname="GraphicTextEntity" class="algorithm" id="11Q2" text-anchor="middle" x="980" y="223">
0 - 100 %
</text>
</g>
<g cb-classname="ControlPin" cb-pin-name="DU-SzB-xIv" id="4iw">
<line cb-classname="GraphicLineEntity" class="signalline" id="42p" x1="980" x2="980" y1="370" y2="390"/>
<g cb-classname="SignalSegment" id="42A">
<line cb-classname="GraphicLineEntity" class="signalline" id="1Vsh" x1="980" x2="980" y1="390" y2="540"/>
<g cb-classname="SignalConnection" cb-graphic-line="$1152$" cb-input-pin="$i5L$" id="1Vss"/>
</g>
</g>
</g>
<g cb-alg-PKQ="$444$cb-alg-out$" cb-alg-PKQW="0.000000" cb-alg-PKQn="1.000000" cb-alg-cK9="LA-BLRDMD-FIRE-PTC" cb-alg-g2nE="ON" cb-alg-g5GU="2.500000" cb-alg-gCc4="120" cb-alg-k0Gn="81" cb-alg-kNB="$148$cb-alg-out$" cb-alg-kNBW="0.000000" cb-alg-kNBn="0.01" cb-alg-v6c4="0.000000" cb-algorithm-id="003" cb-classname="ControlAlgorithm" cb-function-name="DIVIDE" cb-modify-id="00000001" id="42X">
<rect cb-classname="GraphicRectangleEntity" class="algorithm" height="60" id="42s" width="100" x="950" y="560"/>
<ellipse cb-classname="GraphicEllipseEntity" class="algorithm" cx="1000" cy="575" fill="black" id="42S" rx="6" ry="6"/>
<ellipse cb-classname="GraphicEllipseEntity" class="algorithm" cx="1000" cy="605" fill="black" id="42Q" rx="6" ry="6"/>
<line cb-classname="GraphicLineEntity" class="algorithmline" id="42Z" x1="980" x2="1020" y1="590" y2="590"/>
<g cb-classname="ControlPin" cb-pin-name="0V-rq6-cbw" id="42w">
<line cb-classname="GraphicLineEntity" class="signalline" id="4Ep" x1="1000" x2="1000" y1="620" y2="640"/>
<g cb-classname="DynamicText" cb-source="cJ-6jB-SGdz" class="signal" id="4EA" text-anchor="end">
<text baseline-shift="5%" cb-classname="GraphicTextEntity" class="signal" fill="black" font-style="normal" font-weight="normal" id="4EK" text-anchor="end" text-decoration="normal" transform="translate(995,616)rotate(-90)"/>
</g>
<g cb-classname="SignalSegment" id="12ss">
<line cb-classname="GraphicLineEntity" class="signalline" id="1OS2" x1="1000" x2="1000" y1="640" y2="720"/>
<g cb-classname="SignalConnection" cb-graphic-line="$1960$" cb-input-pin="$WD4U$" id="1OS3"/>
</g>
</g>
<g cb-classname="ControlPin" cb-pin-name="Uv-GeA-99P" id="4ES">
<line cb-classname="GraphicLineEntity" class="signalline" id="4EQ" x1="980" x2="980" y1="540" y2="560"/>
<polygon cb-classname="GraphicPolygonEntity" class="signal" id="4EZ" points="980,560 984,549 976,549"/>
<g cb-classname="DynamicText" cb-source="zW-KdR-8MDW" class="signal" id="4Ew">
<text baseline-shift="5%" cb-classname="GraphicTextEntity" class="signal" fill="black" font-style="normal" font-weight="normal" id="4Op" text-decoration="normal" transform="translate(977,541)rotate(-90)"/>
</g>
</g>
<g cb-classname="ControlPin" cb-pin-name="ls-lxx-4WM" id="4OA">
<line cb-classname="GraphicLineEntity" class="signalline" id="4OK" x1="1020" x2="1020" y1="540" y2="560"/>
<polygon cb-classname="GraphicPolygonEntity" class="signal" id="4OI" points="1020,560 1024,549 1016,549"/>
<g cb-classname="DynamicText" cb-source="cJ-6jB-SGdz" class="signal" id="4OX">
<text baseline-shift="5%" cb-classname="GraphicTextEntity" class="signal" fill="black" font-style="normal" font-weight="normal" id="4Os" text-decoration="normal" transform="translate(1017,541)rotate(-90)"/>
</g>
</g>
</g>
<g cb-alg-tada="NO" cb-alg-tjn="LA-COMB-COMP-TT" cb-algorithm-id="060" cb-classname="ExternalPointInterface" cb-function-name="INPUT" id="5jK">
<ellipse cb-classname="GraphicEllipseEntity" class="algorithm" cx="900" cy="1600" id="5jI" rx="40" ry="40"/>
<rect cb-classname="GraphicRectangleEntity" class="algorithm" height="30" id="5jX" width="80" x="860" y="1530"/>
<line cb-classname="GraphicLineEntity" class="algorithm" id="5js" x1="900" x2="900" y1="1560" y2="1530"/>
<g cb-classname="PointStatusIndicator" cb-indicator-type="Highway" cb-source="cJ-xRb-TSU" id="5jS" visibility="hidden">
<line cb-classname="GraphicLineEntity" class="algorithmline" id="5jQ" x1="900" x2="860" y1="1560" y2="1600"/>
<line cb-classname="GraphicLineEntity" class="algorithmline" id="5jZ" x1="860" x2="900" y1="1600" y2="1640"/>
<line cb-classname="GraphicLineEntity" class="algorithmline" id="5jw" x1="900" x2="940" y1="1640" y2="1600"/>
<line cb-classname="GraphicLineEntity" class="algorithmline" id="5bp" x1="940" x2="900" y1="1600" y2="1560"/>
</g>
<g cb-classname="PointStatusIndicator" cb-indicator-type="hardware" cb-source="Uv-GeA-Y9i" id="5bA" visibility="hidden">
<line cb-classname="GraphicLineEntity" class="algorithmline" id="5bK" x1="860" x2="860" y1="1560" y2="1640"/>
<line cb-classname="GraphicLineEntity" class="algorithmline" id="5bI" x1="860" x2="940" y1="1640" y2="1640"/>
<line cb-classname="GraphicLineEntity" class="algorithmline" id="5bX" x1="940" x2="940" y1="1640" y2="1560"/>
</g>
<g cb-classname="PointStatusIndicator" cb-indicator-type="alarm" cb-source="4h-ST3-9Aa" id="5bs" visibility="hidden">
<text baseline-shift="-50%" cb-classname="GraphicTextEntity" class="algorithm" fill="#000000" font-family="Arial" font-size="20" id="5bS" text-anchor="middle" x="880" y="1541">
A
</text>
</g>
<g cb-classname="PointStatusIndicator" cb-indicator-type="ingraphic" cb-source="0V-rq6-cbw" id="5bQ" visibility="hidden">
<text baseline-shift="-50%" cb-classname="GraphicTextEntity" class="algorithm" fill="#000000" font-family="Arial" font-size="20" id="5bZ" text-anchor="middle" x="920" y="1539">
G
</text>
</g>
<g cb-classname="DynamicText" cb-labeled="false" cb-pin-name="OY3" cb-source="cJ-xRb-TSU" class="algorithm" id="5bw" text-anchor="middle">
<text cb-classname="GraphicTextEntity" class="algorithm" fill="black" font-family="Arial" font-size="20" font-style="normal" font-weight="normal" id="5ip" text-anchor="middle" text-decoration="normal" x="900" y="1520"/>
</g>
<g baseline-shift="-100%" cb-anchor-x="913" cb-anchor-y="1653" cb-classname="PointReferences" cb-max-width="240" cb-originator="true" cb-source="B5-MuP-tjn" class="signal" id="5iA" text-anchor="start">
<text baseline-shift="-100%" cb-classname="GraphicTextEntity" class="algorithm" id="5iK" text-anchor="start" x="913" y="1653">
2/006
</text>
</g>
<g baseline-shift="0%" cb-anchor-x="900" cb-anchor-y="1490" cb-classname="PointDescription" cb-content="extended" cb-labeled="false" cb-max-width="240" cb-source="iW-Unn-EiZ" class="algorithm" id="5iI" text-anchor="middle">
<text baseline-shift="0%" cb-classname="GraphicTextEntity" class="algorithm" id="5iX" text-anchor="middle" x="900" y="1420">
Combustion
</text>
<text baseline-shift="0%" cb-classname="GraphicTextEntity" class="algorithm" id="5is" text-anchor="middle" x="900" y="1456">
compensator
</text>
<text baseline-shift="0%" cb-classname="GraphicTextEntity" class="algorithm" id="5iS" text-anchor="middle" x="900" y="1492">
-10 - 10 %
</text>
</g>
<g cb-classname="ControlPin" cb-pin-name="zW-u3B-Vqh" id="5iQ">
<line cb-classname="GraphicLineEntity" class="signalline" id="5iZ" x1="900" x2="900" y1="1640" y2="1660"/>
<g cb-classname="SignalSegment" id="1EXs">
<line cb-classname="GraphicLineEntity" class="signalline" id="1EXR" x1="900" x2="900" y1="1660" y2="1750"/>
<g cb-classname="SignalSegment" id="1EXU">
<line cb-classname="GraphicLineEntity" class="signalline" id="1EXm" x1="900" x2="1820" y1="1750" y2="1750"/>
<g cb-classname="SignalSegment" id="1EX1">
<line cb-classname="GraphicLineEntity" class="signalline" id="1EXZ" x1="1820" x2="1820" y1="1750" y2="1860"/>
<g cb-classname="SignalConnection" cb-graphic-line="$1848$" cb-input-pin="$YlZE$" id="1EXi"/>
</g>
</g>
</g>
</g>
</g>
<g cb-alg-YLu="LA-K1" cb-alg-YNjb="NO" cb-algorithm-id="00C" cb-classname="ExternalPointInterface" cb-function-name="INPUT" id="52X">
<ellipse cb-classname="GraphicEllipseEntity" class="algorithm" cx="1520" cy="590" id="52s" rx="40" ry="40"/>
<rect cb-classname="GraphicRectangleEntity" class="algorithm" height="80" id="52S" width="30" x="1450" y="550"/>
<line cb-classname="GraphicLineEntity" class="algorithm" id="52Q" x1="1450" x2="1480" y1="590" y2="590"/>
<g cb-classname="PointStatusIndicator" cb-indicator-type="Highway" cb-source="02-ybJ-Mci" id="52Z" visibility="hidden">
<line cb-classname="GraphicLineEntity" class="algorithmline" id="52w" x1="1480" x2="1520" y1="590" y2="550"/>
<line cb-classname="GraphicLineEntity" class="algorithmline" id="5Ep" x1="1520" x2="1560" y1="550" y2="590"/>
<line cb-classname="GraphicLineEntity" class="algorithmline" id="5EA" x1="1560" x2="1520" y1="590" y2="630"/>
<line cb-classname="GraphicLineEntity" class="algorithmline" id="5EK" x1="1520" x2="1480" y1="630" y2="590"/>
</g>
<g cb-classname="PointStatusIndicator" cb-indicator-type="hardware" cb-source="0V-rq6-cbw" id="5EI" visibility="hidden">
<line cb-classname="GraphicLineEntity" class="algorithmline" id="5EX" x1="1480" x2="1560" y1="550" y2="550"/>
<line cb-classname="GraphicLineEntity" class="algorithmline" id="5Es" x1="1560" x2="1560" y1="550" y2="630"/>
<line cb-classname="GraphicLineEntity" class="algorithmline" id="5ES" x1="1560" x2="1480" y1="630" y2="630"/>
</g>
<g cb-classname="PointStatusIndicator" cb-indicator-type="alarm" cb-source="B5-MuP-tjn" id="5EQ" visibility="hidden">
<text cb-classname="GraphicTextEntity" class="algorithm" fill="#000000" font-family="arial" font-size="20" id="5EZ" x="1457" y="579">
A
</text>
</g>
<g cb-classname="PointStatusIndicator" cb-indicator-type="ingraphic" cb-source="iW-Unn-EiZ" id="5Ew" visibility="hidden">
<text cb-classname="GraphicTextEntity" class="algorithm" fill="#000000" font-family="Arial" font-size="20" id="5Op" x="1455" y="619">
G
</text>
</g>
<g baseline-shift="-50%" cb-anchor-x="1432" cb-anchor-y="584" cb-classname="PointDescription" cb-content="extended" cb-labeled="false" cb-max-width="240" cb-source="02-ybJ-Mci" class="algorithm" id="5OA" text-anchor="end">
<text baseline-shift="-50%" cb-classname="GraphicTextEntity" class="algorithm" id="5OK" text-anchor="end" x="1432" y="532">
Biomass mass
</text>
<text baseline-shift="-50%" cb-classname="GraphicTextEntity" class="algorithm" id="5OI" text-anchor="end" x="1432" y="568">
flow for 100% of
</text>
<text baseline-shift="-50%" cb-classname="GraphicTextEntity" class="algorithm" id="5OX" text-anchor="end" x="1432" y="604">
load
</text>
<text baseline-shift="-50%" cb-classname="GraphicTextEntity" class="algorithm" id="5Os" text-anchor="end" x="1432" y="640">
0 - 100 t/h
</text>
</g>
<g cb-classname="DynamicText" cb-labeled="false" cb-pin-name="Pov" cb-source="0V-rq6-cbw" class="algorithm" id="5OS" text-anchor="start">
<text baseline-shift="0%" cb-classname="GraphicTextEntity" class="algorithm" fill="black" font-family="Arial" font-size="20" font-style="normal" font-weight="normal" id="5OQ" text-anchor="start" text-decoration="normal" x="1580" y="570"/>
</g>
<g baseline-shift="-100%" cb-anchor-x="1580" cb-anchor-y="600" cb-classname="PointReferences" cb-max-width="230" cb-originator="true" cb-source="cJ-xRb-TSU" class="signal" id="5OZ" text-anchor="start">
<text baseline-shift="-100%" cb-classname="GraphicTextEntity" class="algorithm" id="5Ow" text-anchor="start" x="1580" y="600">
2/001
</text>
</g>
<g cb-classname="ControlPin" cb-pin-name="B5-MuP-tjn" id="6Qp">
<line cb-classname="GraphicLineEntity" class="signalline" id="6QA" x1="1560" x2="1580" y1="590" y2="590"/>
<g cb-classname="SignalSegment" id="6QK">
<g cb-classname="SignalConnection" cb-graphic-line="$604$" cb-input-pin="$bEa$" id="6QI"/>
<line cb-classname="GraphicLineEntity" class="signalline" id="6QX" x1="1580" x2="1730" y1="590" y2="590"/>
</g>
</g>
</g>
<g cb-alg-293l="-999999999" cb-alg-61ew="ON" cb-alg-6Ayv="2.500000" cb-alg-6l3l="999999999" cb-alg-HNyA="81" cb-alg-Hhv="$574$cb-alg-out$" cb-alg-HhvA="0.01" cb-alg-Hhvh="0.000000" cb-alg-SSd="$415$cb-alg-out$" cb-alg-SSdA="1.000000" cb-alg-SSdh="0.000000" cb-algorithm-id="005" cb-classname="ControlAlgorithm" cb-function-name="DIVIDE" cb-modify-id="00000001" id="6Qs">
<rect cb-classname="GraphicRectangleEntity" class="algorithm" height="60" id="6QS" width="100" x="1750" y="560"/>
<ellipse cb-classname="GraphicEllipseEntity" class="algorithm" cx="1800" cy="575" fill="black" id="6QQ" rx="6" ry="6"/>
<ellipse cb-classname="GraphicEllipseEntity" class="algorithm" cx="1800" cy="605" fill="black" id="6QZ" rx="6" ry="6"/>
<line cb-classname="GraphicLineEntity" class="algorithmline" id="6Qw" x1="1780" x2="1820" y1="590" y2="590"/>
<g cb-classname="ControlPin" cb-pin-name="cG-yOV-lMo" id="6Vp">
<line cb-classname="GraphicLineEntity" class="signalline" id="6VA" x1="1800" x2="1800" y1="620" y2="640"/>
<g cb-classname="DynamicText" cb-source="DU-8VP-ByPL" class="signal" id="6VK" text-anchor="end">
<text baseline-shift="5%" cb-classname="GraphicTextEntity" class="signal" fill="black" font-style="normal" font-weight="normal" id="6VI" text-anchor="end" text-decoration="normal" transform="translate(1795,616)rotate(-90)"/>
</g>
<g cb-classname="SignalSegment" id="12sZ">
<line cb-classname="GraphicLineEntity" class="signalline" id="1OSZ" x1="1800" x2="1800" y1="640" y2="680"/>
<g cb-classname="SignalSegment" id="1OSi">
<line cb-classname="GraphicLineEntity" class="signalline" id="1OQ2" x1="1800" x2="1100" y1="680" y2="680"/>
<g cb-classname="SignalSegment" id="1OQ3">
<line cb-classname="GraphicLineEntity" class="signalline" id="1OQh" x1="1100" x2="1100" y1="680" y2="720"/>
<g cb-classname="SignalConnection" cb-graphic-line="$1972$" cb-input-pin="$FEx1$" id="1OQs"/>
</g>
</g>
</g>
</g>
<g cb-classname="ControlPin" cb-pin-name="02-ybJ-RcE" id="6VQ">
<line cb-classname="GraphicLineEntity" class="signalline" id="6VZ" x1="1800" x2="1800" y1="540" y2="560"/>
<polygon cb-classname="GraphicPolygonEntity" class="signal" id="6Vw" points="1800,560 1805,549 1794,549"/>
<g cb-classname="DynamicText" cb-source="4h-za5-AROF" id="6Fp">
<text cb-classname="GraphicTextEntity" class="signal" id="6FA" text-anchor="start" transform="translate(1797,545)rotate(-90)"/>
</g>
</g>
<g cb-classname="ControlPin" cb-pin-name="0V-rq6-kFH" id="6FK">
<line cb-classname="GraphicLineEntity" class="signalline" id="6FI" x1="1730" x2="1750" y1="590" y2="590"/>
<polygon cb-classname="GraphicPolygonEntity" class="signal" id="6FX" points="1750,590 1739,584 1739,595"/>
<g cb-classname="DynamicText" cb-source="DU-8VP-ByPL" id="6Fs">
<text cb-classname="GraphicTextEntity" class="signal" id="6FS" text-anchor="end" x="1735" y="587"/>
</g>
</g>
</g>
<g cb-alg-JMg="90" cb-alg-jB4="$605$cb-alg-out$" cb-alg-jBN="$474$cb-alg-out$" cb-algorithm-id="018" cb-classname="ControlMacroReference" cb-function-name="NRO-ASEL" cb-macro-crc="42675" cb-modify-id="00000004" id="12Is">
<rect cb-classname="GraphicRectangleEntity" class="annotation" fill="teal" height="50" id="12IR" width="160" x="970" y="740"/>
<text baseline-shift="0%" cb-classname="GraphicTextEntity" class="annotation" fill="#000000" font-family="MS Shell Dlg 2" font-size="12" id="12IU" x="980" y="760">
RATIO IN1 vs IN2
</text>
<g cb-classname="ControlPin" cb-pin-name="M1-gia-28u" id="12Im">
<line cb-classname="GraphicLineEntity" class="signalline" id="12I1" x1="1000" x2="1000" y1="720" y2="740"/>
<polygon cb-classname="GraphicPolygonEntity" class="signal" id="12IZ" points="1000,740 1005,729 994,729"/>
<g cb-classname="DynamicText" cb-source="ls-q28-HCU0" id="12Ii">
<text cb-classname="GraphicTextEntity" class="signal" id="12X2" text-anchor="start" transform="translate(997,725)rotate(-90)"/>
</g>
</g>
<g cb-classname="ControlPin" cb-pin-name="cG-yOV-lMo" id="12X3">
<line cb-classname="GraphicLineEntity" class="signalline" id="12Xh" x1="1050" x2="1050" y1="790" y2="810"/>
<g cb-classname="DynamicText" cb-source="DU-8VP-ByPL" id="12Xs">
<text cb-classname="GraphicTextEntity" class="signal" id="12XR" text-anchor="end" transform="translate(1047,804)rotate(-90)"/>
</g>
<g cb-classname="SignalSegment" id="1Es2">
<line cb-classname="GraphicLineEntity" class="signalline" id="2QKi" x1="1050" x2="1050" y1="810" y2="980"/>
<g cb-classname="SignalSegment" id="2QI2">
<line cb-classname="GraphicLineEntity" class="signalline" id="2QI3" x1="1050" x2="1810" y1="980" y2="980"/>
<g cb-classname="SignalSegment" id="2QIh">
<line cb-classname="GraphicLineEntity" class="signalline" id="2QIs" x1="1810" x2="1810" y1="980" y2="1090"/>
<g cb-classname="SignalConnection" cb-graphic-line="$2033$" cb-input-pin="$s37G$" id="2QIR"/>
</g>
</g>
</g>
</g>
<g cb-classname="ControlPin" cb-pin-name="Hf-f77-dCD" id="12XU">
<line cb-classname="GraphicLineEntity" class="signalline" id="12Xm" x1="1100" x2="1100" y1="720" y2="740"/>
<polygon cb-classname="GraphicPolygonEntity" class="signal" id="12X1" points="1100,740 1105,729 1094,729"/>
<g cb-classname="DynamicText" cb-source="02-odC-RrEs" id="12XZ">
<text cb-classname="GraphicTextEntity" class="signal" id="12Xi" text-anchor="start" transform="translate(1097,725)rotate(-90)"/>
</g>
</g>
<g cb-classname="GraphicShape" id="12s2">
<g cb-classname="DynamicText" cb-labeled="true" cb-source="4h-ST3-GRa" id="12s3">
<text cb-classname="GraphicTextEntity" class="algorithm" font-size="12" id="12sh" text-anchor="start" x="1020" y="780"/>
</g>
</g>
</g>
<g cb-alg-aun="55" cb-alg-dCD="$189$cb-alg-out$" cb-alg-dCW="$1733$cb-alg-out$" cb-algorithm-id="017" cb-classname="ControlMacroReference" cb-function-name="NRO-ASEL" cb-macro-crc="42675" cb-modify-id="00000004" id="12SU">
<rect cb-classname="GraphicRectangleEntity" class="annotation" fill="teal" height="50" id="12Sm" width="160" x="1780" y="1110"/>
<text baseline-shift="0%" cb-classname="GraphicTextEntity" class="annotation" fill="#000000" font-family="MS Shell Dlg 2" font-size="12" id="12S1" x="1790" y="1130">
RATIO IN1 vs IN2
</text>
<g cb-classname="ControlPin" cb-pin-name="cJ-xRb-0Bm" id="12SZ">
<line cb-classname="GraphicLineEntity" class="signalline" id="12Si" x1="1810" x2="1810" y1="1090" y2="1110"/>
<polygon cb-classname="GraphicPolygonEntity" class="signal" id="12Q2" points="1810,1110 1815,1099 1804,1099"/>
<g cb-classname="DynamicText" cb-source="Hf-r0B-RuUn" id="12Q3">
<text cb-classname="GraphicTextEntity" class="signal" id="12Qh" text-anchor="start" transform="translate(1807,1095)rotate(-90)"/>
</g>
</g>
<g cb-classname="ControlPin" cb-pin-name="Uv-GeA-Y9i" id="12Qs">
<line cb-classname="GraphicLineEntity" class="signalline" id="12QR" x1="1860" x2="1860" y1="1160" y2="1180"/>
<g cb-classname="DynamicText" cb-source="M1-cd9-5yJu" id="12QU">
<text cb-classname="GraphicTextEntity" class="signal" id="12Qm" text-anchor="end" transform="translate(1857,1174)rotate(-90)"/>
</g>
<g cb-classname="SignalSegment" id="1Es1">
<line cb-classname="GraphicLineEntity" class="signalline" id="1OwR" x1="1860" x2="1860" y1="1180" y2="1860"/>
<g cb-classname="SignalConnection" cb-graphic-line="$1994$" cb-input-pin="$sdXG$" id="1OwU"/>
</g>
</g>
<g cb-classname="ControlPin" cb-pin-name="4h-ST3-xHT" id="12Q1">
<line cb-classname="GraphicLineEntity" class="signalline" id="12QZ" x1="1910" x2="1910" y1="1090" y2="1110"/>
<polygon cb-classname="GraphicPolygonEntity" class="signal" id="12Qi" points="1910,1110 1915,1099 1904,1099"/>
<g cb-classname="DynamicText" cb-source="cG-LxH-M6B8" id="12Z2">
<text cb-classname="GraphicTextEntity" class="signal" id="12Z3" text-anchor="start" transform="translate(1907,1095)rotate(-90)"/>
</g>
</g>
<g cb-classname="GraphicShape" id="12Zh">
<g cb-classname="DynamicText" cb-labeled="true" cb-source="B5-MuP-ign" id="12Zs">
<text cb-classname="GraphicTextEntity" class="algorithm" font-size="12" id="12ZR" text-anchor="start" x="1830" y="1150"/>
</g>
</g>
</g>
<g cb-alg-3VfP="84" cb-alg-fLeM="0.000000" cb-alg-jB4="$1765$cb-alg-out$" cb-alg-jB42="0.000000" cb-alg-jB4P="1.000000" cb-alg-jB72="0.000000" cb-alg-jB7P="1.000000" cb-alg-jBN="$542$cb-alg-out$" cb-alg-jBN2="0.000000" cb-alg-jBNP="1.000000" cb-alg-jBZ2="0.000000" cb-alg-jBZP="1.0" cb-alg-nFg="LA-PRA-LOAD-REF" cb-alg-uQeM="130" cb-alg-uWuV="ON" cb-alg-umf6="2.500000" cb-algorithm-id="016" cb-classname="ControlAlgorithm" cb-function-name="SUM" cb-modify-id="00000003" id="1bw2">
<rect cb-classname="GraphicRectangleEntity" class="algorithm" height="60" id="1bw3" width="100" x="1790" y="1880"/>
<line cb-classname="GraphicLineEntity" class="algorithmline" id="1bwh" x1="1855" x2="1825" y1="1890" y2="1890"/>
<line cb-classname="GraphicLineEntity" class="algorithmline" id="1bws" x1="1825" x2="1855" y1="1930" y2="1930"/>
<line cb-classname="GraphicLineEntity" class="algorithmline" id="1bwR" x1="1855" x2="1855" y1="1890" y2="1895"/>
<line cb-classname="GraphicLineEntity" class="algorithmline" id="1bwU" x1="1855" x2="1855" y1="1930" y2="1925"/>
<line cb-classname="GraphicLineEntity" class="algorithmline" id="1bwm" x1="1825" x2="1840" y1="1890" y2="1910"/>
<line cb-classname="GraphicLineEntity" class="algorithmline" id="1bw1" x1="1840" x2="1825" y1="1910" y2="1930"/>
<g cb-classname="ControlPin" cb-pin-name="cG-yOV-PHU" id="1EIh">
<line cb-classname="GraphicLineEntity" class="signalline" id="1EIs" x1="1820" x2="1820" y1="1860" y2="1880"/>
<polygon cb-classname="GraphicPolygonEntity" class="signal" id="1EIR" points="1820,1880 1825,1869 1814,1869"/>
<g cb-classname="DynamicText" cb-source="B5-QYS-vgxj" id="1EIU">
<text cb-classname="GraphicTextEntity" class="signal" id="1EIm" text-anchor="start" transform="translate(1817,1865)rotate(270)"/>
</g>
</g>
<g cb-classname="ControlPin" cb-pin-name="iW-Unn-EiZ" id="1ips">
<line cb-classname="GraphicLineEntity" class="signalline" id="1ipR" x1="1840" x2="1840" y1="1940" y2="1960"/>
<g cb-classname="DynamicText" cb-source="02-odC-RrEs" class="signal" id="1ipU" text-anchor="end">
<text baseline-shift="5%" cb-classname="GraphicTextEntity" class="signal" fill="black" font-style="normal" font-weight="normal" id="1ipm" text-anchor="end" text-decoration="normal" transform="translate(1836,1940)rotate(-90)"/>
</g>
<g cb-classname="SignalSegment" id="1iss">
<line cb-classname="GraphicLineEntity" class="signalline" id="1iZ3" x1="1840" x2="1840" y1="1960" y2="2140"/>
<g cb-classname="SignalConnection" cb-graphic-line="$1681$" cb-input-pin="$HEO$" id="1iZh"/>
</g>
</g>
<g cb-classname="ControlPin" cb-pin-name="Uv-GeA-dRb" id="1EIZ">
<line cb-classname="GraphicLineEntity" class="signalline" id="1EIi" x1="1860" x2="1860" y1="1860" y2="1880"/>
<polygon cb-classname="GraphicPolygonEntity" class="signal" id="1EX2" points="1860,1880 1865,1869 1854,1869"/>
<g cb-classname="DynamicText" cb-source="zW-KdR-8MDW" id="1EX3">
<text cb-classname="GraphicTextEntity" class="signal" id="1EXh" text-anchor="start" transform="translate(1857,1865)rotate(270)"/>
</g>
</g>
</g>
<g cb-alg-NR="$1590$cb-alg-out$" cb-algorithm-id="002" cb-classname="ExternalPointInterface" cb-function-name="OUTPUT" id="6OZ">
<ellipse cb-classname="GraphicEllipseEntity" class="algorithm" cx="1840" cy="2200" id="6Ow" rx="40" ry="40"/>
<rect cb-classname="GraphicRectangleEntity" class="algorithm" height="30" id="7Qp" rx="0" width="80" x="1800" y="2240"/>
<line cb-classname="GraphicLineEntity" class="algorithm" id="7QA" x1="1840" x2="1840" y1="2240" y2="2270"/>
<g cb-classname="PointStatusIndicator" cb-indicator-type="hardware" cb-source="cJ-xRb-0B" id="7QK" visibility="hidden">
<line cb-classname="GraphicLineEntity" class="algorithmline" id="7QI" x1="1800" x2="1800" y1="2240" y2="2160"/>
<line cb-classname="GraphicLineEntity" class="algorithmline" id="7QX" x1="1800" x2="1880" y1="2160" y2="2160"/>
<line cb-classname="GraphicLineEntity" class="algorithmline" id="7Qs" x1="1880" x2="1880" y1="2160" y2="2240"/>
</g>
<g cb-classname="PointStatusIndicator" cb-indicator-type="Highway" cb-source="iW-Unn-d9" id="7QS" visibility="hidden">
<line cb-classname="GraphicLineEntity" class="algorithmline" id="7QQ" x1="1800" x2="1840" y1="2200" y2="2160"/>
<line cb-classname="GraphicLineEntity" class="algorithmline" id="7QZ" x1="1840" x2="1880" y1="2160" y2="2200"/>
<line cb-classname="GraphicLineEntity" class="algorithmline" id="7Qw" x1="1880" x2="1840" y1="2200" y2="2240"/>
<line cb-classname="GraphicLineEntity" class="algorithmline" id="7Vp" x1="1840" x2="1800" y1="2240" y2="2200"/>
</g>
<g cb-classname="PointStatusIndicator" cb-indicator-type="alarm" cb-source="4h-ST3-xH" id="7VA" visibility="hidden">
<text cb-classname="GraphicTextEntity" class="algorithm" fill="#000000" font-family="Arial" font-size="20" id="7VK" x="1813" y="2264">
A
</text>
</g>
<g cb-classname="PointStatusIndicator" cb-indicator-type="ingraphic" cb-source="0V-rq6-uM" id="7VI" visibility="hidden">
<text cb-classname="GraphicTextEntity" class="algorithm" fill="#000000" font-family="Arial" font-size="20" id="7VX" x="1850" y="2265">
G
</text>
</g>
<g baseline-shift="-100%" cb-anchor-x="1840" cb-anchor-y="2320" cb-classname="PointDescription" cb-content="extended" cb-labeled="false" cb-max-width="240" cb-source="cJ-xRb-0B" class="algorithm" id="7Vs" text-anchor="middle">
<text baseline-shift="-100%" cb-classname="GraphicTextEntity" class="algorithm" id="7VS" text-anchor="middle" x="1840" y="2320">
Load reference for
</text>
<text baseline-shift="-100%" cb-classname="GraphicTextEntity" class="algorithm" id="7VQ" text-anchor="middle" x="1840" y="2356">
PRA air DMD Calc.
</text>
<text baseline-shift="-100%" cb-classname="GraphicTextEntity" class="algorithm" id="71A" text-anchor="middle" x="1840" y="2392">
0 - 100 %
</text>
</g>
<g cb-classname="DynamicText" cb-labeled="false" cb-pin-name="AD" cb-source="Hf-f77-dC" class="algorithm" id="7VZ" text-anchor="middle">
<text baseline-shift="-50%" cb-classname="GraphicTextEntity" class="algorithm" fill="black" font-family="Arial" font-size="20" font-style="normal" font-weight="normal" id="7Vw" text-anchor="middle" text-decoration="normal" x="1840" y="2290"/>
</g>
<g baseline-shift="0%" cb-anchor-x="1860" cb-anchor-y="2140" cb-classname="PointReferences" cb-max-width="240" cb-originator="false" cb-source="Uv-GeA-dR" class="signal" id="7Fp" text-anchor="start">
<text baseline-shift="0%" cb-classname="GraphicTextEntity" class="algorithm" id="7FA" text-anchor="start" x="1860" y="2140">
2/040
</text>
</g>
<g cb-classname="ControlPin" cb-pin-name="zW-u3B-3A" id="7FI">
<line cb-classname="GraphicLineEntity" class="signalline" id="7FX" x1="1840" x2="1840" y1="2140" y2="2160"/>
<polygon cb-classname="GraphicPolygonEntity" class="signal" id="7Fs" points="1840,2160 1844,2149 1836,2149"/>
</g>
</g>
</g>
<g cb-classname="IncludeDocument" cb-modify-time="03/12/2018 11:07:58" cb-objectname="frame" id="5">
<text cb-classname="GraphicTextEntity" class="frame" font-size="50" id="2QIU" x="3660" y="3146">
Project Title &lt;Edit in FRAME.SVG&gt;
</text>
<g baseline-shift="-50%" cb-classname="DynamicText" cb-source="zW-7ZM6-x4" class="frame" id="2QIm">
<text cb-classname="GraphicTextEntity" class="frame" fill="black" font-family="arial" font-size="25" font-style="normal" font-weight="normal" id="2QI1" text-decoration="normal" x="4715" y="3325">
2
</text>
</g>
<g baseline-shift="-50%" cb-classname="DynamicText" cb-source="ls-XfV5-ue" class="frame" id="2QIZ" text-anchor="middle">
<text cb-classname="GraphicTextEntity" class="frame" fill="black" font-family="arial" font-size="48" font-style="normal" font-weight="normal" id="2QIi" text-anchor="middle" text-decoration="normal" x="4900" y="3320">
2
</text>
</g>
<g baseline-shift="-50%" cb-classname="DynamicText" cb-source="cG-iM2A-Fx" class="frame" id="2QX2" text-anchor="middle">
<text cb-classname="GraphicTextEntity" class="frame" fill="black" font-family="arial" font-size="48" font-style="normal" font-weight="normal" id="2QX3" text-anchor="middle" text-decoration="normal" x="5067" y="3324">
2
</text>
</g>
<g cb-classname="DynamicText" cb-source="DU-s31N9-vdnTZ" class="frame" id="2QXh">
<text cb-classname="GraphicTextEntity" class="frame" fill="black" font-family="arial" font-size="48" font-style="normal" font-weight="normal" id="2QXs" text-decoration="normal" x="3660" y="3224">
LeanAIR - load component calculation
</text>
</g>
<g baseline-shift="-50%" cb-classname="DynamicText" cb-source="Hf-ekhJv-99P7sU" class="frame" id="2QXR" text-anchor="middle">
<text cb-classname="GraphicTextEntity" class="frame" fill="black" font-family="arial" font-size="48" font-style="normal" font-weight="normal" id="2QXU" text-anchor="middle" text-decoration="normal" x="5270" y="3324">
035
</text>
</g>
<g baseline-shift="0%" cb-classname="DynamicText" cb-source="Uv-AJnd1au8" class="frame" id="2QXm" text-anchor="middle">
<text cb-classname="GraphicTextEntity" class="frame" fill="black" font-family="arial" font-size="36" font-style="normal" font-weight="normal" id="2QX1" text-anchor="middle" text-decoration="normal" x="5270" y="3150">
A
</text>
</g>
<g baseline-shift="0%" cb-classname="DynamicText" cb-source="M1-aLgaW39H-LFB8" class="frame" id="2QXZ" text-anchor="middle">
<text cb-classname="GraphicTextEntity" class="frame" fill="black" font-family="arial" font-size="20" font-style="normal" font-weight="normal" id="2QXi" text-anchor="middle" text-decoration="normal" x="5270" y="3230">
03/12/2018
</text>
</g>
<g baseline-shift="-50%" cb-classname="DynamicText" cb-source="4h-jR33AuW7" class="frame" id="2Qs2" text-anchor="end">
<text cb-classname="GraphicTextEntity" class="frame" fill="black" font-family="arial" font-size="26" font-style="normal" font-weight="normal" id="2Qs3" text-anchor="end" text-decoration="normal" x="4500" y="3420">
R.Kragnys
</text>
</g>
<g baseline-shift="-50%" cb-classname="DynamicText" cb-source="0V-fN7sWu0d" class="frame" id="2Qsh" text-anchor="end">
<text cb-classname="GraphicTextEntity" class="frame" fill="black" font-family="arial" font-size="26" font-style="normal" font-weight="normal" id="2Qss" text-anchor="end" text-decoration="normal" x="5353" y="3420">

</text>
</g>
<g cb-classname="GraphicShape" cb-tag="BORDER" id="2QsR">
<line cb-classname="GraphicLineEntity" class="frameline" id="2QsU" x1="40" x2="40" y1="40" y2="3460"/>
<line cb-classname="GraphicLineEntity" class="frameline" id="2Qsm" x1="40" x2="5380" y1="3460" y2="3460"/>
<line cb-classname="GraphicLineEntity" class="frameline" id="2Qs1" x1="5380" x2="5380" y1="3460" y2="40"/>
<line cb-classname="GraphicLineEntity" class="frameline" id="2QsZ" x1="5380" x2="40" y1="40" y2="40"/>
<line cb-classname="GraphicLineEntity" class="frame" id="2Qsi" x1="5430" x2="5440" y1="3510" y2="3510"/>
</g>
<g cb-classname="GraphicShape" cb-tag="TITLE BOX" id="2QS2">
<line cb-classname="GraphicLineEntity" class="frameline" id="2QS3" x1="2340" x2="2340" y1="3080" y2="3460"/>
<line cb-classname="GraphicLineEntity" class="frameline" id="2QSh" x1="2340" x2="5380" y1="3080" y2="3080"/>
<line cb-classname="GraphicLineEntity" class="frameline" id="2QSs" x1="3650" x2="3650" y1="3460" y2="3080"/>
<line cb-classname="GraphicLineEntity" class="frameline" id="2QSR" x1="3650" x2="5380" y1="3240" y2="3240"/>
<line cb-classname="GraphicLineEntity" class="frameline" id="2QSU" x1="3650" x2="5380" y1="3390" y2="3390"/>
<line cb-classname="GraphicLineEntity" class="frameline" id="2QSm" x1="3650" x2="5380" y1="3160" y2="3160"/>
<line cb-classname="GraphicLineEntity" class="frameline" id="2QS1" x1="3650" x2="4520" y1="3320" y2="3320"/>
<line cb-classname="GraphicLineEntity" class="frameline" id="2QSZ" x1="4520" x2="5380" y1="3290" y2="3290"/>
<line cb-classname="GraphicLineEntity" class="frameline" id="2QSi" x1="4520" x2="5380" y1="3240" y2="3240"/>
<line cb-classname="GraphicLineEntity" class="frameline" id="2QQ2" x1="4520" x2="4520" y1="3240" y2="3460"/>
<line cb-classname="GraphicLineEntity" class="frameline" id="2QQ3" x1="4810" x2="4810" y1="3240" y2="3390"/>
<line cb-classname="GraphicLineEntity" class="frameline" id="2QQh" x1="4990" x2="4990" y1="3240" y2="3390"/>
<line cb-classname="GraphicLineEntity" class="frameline" id="2QQs" x1="5150" x2="5150" y1="3080" y2="3390"/>
</g>
<g cb-classname="GraphicShape" cb-tag="TEXT LABELS" id="2QQR">
<text baseline-shift="-50%" cb-classname="GraphicTextEntity" class="frame" font-size="25" id="2QQU" text-anchor="middle" x="4890" y="3252">
Drop
</text>
<text baseline-shift="-50%" cb-classname="GraphicTextEntity" class="frame" font-size="25" id="2QQm" text-anchor="middle" x="5075" y="3252">
Task
</text>
<text baseline-shift="-50%" cb-classname="GraphicTextEntity" class="frame" font-size="25" id="2QQ1" text-anchor="middle" x="5265" y="3252">
Sheet
</text>
<text cb-classname="GraphicTextEntity" class="frame" font-size="25" id="2QQZ" x="5152" y="3107">
Rev.
</text>
<text cb-classname="GraphicTextEntity" class="frame" font-size="25" id="2QQi" x="3653" y="3418">
Engineer
</text>
<text cb-classname="GraphicTextEntity" class="frame" font-size="25" id="2QZ2" x="4528" y="3419">
Approved
</text>
<text cb-classname="GraphicTextEntity" class="frame" font-size="25" id="2QZ3" x="5152" y="3187">
Date
</text>
<text baseline-shift="-50%" cb-classname="GraphicTextEntity" class="frame" font-size="25" id="2QZh" text-anchor="middle" x="4660" y="3252">
Drawing Number
</text>
<text baseline-shift="-50%" cb-classname="GraphicTextEntity" class="frame" font-size="25" id="2QZs" text-anchor="middle" x="4680" y="3325">
CTL
</text>
</g>
<text baseline-shift="-50%" cb-classname="GraphicTextEntity" class="frame" font-size="48" id="2QZR" text-anchor="middle" x="3000" y="3100">
EMERSON PROCESS MANAGEMENT
</text>
<g baseline-shift="-100%" cb-anchor-x="2360" cb-anchor-y="3140" cb-classname="GroupText" cb-max-width="1260" fill="black" id="2QZU">
<text baseline-shift="-100%" cb-classname="GraphicTextEntity" class="frame" fill="black" font-family="arial" font-size="22" font-weight="normal" id="2QZm" text-anchor="start" text-decoration="normal" x="2360" y="3140">
THIS DOCUMENT CONTAINS INFORMATION PROPRIETARY TO EMERSON PROCESS
</text>
<text baseline-shift="-100%" cb-classname="GraphicTextEntity" class="frame" fill="black" font-family="arial" font-size="22" font-weight="normal" id="2QZ1" text-anchor="start" text-decoration="normal" x="2360" y="3176">
MANAGEMENT POWER &amp; WATER SOLUTIONS, INC. IT IS SUBMITTED IN CONFIDENCE AND
</text>
<text baseline-shift="-100%" cb-classname="GraphicTextEntity" class="frame" fill="black" font-family="arial" font-size="22" font-weight="normal" id="2QZZ" text-anchor="start" text-decoration="normal" x="2360" y="3212">
TRUST, IS TO BE USED BY YOU SOLELY FOR THE PURPOSES FOR WHICH IT IS
</text>
<text baseline-shift="-100%" cb-classname="GraphicTextEntity" class="frame" fill="black" font-family="arial" font-size="22" font-weight="normal" id="2QZi" text-anchor="start" text-decoration="normal" x="2360" y="3248">
FURNISHED AND IS TO BE RETURNED UPON REQUEST. THIS DOCUMENT AND ANY
</text>
<text baseline-shift="-100%" cb-classname="GraphicTextEntity" class="frame" fill="black" font-family="arial" font-size="22" font-weight="normal" id="2Qw2" text-anchor="start" text-decoration="normal" x="2360" y="3284">
OTHER INFORMATION PROVIDED TO YOU IS NOT TO BE REPRODUCED, TRANSMITTED,
</text>
<text baseline-shift="-100%" cb-classname="GraphicTextEntity" class="frame" fill="black" font-family="arial" font-size="22" font-weight="normal" id="2Qw3" text-anchor="start" text-decoration="normal" x="2360" y="3320">
DISCLOSED, OR USED OTHERWISE IN WHOLE OR IN PART WITHOUT THE PRIOR
</text>
<text baseline-shift="-100%" cb-classname="GraphicTextEntity" class="frame" fill="black" font-family="arial" font-size="22" font-weight="normal" id="2Qwh" text-anchor="start" text-decoration="normal" x="2360" y="3356">
WRITTEN AUTHORIZATION OF EMERSON PROCESS MANAGEMENT POWER &amp; WATER
</text>
<text baseline-shift="-100%" cb-classname="GraphicTextEntity" class="frame" fill="black" font-family="arial" font-size="22" font-weight="normal" id="2Qws" text-anchor="start" text-decoration="normal" x="2360" y="3392">
SOLUTIONS,INC.
</text>
</g>
</g>
</svg>