<?xml version="1.0" ?><svg cb-auto-time="12/14/2018 11:54:23" cb-classname="ControlFunction" cb-create-time="12/07/2018" cb-drop-id="5" cb-filename="Z:\OVATION\NET0\UNIT0\CONTROLFUNCTIONS\0036.svg" cb-function-id="0036" cb-key="321525511234" cb-modified-timestamp="1569932340" cb-modify-id="00000003" cb-path="Z:/OVATION/NET0/UNIT0/CONTROLFUNCTIONS" cb-revision="A" cb-sheet-number="001" cb-sheet-title="test" cb-snap-grid="10" cb-task-id="2" height="3522" id="1" width="5450" xmlns="http://www.w3.org/2000/svg">
<style cb-classname="EntityStyle" id="2" type="text/css">
	.algorithm { fill: white; stroke: black; stroke-width: 3 }
	.algorithm-function { fill: black; stroke: none }
	.algorithm-functionline { fill: none; stroke: black; stroke-linecap: round; stroke-width: 3 }
	.algorithm-name { fill: black; stroke: none }
	.algorithm-nameline { fill: none; stroke: black; stroke-linecap: round; stroke-width: 3 }
	.algorithm-sequence { fill: black; stroke: none; visibility: hidden }
	.algorithm-sequenceline { fill: none; stroke: black; stroke-linecap: round; stroke-width: 3; visibility: hidden }
	.algorithmline { fill: none; stroke: black; stroke-linecap: round; stroke-width: 3 }
	.annotation { fill: black; stroke: none }
	.annotationline { fill: none; stroke: black; stroke-linecap: round; stroke-width: 3 }
	.frame { fill: black; stroke: none }
	.frameline { fill: none; stroke: black; stroke-linecap: round; stroke-width: 3 }
	.signal { fill: black; stroke: none }
	.signalline { fill: none; stroke: black; stroke-linecap: round; stroke-width: 3 }
	text.algorithm { fill: black; font-family: Arial; font-size: 22; stroke: none }
	text.algorithm-function { fill: black; font-family: Arial; font-size: 22; stroke: none }
	text.algorithm-name { fill: black; font-family: Arial; font-size: 22; stroke: none }
	text.algorithm-sequence { fill: black; font-family: Arial; font-size: 22; stroke: none; visibility: hidden }
	text.annotation { fill: black; font-family: Arial; font-size: 22; stroke: none }
	text.frame { fill: black; font-family: Arial; font-size: 18; stroke: none }
	text.signal { fill: black; font-family: Arial; font-size: 12; stroke: none }
</style>
<g cb-classname="NamedObject" cb-objectname="Comments" id="3"/>
<g cb-classname="AlgorithmContainer" cb-objectname="Algorithms" id="4">
<g cb-alg-3gb2="65" cb-alg-RawF="0.000000" cb-algorithm-id="002" cb-classname="ControlAlgorithm" cb-function-name="AVALGEN" cb-modify-id="00000001" id="1mM">
<polygon cb-classname="GraphicPolygonEntity" class="algorithm" id="1mH" points="1450,1030 1490,990 1450,950 1410,990"/>
<text baseline-shift="-50%" cb-classname="GraphicTextEntity" class="algorithm" font-size="44" id="1mZ" text-anchor="middle" x="1450" y="973">
A
</text>
<g cb-classname="ControlPin" cb-pin-name="PO-oAG-dBw" id="1mp">
<line cb-classname="GraphicLineEntity" class="signalline" id="1mj" x1="1450" x2="1450" y1="1030" y2="1050"/>
<g cb-classname="DynamicText" cb-source="SR-TFc-KMgc" class="signal" id="1ml" text-anchor="end">
<text cb-classname="GraphicTextEntity" class="signal" fill="black" font-style="normal" font-weight="normal" id="1m8" text-anchor="end" text-decoration="normal" transform="translate(1447,1044)rotate(-90)"/>
</g>
<g cb-classname="SignalSegment" id="4Ij">
<g cb-classname="SignalConnection" cb-graphic-line="$498$" cb-input-pin="$ua2$" id="4Io"/>
<line cb-classname="GraphicLineEntity" class="signalline" id="4Iv" x1="1450" x2="1450" y1="1050" y2="1160"/>
</g>
</g>
</g>
<g cb-alg-b6Ep="0.000000" cb-alg-tOoW="65" cb-algorithm-id="003" cb-classname="ControlAlgorithm" cb-function-name="AVALGEN" cb-modify-id="00000003" id="4mp">
<polygon cb-classname="GraphicPolygonEntity" class="algorithm" id="4mj" points="1560,1030 1600,990 1560,950 1520,990"/>
<text baseline-shift="-50%" cb-classname="GraphicTextEntity" class="algorithm" font-size="44" id="4ml" text-anchor="middle" x="1560" y="973">
A
</text>
<g cb-classname="ControlPin" cb-pin-name="iH-MiV-9uU" id="4m8">
<line cb-classname="GraphicLineEntity" class="signalline" id="4mv" x1="1560" x2="1560" y1="1030" y2="1050"/>
<g cb-classname="DynamicText" cb-source="yT-hR2-W4Mo" class="signal" id="4mo" text-anchor="end">
<text cb-classname="GraphicTextEntity" class="signal" fill="black" font-style="normal" font-weight="normal" id="46s" text-anchor="end" text-decoration="normal" transform="translate(1557,1044)rotate(-90)"/>
</g>
<g cb-classname="SignalSegment" id="5Ks">
<line cb-classname="GraphicLineEntity" class="signalline" id="5KM" x1="1560" x2="1560" y1="1050" y2="1090"/>
<g cb-classname="SignalSegment" id="5KH">
<line cb-classname="GraphicLineEntity" class="signalline" id="5KZ" x1="1560" x2="1470" y1="1090" y2="1090"/>
<g cb-classname="SignalSegment" id="5Kp">
<line cb-classname="GraphicLineEntity" class="signalline" id="5Kj" x1="1470" x2="1470" y1="1090" y2="1160"/>
<g cb-classname="SignalConnection" cb-graphic-line="$505$" cb-input-pin="$t8g$" id="5Kl"/>
</g>
</g>
</g>
</g>
</g>
<g cb-alg-dc09="65" cb-alg-vVNO="0.000000" cb-algorithm-id="004" cb-classname="ControlAlgorithm" cb-function-name="AVALGEN" cb-modify-id="00000003" id="46M">
<polygon cb-classname="GraphicPolygonEntity" class="algorithm" id="46H" points="1670,1030 1710,990 1670,950 1630,990"/>
<text baseline-shift="-50%" cb-classname="GraphicTextEntity" class="algorithm" font-size="44" id="46Z" text-anchor="middle" x="1670" y="973">
A
</text>
<g cb-classname="ControlPin" cb-pin-name="87-IiF-gnB" id="46p">
<line cb-classname="GraphicLineEntity" class="signalline" id="46j" x1="1670" x2="1670" y1="1030" y2="1050"/>
<g cb-classname="DynamicText" cb-source="PO-Y6e-c9Ts" class="signal" id="46l" text-anchor="end">
<text cb-classname="GraphicTextEntity" class="signal" fill="black" font-style="normal" font-weight="normal" id="468" text-anchor="end" text-decoration="normal" transform="translate(1667,1044)rotate(-90)"/>
</g>
<g cb-classname="SignalSegment" id="5K8">
<line cb-classname="GraphicLineEntity" class="signalline" id="5Kv" x1="1670" x2="1670" y1="1050" y2="1100"/>
<g cb-classname="SignalSegment" id="5Ko">
<line cb-classname="GraphicLineEntity" class="signalline" id="5Ss" x1="1670" x2="1490" y1="1100" y2="1100"/>
<g cb-classname="SignalSegment" id="5SM">
<line cb-classname="GraphicLineEntity" class="signalline" id="5SH" x1="1490" x2="1490" y1="1100" y2="1160"/>
<g cb-classname="SignalConnection" cb-graphic-line="$512$" cb-input-pin="$Cj8$" id="5SZ"/>
</g>
</g>
</g>
</g>
</g>
<g cb-alg-Q64G="65" cb-alg-UoAQ="0.000000" cb-algorithm-id="005" cb-classname="ControlAlgorithm" cb-function-name="AVALGEN" cb-modify-id="00000003" id="46v">
<polygon cb-classname="GraphicPolygonEntity" class="algorithm" id="46o" points="1780,1030 1820,990 1780,950 1740,990"/>
<text baseline-shift="-50%" cb-classname="GraphicTextEntity" class="algorithm" font-size="44" id="4Is" text-anchor="middle" x="1780" y="973">
A
</text>
<g cb-classname="ControlPin" cb-pin-name="I4-9JL-E9a" id="4IM">
<line cb-classname="GraphicLineEntity" class="signalline" id="4IH" x1="1780" x2="1780" y1="1030" y2="1050"/>
<g cb-classname="DynamicText" cb-source="kF-7Lt-YdQZ" class="signal" id="4IZ" text-anchor="end">
<text cb-classname="GraphicTextEntity" class="signal" fill="black" font-style="normal" font-weight="normal" id="4Ip" text-anchor="end" text-decoration="normal" transform="translate(1777,1044)rotate(-90)"/>
</g>
<g cb-classname="SignalSegment" id="5Sp">
<line cb-classname="GraphicLineEntity" class="signalline" id="5Sj" x1="1780" x2="1780" y1="1050" y2="1110"/>
<g cb-classname="SignalSegment" id="5Sl">
<line cb-classname="GraphicLineEntity" class="signalline" id="5S8" x1="1780" x2="1510" y1="1110" y2="1110"/>
<g cb-classname="SignalSegment" id="5Sv">
<line cb-classname="GraphicLineEntity" class="signalline" id="5So" x1="1510" x2="1510" y1="1110" y2="1160"/>
<g cb-classname="SignalConnection" cb-graphic-line="$519$" cb-input-pin="$3vv$" id="5Ns"/>
</g>
</g>
</g>
</g>
</g>
<g cb-alg-2qo7="0" cb-alg-2qoJ="0" cb-alg-2qoS="0" cb-alg-2qog="0" cb-alg-2qot="0" cb-alg-2qow="0" cb-alg-2qx4="0" cb-alg-2qxJ="0" cb-alg-2qxP="0" cb-alg-2qxS="0" cb-alg-2qxT="0" cb-alg-2qxg="0" cb-alg-2qxp="0" cb-alg-2qxt="0" cb-alg-2qxw="0" cb-alg-BFMW="46" cb-alg-I3c4="0" cb-alg-I3cJ="0" cb-alg-I3cP="0" cb-alg-I3cS="0" cb-alg-I3cT="0" cb-alg-I3cg="0" cb-alg-I3cp="0" cb-alg-I3ct="0" cb-alg-I3cw="1" cb-alg-I3o7="0" cb-alg-KlR="CALC-ALG" cb-alg-KvR4="20" cb-alg-KvRJ="20" cb-alg-KvRP="5003" cb-alg-KvRS="0" cb-alg-KvRT="1" cb-alg-KvRg="20" cb-alg-KvRp="2" cb-alg-KvRt="5002" cb-alg-KvRw="5001" cb-alg-Kvi4="0" cb-alg-Kvi7="0" cb-alg-KviJ="0" cb-alg-KviP="0" cb-alg-KviS="0" cb-alg-KviT="0" cb-alg-Kvig="0" cb-alg-Kvip="0" cb-alg-Kvit="0" cb-alg-Kviw="0" cb-alg-Kvo4="0" cb-alg-Kvo7="3" cb-alg-KvoJ="20" cb-alg-KvoP="0" cb-alg-KvoS="0" cb-alg-KvoT="0" cb-alg-Kvog="5" cb-alg-Kvop="0" cb-alg-Kvot="4" cb-alg-Kvow="5004" cb-alg-Kvt7="0" cb-alg-Y4ML="YES" cb-alg-g0o7="0" cb-alg-g0oJ="0" cb-alg-g0oS="0" cb-alg-g0og="0" cb-alg-g0ot="0" cb-alg-g0ow="0" cb-alg-g0s4="0" cb-alg-g0sJ="3" cb-alg-g0sP="1" cb-alg-g0sS="1" cb-alg-g0sT="3" cb-alg-g0sg="3" cb-alg-g0sp="0" cb-alg-g0st="1" cb-alg-g0sw="3" cb-alg-gnB="CALC-OUT" cb-alg-r66="$488$cb-alg-out$" cb-alg-r6i="$474$cb-alg-out$" cb-alg-r6o="$171$cb-alg-out$" cb-alg-r6t="$481$cb-alg-out$" cb-algorithm-id="001" cb-classname="CalcBlock" cb-function-name="CALCBLOCK" id="3bM">
<rect cb-classname="GraphicRectangleEntity" class="algorithm" height="100" id="3bH" width="360" x="1440" y="1180"/>
<text baseline-shift="-50%" cb-classname="GraphicTextEntity" class="algorithm" fill="#000000" font-family="Arial" font-size="18" id="3bZ" text-anchor="middle" x="1620" y="1230">
CALCBLOCK
</text>
<g cb-classname="ControlPin" cb-pin-name="cR-aw2-Opz" id="3bp">
<line cb-classname="GraphicLineEntity" class="signalline" id="3bj" x1="1450" x2="1450" y1="1160" y2="1180"/>
<polygon cb-classname="GraphicPolygonEntity" class="signal" id="3bl" points="1450,1180 1455,1169 1444,1169"/>
<g cb-classname="DynamicText" cb-source="87-UOp-eWPD" class="signal" id="3b8" text-anchor="start">
<text cb-classname="GraphicTextEntity" class="signal" fill="black" font-style="normal" font-weight="normal" id="3bv" text-anchor="start" text-decoration="normal" transform="translate(1447,1165)rotate(-90)"/>
</g>
</g>
<g cb-classname="ControlPin" cb-pin-name="PO-oAG-dBw" id="3bo">
<line cb-classname="GraphicLineEntity" class="signalline" id="3ms" x1="1620" x2="1620" y1="1280" y2="1300"/>
<g cb-classname="DynamicText" cb-source="SR-TFc-KMgc" class="signal" id="3mM" text-anchor="end">
<text cb-classname="GraphicTextEntity" class="signal" fill="black" font-style="normal" font-weight="normal" id="3mH" text-anchor="end" text-decoration="normal" transform="translate(1617,1294)rotate(-90)"/>
</g>
<g cb-classname="SignalSegment" id="5vo">
<g cb-classname="SignalConnection" cb-graphic-line="$552$" cb-input-pin="$D9j$" id="5pZ"/>
<line cb-classname="GraphicLineEntity" class="signalline" id="5pH" x1="1620" x2="1620" y1="1300" y2="1420"/>
</g>
</g>
<g cb-classname="ControlPin" cb-pin-name="iH-MiV-etfq" id="3mZ">
<line cb-classname="GraphicLineEntity" class="signalline" id="3mp" x1="1420" x2="1440" y1="1230" y2="1230"/>
<polygon cb-classname="GraphicPolygonEntity" class="signal" id="3mj" points="1440,1230 1429,1224 1429,1235"/>
<g cb-classname="DynamicText" cb-source="kF-7Lt-YdQZ" class="signal" id="3ml" text-anchor="end">
<text cb-classname="GraphicTextEntity" class="signal" fill="black" font-style="normal" font-weight="normal" id="3m8" text-anchor="end" text-decoration="normal" x="1425" y="1227"/>
</g>
</g>
<g cb-classname="ControlPin" cb-pin-name="FE-bTT-6Xl" id="3mv">
<line cb-classname="GraphicLineEntity" class="signalline" id="3mo" x1="1470" x2="1470" y1="1160" y2="1180"/>
<polygon cb-classname="GraphicPolygonEntity" class="signal" id="36s" points="1470,1180 1475,1169 1464,1169"/>
<g cb-classname="DynamicText" cb-source="c0-d6X-6M8H" class="signal" id="36M" text-anchor="start">
<text cb-classname="GraphicTextEntity" class="signal" fill="black" font-style="normal" font-weight="normal" id="36H" text-anchor="start" text-decoration="normal" transform="translate(1467,1165)rotate(-90)"/>
</g>
</g>
<g cb-classname="ControlPin" cb-pin-name="Ry-4k7-kKZ" id="36Z">
<line cb-classname="GraphicLineEntity" class="signalline" id="36p" x1="1490" x2="1490" y1="1160" y2="1180"/>
<polygon cb-classname="GraphicPolygonEntity" class="signal" id="36j" points="1490,1180 1495,1169 1484,1169"/>
<g cb-classname="DynamicText" cb-source="iH-SkK-2wkb" class="signal" id="36l" text-anchor="start">
<text cb-classname="GraphicTextEntity" class="signal" fill="black" font-style="normal" font-weight="normal" id="368" text-anchor="start" text-decoration="normal" transform="translate(1487,1165)rotate(-90)"/>
</g>
</g>
<g cb-classname="ControlPin" cb-pin-name="yT-zOO-zYi" id="36v">
<line cb-classname="GraphicLineEntity" class="signalline" id="36o" x1="1510" x2="1510" y1="1160" y2="1180"/>
<polygon cb-classname="GraphicPolygonEntity" class="signal" id="3Is" points="1510,1180 1515,1169 1504,1169"/>
<g cb-classname="DynamicText" cb-source="FE-FHh-p4dq" class="signal" id="3IM" text-anchor="start">
<text cb-classname="GraphicTextEntity" class="signal" fill="black" font-style="normal" font-weight="normal" id="3IH" text-anchor="start" text-decoration="normal" transform="translate(1507,1165)rotate(-90)"/>
</g>
</g>
<g cb-classname="ControlPin" cb-pin-name="87-IiF-r6G" id="3IZ">
<line cb-classname="GraphicLineEntity" class="signalline" id="3Ip" x1="1530" x2="1530" y1="1160" y2="1180"/>
<polygon cb-classname="GraphicPolygonEntity" class="signal" id="3Ij" points="1530,1180 1535,1169 1524,1169"/>
<g cb-classname="DynamicText" cb-source="Ry-7r6-mzCe" class="signal" id="3Il" text-anchor="start">
<text cb-classname="GraphicTextEntity" class="signal" fill="black" font-style="normal" font-weight="normal" id="3I8" text-anchor="start" text-decoration="normal" transform="translate(1527,1165)rotate(-90)"/>
</g>
</g>
<g cb-classname="ControlPin" cb-pin-name="Nu-W5W-R2h" id="3Iv">
<line cb-classname="GraphicLineEntity" class="signalline" id="3Io" x1="1550" x2="1550" y1="1160" y2="1180"/>
<polygon cb-classname="GraphicPolygonEntity" class="signal" id="4Ks" points="1550,1180 1555,1169 1544,1169"/>
<g cb-classname="DynamicText" cb-source="yT-hR2-W4Mo" class="signal" id="4KM" text-anchor="start">
<text cb-classname="GraphicTextEntity" class="signal" fill="black" font-style="normal" font-weight="normal" id="4KH" text-anchor="start" text-decoration="normal" transform="translate(1547,1165)rotate(-90)"/>
</g>
</g>
<g cb-classname="ControlPin" cb-pin-name="cR-aw2-OpP" id="4KZ">
<line cb-classname="GraphicLineEntity" class="signalline" id="4Kp" x1="1570" x2="1570" y1="1160" y2="1180"/>
<polygon cb-classname="GraphicPolygonEntity" class="signal" id="4Kj" points="1570,1180 1575,1169 1564,1169"/>
<g cb-classname="DynamicText" cb-source="87-UOp-eWPD" class="signal" id="4Kl" text-anchor="start">
<text cb-classname="GraphicTextEntity" class="signal" fill="black" font-style="normal" font-weight="normal" id="4K8" text-anchor="start" text-decoration="normal" transform="translate(1567,1165)rotate(-90)"/>
</g>
</g>
<g cb-classname="ControlPin" cb-pin-name="PO-oAG-qmg" id="4Kv">
<line cb-classname="GraphicLineEntity" class="signalline" id="4Ko" x1="1590" x2="1590" y1="1160" y2="1180"/>
<polygon cb-classname="GraphicPolygonEntity" class="signal" id="4Ss" points="1590,1180 1595,1169 1584,1169"/>
<g cb-classname="DynamicText" cb-source="Nu-0qm-vTsP" class="signal" id="4SM" text-anchor="start">
<text cb-classname="GraphicTextEntity" class="signal" fill="black" font-style="normal" font-weight="normal" id="4SH" text-anchor="start" text-decoration="normal" transform="translate(1587,1165)rotate(-90)"/>
</g>
</g>
<g cb-classname="ControlPin" cb-pin-name="I4-9JL-OWD" id="4SZ">
<line cb-classname="GraphicLineEntity" class="signalline" id="4Sp" x1="1610" x2="1610" y1="1160" y2="1180"/>
<polygon cb-classname="GraphicPolygonEntity" class="signal" id="4Sj" points="1610,1180 1615,1169 1604,1169"/>
<g cb-classname="DynamicText" cb-source="cR-K93-Dojz" class="signal" id="4Sl" text-anchor="start">
<text cb-classname="GraphicTextEntity" class="signal" fill="black" font-style="normal" font-weight="normal" id="4S8" text-anchor="start" text-decoration="normal" transform="translate(1607,1165)rotate(-90)"/>
</g>
</g>
<g cb-classname="ControlPin" cb-pin-name="G2-S4Z-6eUz" id="4Sv">
<line cb-classname="GraphicLineEntity" class="signalline" id="4So" x1="1630" x2="1630" y1="1160" y2="1180"/>
<polygon cb-classname="GraphicPolygonEntity" class="signal" id="4Ns" points="1630,1180 1635,1169 1624,1169"/>
<g cb-classname="DynamicText" cb-source="PO-Y6e-c9Ts" class="signal" id="4NM" text-anchor="start">
<text cb-classname="GraphicTextEntity" class="signal" fill="black" font-style="normal" font-weight="normal" id="4NH" text-anchor="start" text-decoration="normal" transform="translate(1627,1165)rotate(-90)"/>
</g>
</g>
<g cb-classname="ControlPin" cb-pin-name="SR-KlR-DvmU" id="4NZ">
<line cb-classname="GraphicLineEntity" class="signalline" id="4Np" x1="1650" x2="1650" y1="1160" y2="1180"/>
<polygon cb-classname="GraphicPolygonEntity" class="signal" id="4Nj" points="1650,1180 1655,1169 1644,1169"/>
<g cb-classname="DynamicText" cb-source="I4-nDv-tpNO" class="signal" id="4Nl" text-anchor="start">
<text cb-classname="GraphicTextEntity" class="signal" fill="black" font-style="normal" font-weight="normal" id="4N8" text-anchor="start" text-decoration="normal" transform="translate(1647,1165)rotate(-90)"/>
</g>
</g>
<g cb-classname="ControlPin" cb-pin-name="kF-Myi-fSZ5" id="4Nv">
<line cb-classname="GraphicLineEntity" class="signalline" id="4No" x1="1670" x2="1670" y1="1160" y2="1180"/>
<polygon cb-classname="GraphicPolygonEntity" class="signal" id="43s" points="1670,1180 1675,1169 1664,1169"/>
<g cb-classname="DynamicText" cb-source="G2-M0D-XKhU" class="signal" id="43M" text-anchor="start">
<text cb-classname="GraphicTextEntity" class="signal" fill="black" font-style="normal" font-weight="normal" id="43H" text-anchor="start" text-decoration="normal" transform="translate(1667,1165)rotate(-90)"/>
</g>
</g>
<g cb-classname="ControlPin" cb-pin-name="c0-6EW-Fcw3" id="43Z">
<line cb-classname="GraphicLineEntity" class="signalline" id="43p" x1="1690" x2="1690" y1="1160" y2="1180"/>
<polygon cb-classname="GraphicPolygonEntity" class="signal" id="43j" points="1690,1180 1695,1169 1684,1169"/>
<g cb-classname="DynamicText" cb-source="SR-TFc-KMgc" class="signal" id="43l" text-anchor="start">
<text cb-classname="GraphicTextEntity" class="signal" fill="black" font-style="normal" font-weight="normal" id="438" text-anchor="start" text-decoration="normal" transform="translate(1687,1165)rotate(-90)"/>
</g>
</g>
<g cb-classname="ControlPin" cb-pin-name="iH-MiV-LtJo" id="43v">
<line cb-classname="GraphicLineEntity" class="signalline" id="43o" x1="1710" x2="1710" y1="1160" y2="1180"/>
<polygon cb-classname="GraphicPolygonEntity" class="signal" id="4vs" points="1710,1180 1715,1169 1704,1169"/>
<g cb-classname="DynamicText" cb-source="kF-7Lt-YdQZ" class="signal" id="4vM" text-anchor="start">
<text cb-classname="GraphicTextEntity" class="signal" fill="black" font-style="normal" font-weight="normal" id="4vH" text-anchor="start" text-decoration="normal" transform="translate(1707,1165)rotate(-90)"/>
</g>
</g>
<g cb-classname="ControlPin" cb-pin-name="FE-bTT-6XOK" id="4vZ">
<line cb-classname="GraphicLineEntity" class="signalline" id="4vp" x1="1730" x2="1730" y1="1160" y2="1180"/>
<polygon cb-classname="GraphicPolygonEntity" class="signal" id="4vj" points="1730,1180 1735,1169 1724,1169"/>
<g cb-classname="DynamicText" cb-source="c0-d6X-6M8H" class="signal" id="4vl" text-anchor="start">
<text cb-classname="GraphicTextEntity" class="signal" fill="black" font-style="normal" font-weight="normal" id="4v8" text-anchor="start" text-decoration="normal" transform="translate(1727,1165)rotate(-90)"/>
</g>
</g>
<g cb-classname="ControlPin" cb-pin-name="Ry-4k7-kKP8" id="4vv">
<line cb-classname="GraphicLineEntity" class="signalline" id="4vo" x1="1750" x2="1750" y1="1160" y2="1180"/>
<polygon cb-classname="GraphicPolygonEntity" class="signal" id="4ps" points="1750,1180 1755,1169 1744,1169"/>
<g cb-classname="DynamicText" cb-source="iH-SkK-2wkb" class="signal" id="4pM" text-anchor="start">
<text cb-classname="GraphicTextEntity" class="signal" fill="black" font-style="normal" font-weight="normal" id="4pH" text-anchor="start" text-decoration="normal" transform="translate(1747,1165)rotate(-90)"/>
</g>
</g>
<g cb-classname="ControlPin" cb-pin-name="yT-zOO-zYLI" id="4pZ">
<line cb-classname="GraphicLineEntity" class="signalline" id="4pp" x1="1770" x2="1770" y1="1160" y2="1180"/>
<polygon cb-classname="GraphicPolygonEntity" class="signal" id="4pj" points="1770,1180 1775,1169 1764,1169"/>
<g cb-classname="DynamicText" cb-source="FE-FHh-p4dq" class="signal" id="4pl" text-anchor="start">
<text cb-classname="GraphicTextEntity" class="signal" fill="black" font-style="normal" font-weight="normal" id="4p8" text-anchor="start" text-decoration="normal" transform="translate(1767,1165)rotate(-90)"/>
</g>
</g>
<g cb-classname="ControlPin" cb-pin-name="87-IiF-r6o4" id="4pv">
<line cb-classname="GraphicLineEntity" class="signalline" id="4po" x1="1790" x2="1790" y1="1160" y2="1180"/>
<polygon cb-classname="GraphicPolygonEntity" class="signal" id="4bs" points="1790,1180 1795,1169 1784,1169"/>
<g cb-classname="DynamicText" cb-source="Ry-7r6-mzCe" class="signal" id="4bM" text-anchor="start">
<text cb-classname="GraphicTextEntity" class="signal" fill="black" font-style="normal" font-weight="normal" id="4bH" text-anchor="start" text-decoration="normal" transform="translate(1787,1165)rotate(-90)"/>
</g>
</g>
<g cb-classname="ControlPin" cb-pin-name="kF-Myi-42N" id="56p">
<line cb-classname="GraphicLineEntity" class="signalline" id="56j" x1="1800" x2="1820" y1="1260" y2="1260"/>
<g cb-classname="DynamicText" cb-source="FE-FHh-p4dq" id="56l">
<text cb-classname="GraphicTextEntity" class="signal" id="568" text-anchor="start" x="1814" y="1257"/>
</g>
<g cb-classname="SignalSegment" id="56v">
<line cb-classname="GraphicLineEntity" class="signalline" id="56o" x1="1820" x2="2110" y1="1260" y2="1260"/>
<g cb-classname="SignalSegment" id="5Is">
<line cb-classname="GraphicLineEntity" class="signalline" id="5IM" x1="2110" x2="2110" y1="1260" y2="1420"/>
<g cb-classname="SignalConnection" cb-graphic-line="$591$" cb-input-pin="$DPR$" id="5IH"/>
</g>
</g>
</g>
<g cb-classname="ControlPin" cb-pin-name="Nu-W5W-aTlz" id="4bZ">
<line cb-classname="GraphicLineEntity" class="signalline" id="4bp" x1="1800" x2="1820" y1="1230" y2="1230"/>
<g cb-classname="DynamicText" cb-source="I4-nDv-tpNO" class="signal" id="4bj" text-anchor="start">
<text cb-classname="GraphicTextEntity" class="signal" fill="black" font-style="normal" font-weight="normal" id="4bl" text-anchor="start" text-decoration="normal" x="1814" y="1227"/>
</g>
</g>
</g>
<g cb-alg-cJ="$361$cb-alg-out$" cb-algorithm-id="006" cb-classname="ExternalPointInterface" cb-function-name="OUTPUT" id="5NM">
<ellipse cb-classname="GraphicEllipseEntity" class="algorithm" cx="1620" cy="1480" id="5NH" rx="40" ry="40"/>
<rect cb-classname="GraphicRectangleEntity" class="algorithm" height="30" id="5NZ" rx="0" width="80" x="1580" y="1520"/>
<line cb-classname="GraphicLineEntity" class="algorithm" id="5Np" x1="1620" x2="1620" y1="1520" y2="1550"/>
<g cb-classname="PointStatusIndicator" cb-indicator-type="hardware" cb-source="PO-oAG-qm" id="5Nj" visibility="hidden">
<line cb-classname="GraphicLineEntity" class="algorithmline" id="5Nl" x1="1580" x2="1580" y1="1520" y2="1440"/>
<line cb-classname="GraphicLineEntity" class="algorithmline" id="5N8" x1="1580" x2="1660" y1="1440" y2="1440"/>
<line cb-classname="GraphicLineEntity" class="algorithmline" id="5Nv" x1="1660" x2="1660" y1="1440" y2="1520"/>
</g>
<g cb-classname="PointStatusIndicator" cb-indicator-type="Highway" cb-source="iH-MiV-Lt" id="5No" visibility="hidden">
<line cb-classname="GraphicLineEntity" class="algorithmline" id="53s" x1="1580" x2="1620" y1="1480" y2="1440"/>
<line cb-classname="GraphicLineEntity" class="algorithmline" id="53M" x1="1620" x2="1660" y1="1440" y2="1480"/>
<line cb-classname="GraphicLineEntity" class="algorithmline" id="53H" x1="1660" x2="1620" y1="1480" y2="1520"/>
<line cb-classname="GraphicLineEntity" class="algorithmline" id="53Z" x1="1620" x2="1580" y1="1520" y2="1480"/>
</g>
<g cb-classname="PointStatusIndicator" cb-indicator-type="alarm" cb-source="FE-bTT-6X" id="53p" visibility="hidden">
<text cb-classname="GraphicTextEntity" class="algorithm" fill="#000000" font-family="Arial" font-size="20" id="53j" x="1593" y="1544">
A
</text>
</g>
<g cb-classname="PointStatusIndicator" cb-indicator-type="ingraphic" cb-source="87-IiF-r6" id="53l" visibility="hidden">
<text cb-classname="GraphicTextEntity" class="algorithm" fill="#000000" font-family="Arial" font-size="20" id="538" x="1630" y="1545">
G
</text>
</g>
<g baseline-shift="-100%" cb-anchor-x="1620" cb-anchor-y="1600" cb-classname="PointDescription" cb-content="extended" cb-labeled="false" cb-max-width="240" cb-source="PO-oAG-qm" class="algorithm" id="53v" text-anchor="middle">
<text baseline-shift="-100%" cb-classname="GraphicTextEntity" class="algorithm" id="53o" text-anchor="middle" x="1620" y="1600">
CALCBLOCK
</text>
<text baseline-shift="-100%" cb-classname="GraphicTextEntity" class="algorithm" id="5vs" text-anchor="middle" x="1620" y="1636">
output
</text>
<text baseline-shift="-100%" cb-classname="GraphicTextEntity" class="algorithm" id="56H" text-anchor="middle" x="1620" y="1672">
0 - 100
</text>
</g>
<g cb-classname="DynamicText" cb-labeled="false" cb-pin-name="wb" cb-source="Nu-W5W-R2" class="algorithm" id="5vM" text-anchor="middle">
<text baseline-shift="-50%" cb-classname="GraphicTextEntity" class="algorithm" fill="black" font-family="Arial" font-size="20" font-style="normal" font-weight="normal" id="5vH" text-anchor="middle" text-decoration="normal" x="1620" y="1570"/>
</g>
<g baseline-shift="0%" cb-anchor-x="1640" cb-anchor-y="1420" cb-classname="PointReferences" cb-max-width="240" cb-originator="false" cb-source="I4-9JL-OW" class="signal" id="5vZ" text-anchor="start">
<text baseline-shift="0%" cb-classname="GraphicTextEntity" class="algorithm" id="5vp" text-anchor="start" x="1640" y="1420">
-
</text>
</g>
<g cb-classname="ControlPin" cb-pin-name="cR-aw2-Op" id="5vl">
<line cb-classname="GraphicLineEntity" class="signalline" id="5v8" x1="1620" x2="1620" y1="1420" y2="1440"/>
<polygon cb-classname="GraphicPolygonEntity" class="signal" id="5vv" points="1620,1440 1624,1429 1616,1429"/>
</g>
</g>
<g cb-alg-6X="$361$cb-alg-alg$" cb-algorithm-id="007" cb-classname="ExternalPointInterface" cb-function-name="OUTPUT" id="5pp">
<ellipse cb-classname="GraphicEllipseEntity" class="algorithm" cx="2110" cy="1480" id="5pj" rx="40" ry="40"/>
<rect cb-classname="GraphicRectangleEntity" class="algorithm" height="30" id="5pl" rx="0" width="80" x="2070" y="1520"/>
<line cb-classname="GraphicLineEntity" class="algorithm" id="5p8" x1="2110" x2="2110" y1="1520" y2="1550"/>
<g cb-classname="PointStatusIndicator" cb-indicator-type="hardware" cb-source="kF-Myi-fS" id="5pv" visibility="hidden">
<line cb-classname="GraphicLineEntity" class="algorithmline" id="5po" x1="2070" x2="2070" y1="1520" y2="1440"/>
<line cb-classname="GraphicLineEntity" class="algorithmline" id="5bs" x1="2070" x2="2150" y1="1440" y2="1440"/>
<line cb-classname="GraphicLineEntity" class="algorithmline" id="5bM" x1="2150" x2="2150" y1="1440" y2="1520"/>
</g>
<g cb-classname="PointStatusIndicator" cb-indicator-type="Highway" cb-source="87-IiF-r6" id="5bH" visibility="hidden">
<line cb-classname="GraphicLineEntity" class="algorithmline" id="5bZ" x1="2070" x2="2110" y1="1480" y2="1440"/>
<line cb-classname="GraphicLineEntity" class="algorithmline" id="5bp" x1="2110" x2="2150" y1="1440" y2="1480"/>
<line cb-classname="GraphicLineEntity" class="algorithmline" id="5bj" x1="2150" x2="2110" y1="1480" y2="1520"/>
<line cb-classname="GraphicLineEntity" class="algorithmline" id="5bl" x1="2110" x2="2070" y1="1520" y2="1480"/>
</g>
<g cb-classname="PointStatusIndicator" cb-indicator-type="alarm" cb-source="Nu-W5W-R2" id="5b8" visibility="hidden">
<text cb-classname="GraphicTextEntity" class="algorithm" fill="#000000" font-family="Arial" font-size="20" id="5bv" x="2083" y="1544">
A
</text>
</g>
<g cb-classname="PointStatusIndicator" cb-indicator-type="ingraphic" cb-source="I4-9JL-OW" id="5bo" visibility="hidden">
<text cb-classname="GraphicTextEntity" class="algorithm" fill="#000000" font-family="Arial" font-size="20" id="5ms" x="2120" y="1545">
G
</text>
</g>
<g baseline-shift="-100%" cb-anchor-x="2110" cb-anchor-y="1600" cb-classname="PointDescription" cb-content="extended" cb-labeled="false" cb-max-width="240" cb-source="kF-Myi-fS" class="algorithm" id="5mM" text-anchor="middle">
<text baseline-shift="-100%" cb-classname="GraphicTextEntity" class="algorithm" id="5mH" text-anchor="middle" x="2110" y="1600">
CAKCBLOCK alg
</text>
<text baseline-shift="-100%" cb-classname="GraphicTextEntity" class="algorithm" id="5mZ" text-anchor="middle" x="2110" y="1636">
point
</text>
</g>
<g cb-classname="DynamicText" cb-labeled="false" cb-pin-name="Aj" cb-source="G2-S4Z-6e" class="algorithm" id="5mp" text-anchor="middle">
<text baseline-shift="-50%" cb-classname="GraphicTextEntity" class="algorithm" fill="black" font-family="Arial" font-size="20" font-style="normal" font-weight="normal" id="5mj" text-anchor="middle" text-decoration="normal" x="2110" y="1570"/>
</g>
<g baseline-shift="0%" cb-anchor-x="2130" cb-anchor-y="1420" cb-classname="PointReferences" cb-max-width="240" cb-originator="false" cb-source="c0-6EW-Fc" class="signal" id="5ml" text-anchor="start">
<text baseline-shift="0%" cb-classname="GraphicTextEntity" class="algorithm" id="5m8" text-anchor="start" x="2130" y="1420">
-
</text>
</g>
<g cb-classname="ControlPin" cb-pin-name="SR-KlR-Dv" id="5mo">
<line cb-classname="GraphicLineEntity" class="signalline" id="56s" x1="2110" x2="2110" y1="1420" y2="1440"/>
<polygon cb-classname="GraphicPolygonEntity" class="signal" id="56M" points="2110,1440 2114,1429 2106,1429"/>
</g>
</g>
</g>
<g cb-classname="IncludeDocument" cb-modify-time="03/12/2018 11:07:58" cb-objectname="frame" id="5">
<text cb-classname="GraphicTextEntity" class="frame" font-size="50" id="5IZ" x="3660" y="3146">
Project Title &lt;Edit in FRAME.SVG&gt;
</text>
<g baseline-shift="-50%" cb-classname="DynamicText" cb-source="iH-EHq7-OB" class="frame" id="5Ip">
<text cb-classname="GraphicTextEntity" class="frame" fill="black" font-family="arial" font-size="25" font-style="normal" font-weight="normal" id="5Ij" text-decoration="normal" x="4715" y="3325">
5
</text>
</g>
<g baseline-shift="-50%" cb-classname="DynamicText" cb-source="yT-t49b-fD" class="frame" id="5Il" text-anchor="middle">
<text cb-classname="GraphicTextEntity" class="frame" fill="black" font-family="arial" font-size="48" font-style="normal" font-weight="normal" id="5I8" text-anchor="middle" text-decoration="normal" x="4900" y="3320">
5
</text>
</g>
<g baseline-shift="-50%" cb-classname="DynamicText" cb-source="cR-Db5g-6D" class="frame" id="5Iv" text-anchor="middle">
<text cb-classname="GraphicTextEntity" class="frame" fill="black" font-family="arial" font-size="48" font-style="normal" font-weight="normal" id="5Io" text-anchor="middle" text-decoration="normal" x="5067" y="3324">
2
</text>
</g>
<g cb-classname="DynamicText" cb-source="G2-5jMH0-eqoJs" class="frame" id="6Ks">
<text cb-classname="GraphicTextEntity" class="frame" fill="black" font-family="arial" font-size="48" font-style="normal" font-weight="normal" id="6KM" text-decoration="normal" x="3660" y="3224">
test
</text>
</g>
<g baseline-shift="-50%" cb-classname="DynamicText" cb-source="c0-K51ze-moChc3" class="frame" id="6KH" text-anchor="middle">
<text cb-classname="GraphicTextEntity" class="frame" fill="black" font-family="arial" font-size="48" font-style="normal" font-weight="normal" id="6KZ" text-anchor="middle" text-decoration="normal" x="5270" y="3324">
001
</text>
</g>
<g baseline-shift="0%" cb-classname="DynamicText" cb-source="Ry-yzBqGDn2" class="frame" id="6Kp" text-anchor="middle">
<text cb-classname="GraphicTextEntity" class="frame" fill="black" font-family="arial" font-size="36" font-style="normal" font-weight="normal" id="6Kj" text-anchor="middle" text-decoration="normal" x="5270" y="3150">
A
</text>
</g>
<g baseline-shift="0%" cb-classname="DynamicText" cb-source="Nu-vUQDdLEW-m4EX" class="frame" id="6Kl" text-anchor="middle">
<text cb-classname="GraphicTextEntity" class="frame" fill="black" font-family="arial" font-size="20" font-style="normal" font-weight="normal" id="6K8" text-anchor="middle" text-decoration="normal" x="5270" y="3230">

</text>
</g>
<g baseline-shift="-50%" cb-classname="DynamicText" cb-source="I4-DKLLtPbH" class="frame" id="6Kv" text-anchor="end">
<text cb-classname="GraphicTextEntity" class="frame" fill="black" font-family="arial" font-size="26" font-style="normal" font-weight="normal" id="6Ko" text-anchor="end" text-decoration="normal" x="4500" y="3420">

</text>
</g>
<g baseline-shift="-50%" cb-classname="DynamicText" cb-source="kF-4eyzb5oi" class="frame" id="6Ss" text-anchor="end">
<text cb-classname="GraphicTextEntity" class="frame" fill="black" font-family="arial" font-size="26" font-style="normal" font-weight="normal" id="6SM" text-anchor="end" text-decoration="normal" x="5353" y="3420">

</text>
</g>
<g cb-classname="GraphicShape" cb-tag="BORDER" id="6SH">
<line cb-classname="GraphicLineEntity" class="frameline" id="6SZ" x1="40" x2="40" y1="40" y2="3460"/>
<line cb-classname="GraphicLineEntity" class="frameline" id="6Sp" x1="40" x2="5380" y1="3460" y2="3460"/>
<line cb-classname="GraphicLineEntity" class="frameline" id="6Sj" x1="5380" x2="5380" y1="3460" y2="40"/>
<line cb-classname="GraphicLineEntity" class="frameline" id="6Sl" x1="5380" x2="40" y1="40" y2="40"/>
<line cb-classname="GraphicLineEntity" class="frame" id="6S8" x1="5430" x2="5440" y1="3510" y2="3510"/>
</g>
<g cb-classname="GraphicShape" cb-tag="TITLE BOX" id="6Sv">
<line cb-classname="GraphicLineEntity" class="frameline" id="6So" x1="2340" x2="2340" y1="3080" y2="3460"/>
<line cb-classname="GraphicLineEntity" class="frameline" id="6Ns" x1="2340" x2="5380" y1="3080" y2="3080"/>
<line cb-classname="GraphicLineEntity" class="frameline" id="6NM" x1="3650" x2="3650" y1="3460" y2="3080"/>
<line cb-classname="GraphicLineEntity" class="frameline" id="6NH" x1="3650" x2="5380" y1="3240" y2="3240"/>
<line cb-classname="GraphicLineEntity" class="frameline" id="6NZ" x1="3650" x2="5380" y1="3390" y2="3390"/>
<line cb-classname="GraphicLineEntity" class="frameline" id="6Np" x1="3650" x2="5380" y1="3160" y2="3160"/>
<line cb-classname="GraphicLineEntity" class="frameline" id="6Nj" x1="3650" x2="4520" y1="3320" y2="3320"/>
<line cb-classname="GraphicLineEntity" class="frameline" id="6Nl" x1="4520" x2="5380" y1="3290" y2="3290"/>
<line cb-classname="GraphicLineEntity" class="frameline" id="6N8" x1="4520" x2="5380" y1="3240" y2="3240"/>
<line cb-classname="GraphicLineEntity" class="frameline" id="6Nv" x1="4520" x2="4520" y1="3240" y2="3460"/>
<line cb-classname="GraphicLineEntity" class="frameline" id="6No" x1="4810" x2="4810" y1="3240" y2="3390"/>
<line cb-classname="GraphicLineEntity" class="frameline" id="63s" x1="4990" x2="4990" y1="3240" y2="3390"/>
<line cb-classname="GraphicLineEntity" class="frameline" id="63M" x1="5150" x2="5150" y1="3080" y2="3390"/>
</g>
<g cb-classname="GraphicShape" cb-tag="TEXT LABELS" id="63H">
<text baseline-shift="-50%" cb-classname="GraphicTextEntity" class="frame" font-size="25" id="63Z" text-anchor="middle" x="4890" y="3252">
Drop
</text>
<text baseline-shift="-50%" cb-classname="GraphicTextEntity" class="frame" font-size="25" id="63p" text-anchor="middle" x="5075" y="3252">
Task
</text>
<text baseline-shift="-50%" cb-classname="GraphicTextEntity" class="frame" font-size="25" id="63j" text-anchor="middle" x="5265" y="3252">
Sheet
</text>
<text cb-classname="GraphicTextEntity" class="frame" font-size="25" id="63l" x="5152" y="3107">
Rev.
</text>
<text cb-classname="GraphicTextEntity" class="frame" font-size="25" id="638" x="3653" y="3418">
Engineer
</text>
<text cb-classname="GraphicTextEntity" class="frame" font-size="25" id="63v" x="4528" y="3419">
Approved
</text>
<text cb-classname="GraphicTextEntity" class="frame" font-size="25" id="63o" x="5152" y="3187">
Date
</text>
<text baseline-shift="-50%" cb-classname="GraphicTextEntity" class="frame" font-size="25" id="6vs" text-anchor="middle" x="4660" y="3252">
Drawing Number
</text>
<text baseline-shift="-50%" cb-classname="GraphicTextEntity" class="frame" font-size="25" id="6vM" text-anchor="middle" x="4680" y="3325">
CTL
</text>
</g>
<text baseline-shift="-50%" cb-classname="GraphicTextEntity" class="frame" font-size="48" id="6vH" text-anchor="middle" x="3000" y="3100">
EMERSON PROCESS MANAGEMENT
</text>
<g baseline-shift="-100%" cb-anchor-x="2360" cb-anchor-y="3140" cb-classname="GroupText" cb-max-width="1260" fill="black" id="6vZ">
<text baseline-shift="-100%" cb-classname="GraphicTextEntity" class="frame" fill="black" font-family="arial" font-size="22" font-weight="normal" id="6vp" text-anchor="start" text-decoration="normal" x="2360" y="3140">
THIS DOCUMENT CONTAINS INFORMATION PROPRIETARY TO EMERSON PROCESS
</text>
<text baseline-shift="-100%" cb-classname="GraphicTextEntity" class="frame" fill="black" font-family="arial" font-size="22" font-weight="normal" id="6vj" text-anchor="start" text-decoration="normal" x="2360" y="3176">
MANAGEMENT POWER &amp; WATER SOLUTIONS, INC. IT IS SUBMITTED IN CONFIDENCE AND
</text>
<text baseline-shift="-100%" cb-classname="GraphicTextEntity" class="frame" fill="black" font-family="arial" font-size="22" font-weight="normal" id="6vl" text-anchor="start" text-decoration="normal" x="2360" y="3212">
TRUST, IS TO BE USED BY YOU SOLELY FOR THE PURPOSES FOR WHICH IT IS
</text>
<text baseline-shift="-100%" cb-classname="GraphicTextEntity" class="frame" fill="black" font-family="arial" font-size="22" font-weight="normal" id="6v8" text-anchor="start" text-decoration="normal" x="2360" y="3248">
FURNISHED AND IS TO BE RETURNED UPON REQUEST. THIS DOCUMENT AND ANY
</text>
<text baseline-shift="-100%" cb-classname="GraphicTextEntity" class="frame" fill="black" font-family="arial" font-size="22" font-weight="normal" id="6vv" text-anchor="start" text-decoration="normal" x="2360" y="3284">
OTHER INFORMATION PROVIDED TO YOU IS NOT TO BE REPRODUCED, TRANSMITTED,
</text>
<text baseline-shift="-100%" cb-classname="GraphicTextEntity" class="frame" fill="black" font-family="arial" font-size="22" font-weight="normal" id="6vo" text-anchor="start" text-decoration="normal" x="2360" y="3320">
DISCLOSED, OR USED OTHERWISE IN WHOLE OR IN PART WITHOUT THE PRIOR
</text>
<text baseline-shift="-100%" cb-classname="GraphicTextEntity" class="frame" fill="black" font-family="arial" font-size="22" font-weight="normal" id="6ps" text-anchor="start" text-decoration="normal" x="2360" y="3356">
WRITTEN AUTHORIZATION OF EMERSON PROCESS MANAGEMENT POWER &amp; WATER
</text>
<text baseline-shift="-100%" cb-classname="GraphicTextEntity" class="frame" fill="black" font-family="arial" font-size="22" font-weight="normal" id="6pM" text-anchor="start" text-decoration="normal" x="2360" y="3392">
SOLUTIONS,INC.
</text>
</g>
</g>
</svg>