<?xml version="1.0" ?><svg cb-auto-time="11/24/2017 15:44:45" cb-classname="ControlFunction" cb-create-time="10/03/2017" cb-drop-id="10" cb-engineer="R.Kragnys" cb-filename="Z:\OVATION\NET0\UNIT0\CONTROLFUNCTIONS\0041.svg" cb-function-id="0041" cb-key="424433215255" cb-modified-timestamp="1569932341" cb-modify-id="00000003" cb-path="Z:/OVATION/NET0/UNIT0/CONTROLFUNCTIONS" cb-revision="A" cb-revision-time="03/01/2018" cb-sheet-number="001" cb-sheet-title="Test - HW" cb-snap-grid="10" cb-task-id="2" height="3522" id="1" width="5450" xmlns="http://www.w3.org/2000/svg">
<style cb-classname="EntityStyle" id="2" type="text/css">
	.algorithm { fill: white; stroke: black; stroke-width: 3 }
	.algorithm-function { fill: black; stroke: none }
	.algorithm-functionline { fill: none; stroke: black; stroke-linecap: round; stroke-width: 3 }
	.algorithm-name { fill: black; stroke: none }
	.algorithm-nameline { fill: none; stroke: black; stroke-linecap: round; stroke-width: 3 }
	.algorithm-sequence { fill: black; stroke: none; visibility: hidden }
	.algorithm-sequenceline { fill: none; stroke: black; stroke-linecap: round; stroke-width: 3; visibility: hidden }
	.algorithmline { fill: none; stroke: black; stroke-linecap: round; stroke-width: 3 }
	.annotation { fill: black; stroke: none }
	.annotationline { fill: none; stroke: black; stroke-linecap: round; stroke-width: 3 }
	.frame { fill: black; stroke: none }
	.frameline { fill: none; stroke: black; stroke-linecap: round; stroke-width: 3 }
	.signal { fill: black; stroke: none }
	.signalline { fill: none; stroke: black; stroke-linecap: round; stroke-width: 3 }
	text.algorithm { fill: black; font-family: Arial; font-size: 22; stroke: none }
	text.algorithm-function { fill: black; font-family: Arial; font-size: 22; stroke: none }
	text.algorithm-name { fill: black; font-family: Arial; font-size: 22; stroke: none }
	text.algorithm-sequence { fill: black; font-family: Arial; font-size: 22; stroke: none; visibility: hidden }
	text.annotation { fill: black; font-family: Arial; font-size: 22; stroke: none }
	text.frame { fill: black; font-family: Arial; font-size: 18; stroke: none }
	text.signal { fill: black; font-family: Arial; font-size: 12; stroke: none }
</style>
<g cb-classname="NamedObject" cb-objectname="Comments" id="3"/>
<g cb-classname="AlgorithmContainer" cb-objectname="Algorithms" id="4">
<g cb-alg-dgdQ="69" cb-alg-vVRN="1" cb-algorithm-id="001" cb-classname="ControlAlgorithm" cb-function-name="DVALGEN" cb-modify-id="00000001" id="6y">
<rect cb-classname="GraphicRectangleEntity" class="algorithm" height="60" id="68" width="100" x="850" y="770"/>
<text baseline-shift="-50%" cb-classname="GraphicTextEntity" class="algorithm" font-size="18" id="6S" text-anchor="middle" x="900" y="787">
DVAL
</text>
<text baseline-shift="-50%" cb-classname="GraphicTextEntity" class="algorithm" font-size="18" id="6N" text-anchor="middle" x="900" y="813">
GEN
</text>
<g cb-classname="ControlPin" cb-pin-name="yb-AUI-l86" id="6t">
<line cb-classname="GraphicLineEntity" class="signalline" id="7F" x1="950" x2="970" y1="800" y2="800"/>
<g cb-classname="DynamicText" cb-source="8P-qSW-Kzho" class="signal" id="7z">
<text baseline-shift="5%" cb-classname="GraphicTextEntity" class="signal" fill="black" font-style="normal" font-weight="normal" id="7j" text-decoration="normal" x="964" y="790"/>
</g>
<g cb-classname="SignalSegment" id="1by">
<g cb-classname="SignalConnection" cb-graphic-line="$142$" cb-input-pin="$zDv$" id="1ia"/>
<line cb-classname="GraphicLineEntity" class="signalline" id="1iU" stroke="#1e12bf" stroke-dasharray="5,4" x1="970" x2="1130" y1="800" y2="800"/>
</g>
</g>
</g>
<g cb-alg-5YRV="1" cb-alg-7e5u="69" cb-algorithm-id="007" cb-classname="ControlAlgorithm" cb-function-name="DVALGEN" cb-modify-id="00000002" id="2ix">
<rect cb-classname="GraphicRectangleEntity" class="algorithm" height="60" id="2iA" width="100" x="840" y="1290"/>
<text baseline-shift="-50%" cb-classname="GraphicTextEntity" class="algorithm" font-size="18" id="2iZ" text-anchor="middle" x="890" y="1307">
DVAL
</text>
<text baseline-shift="-50%" cb-classname="GraphicTextEntity" class="algorithm" font-size="18" id="2iP" text-anchor="middle" x="890" y="1333">
GEN
</text>
<g cb-classname="ControlPin" cb-pin-name="tk-AjN-55w" id="2iy">
<line cb-classname="GraphicLineEntity" class="signalline" id="2yD" x1="940" x2="960" y1="1320" y2="1320"/>
<g cb-classname="DynamicText" cb-source="yb-7dT-WYXP" class="signal" id="2yX">
<text baseline-shift="5%" cb-classname="GraphicTextEntity" class="signal" fill="black" font-style="normal" font-weight="normal" id="2yU" text-decoration="normal" x="954" y="1310"/>
</g>
<g cb-classname="SignalSegment" id="2ya">
<g cb-classname="SignalConnection" cb-graphic-line="$255$" cb-input-pin="$rZN$" id="2y4"/>
<line cb-classname="GraphicLineEntity" class="signalline" id="2yx" stroke="#1e12bf" stroke-dasharray="5,4" x1="960" x2="1120" y1="1320" y2="1320"/>
</g>
</g>
</g>
<g cb-alg-r4f4="NO" cb-alg-rR8="D10B1-SOE2" cb-algorithm-id="00D" cb-classname="ExternalPointInterface" cb-function-name="INPUT" id="3NU">
<ellipse cb-classname="GraphicEllipseEntity" class="algorithm" cx="400" cy="1360" id="3Na" rx="40" ry="40"/>
<rect cb-classname="GraphicRectangleEntity" class="algorithm" height="80" id="3N4" width="30" x="330" y="1320"/>
<line cb-classname="GraphicLineEntity" class="algorithm" id="3Nx" x1="330" x2="360" y1="1360" y2="1360"/>
<g cb-classname="PointStatusIndicator" cb-indicator-type="Highway" cb-source="Hw-YRu-eOR" id="3NA" visibility="hidden">
<line cb-classname="GraphicLineEntity" class="algorithmline" id="3NZ" x1="360" x2="400" y1="1360" y2="1320"/>
<line cb-classname="GraphicLineEntity" class="algorithmline" id="3NP" x1="400" x2="440" y1="1320" y2="1360"/>
<line cb-classname="GraphicLineEntity" class="algorithmline" id="3Ny" x1="440" x2="400" y1="1360" y2="1400"/>
<line cb-classname="GraphicLineEntity" class="algorithmline" id="3tD" x1="400" x2="360" y1="1400" y2="1360"/>
</g>
<g cb-classname="PointStatusIndicator" cb-indicator-type="hardware" cb-source="Bm-Kgb-OOI" id="3tX" visibility="hidden">
<line cb-classname="GraphicLineEntity" class="algorithmline" id="3tU" x1="360" x2="440" y1="1320" y2="1320"/>
<line cb-classname="GraphicLineEntity" class="algorithmline" id="3ta" x1="440" x2="440" y1="1320" y2="1400"/>
<line cb-classname="GraphicLineEntity" class="algorithmline" id="3t4" x1="440" x2="360" y1="1400" y2="1400"/>
</g>
<g cb-classname="PointStatusIndicator" cb-indicator-type="alarm" cb-source="lN-09E-oxA" id="3tx" visibility="hidden">
<text cb-classname="GraphicTextEntity" class="algorithm" fill="#000000" font-family="arial" font-size="20" id="3tA" x="337" y="1349">
A
</text>
</g>
<g cb-classname="PointStatusIndicator" cb-indicator-type="ingraphic" cb-source="cX-86a-CvQ" id="3tZ" visibility="hidden">
<text cb-classname="GraphicTextEntity" class="algorithm" fill="#000000" font-family="Arial" font-size="20" id="3tP" x="335" y="1389">
G
</text>
</g>
<g baseline-shift="-50%" cb-anchor-x="312" cb-anchor-y="1354" cb-classname="PointDescription" cb-content="extended" cb-labeled="false" cb-max-width="240" cb-source="Hw-YRu-eOR" class="algorithm" id="3ty" text-anchor="end">
<text baseline-shift="-50%" cb-classname="GraphicTextEntity" class="algorithm" id="4FD" text-anchor="end" x="312" y="1354">
SOE input 2
</text>
</g>
<g cb-classname="DynamicText" cb-labeled="false" cb-pin-name="OMo" cb-source="cL-GHO-xjy" class="algorithm" id="4Fa" text-anchor="start">
<text baseline-shift="0%" cb-classname="GraphicTextEntity" class="algorithm" fill="black" font-family="Arial" font-size="20" font-style="normal" font-weight="normal" id="4F4" text-anchor="start" text-decoration="normal" x="460" y="1340"/>
</g>
<g baseline-shift="-100%" cb-anchor-x="460" cb-anchor-y="1370" cb-classname="PointReferences" cb-max-width="230" cb-originator="true" cb-source="tk-AjN-55w" class="signal" id="4Fx" text-anchor="start">
<text baseline-shift="-100%" cb-classname="GraphicTextEntity" class="algorithm" id="4FA" text-anchor="start" x="460" y="1370">
-
</text>
</g>
<g cb-classname="ControlPin" cb-pin-name="lN-09E-oxA" id="4FP">
<line cb-classname="GraphicLineEntity" class="signalline" id="4Fy" x1="440" x2="460" y1="1360" y2="1360"/>
<g cb-classname="SignalSegment" id="4zD">
<g cb-classname="SignalConnection" cb-graphic-line="$413$" cb-input-pin="$Evp$" id="4z4"/>
<line cb-classname="GraphicLineEntity" class="signalline" id="4za" stroke="#1e12bf" stroke-dasharray="5,4" x1="460" x2="1120" y1="1360" y2="1360"/>
</g>
</g>
</g>
<g cb-alg-3cJy="4" cb-alg-44I5="NO" cb-alg-8AEQ="SOFT" cb-alg-8EJQ="TRUN" cb-alg-8tja="1" cb-alg-E7lH="100.000000" cb-alg-EfFE="25" cb-alg-N8lH="0.000000" cb-alg-Sd0Q="0" cb-alg-kf0I="9" cb-alg-rtdy="NO" cb-alg-rv09="0.000000" cb-algorithm-id="010" cb-classname="ControlAlgorithm" cb-function-name="SETPOINT" cb-modify-id="00000003" id="4iP">
<polygon cb-classname="GraphicPolygonEntity" class="algorithm" fill="white" id="4iy" points="1860,1760 1900,1800 1860,1840 1820,1800"/>
<ellipse cb-classname="GraphicEllipseEntity" class="algorithm" cx="1780" cy="1800" fill="white" id="4yD" rx="40" ry="40"/>
<ellipse cb-classname="GraphicEllipseEntity" class="algorithm" cx="1860" cy="1870" fill="black" id="4yX" rx="8" ry="8"/>
<text baseline-shift="-50%" cb-classname="GraphicTextEntity" class="algorithm" font-size="33" id="4yU" text-anchor="middle" x="1780" y="1788">
I
</text>
<text baseline-shift="-50%" cb-classname="GraphicTextEntity" class="algorithm" font-size="33" id="4ya" text-anchor="middle" x="1860" y="1786">
A
</text>
<line cb-classname="GraphicLineEntity" class="algorithmline" id="4y4" x1="1860" x2="1780" y1="1870" y2="1870"/>
<line cb-classname="GraphicLineEntity" class="algorithmline" id="4yx" x1="1780" x2="1780" y1="1870" y2="1840"/>
<g cb-classname="DynamicText" cb-source="Bm-Kgb-09E" class="algorithm" id="4yA" text-anchor="end">
<text baseline-shift="-100%" cb-classname="GraphicTextEntity" class="algorithm" fill="black" font-family="Arial" font-size="12" font-style="normal" font-weight="normal" id="4yZ" text-anchor="end" text-decoration="normal" x="1848" y="1885"/>
</g>
<polygon cb-classname="GraphicPolygonEntity" class="algorithm" fill="black" id="4yP" points="1780,1840 1775,1852 1785,1852"/>
<g cb-classname="ControlPin" cb-pin-name="yb-AUI-l86" id="4yy">
<line cb-classname="GraphicLineEntity" class="signalline" id="48D" x1="1860" x2="1860" y1="1840" y2="1900"/>
<g cb-classname="DynamicText" cb-source="8P-qSW-Kzho" class="signal" id="48X" text-anchor="end">
<text baseline-shift="5%" cb-classname="GraphicTextEntity" class="signal" fill="black" font-style="normal" font-weight="normal" id="48U" text-anchor="end" text-decoration="normal" transform="translate(1887,1876)rotate(-90)"/>
</g>
<g cb-classname="SignalSegment" id="4SD">
<g cb-classname="SignalConnection" cb-graphic-line="$473$" cb-input-pin="$orU$" id="4S4"/>
<line cb-classname="GraphicLineEntity" class="signalline" id="4Sa" x1="1860" x2="1860" y1="1900" y2="2070"/>
</g>
</g>
</g>
<g cb-alg-uYnT="1" cb-alg-vl88="65" cb-algorithm-id="011" cb-classname="ControlAlgorithm" cb-function-name="AVALGEN" cb-modify-id="00000003" id="48a">
<polygon cb-classname="GraphicPolygonEntity" class="algorithm" id="484" points="1610,2170 1650,2130 1610,2090 1570,2130"/>
<text baseline-shift="-50%" cb-classname="GraphicTextEntity" class="algorithm" font-size="44" id="48x" text-anchor="middle" x="1610" y="2113">
A
</text>
<g cb-classname="ControlPin" cb-pin-name="cS-zN2-uu6" id="48A">
<line cb-classname="GraphicLineEntity" class="signalline" id="48Z" x1="1650" x2="1670" y1="2130" y2="2130"/>
<g cb-classname="DynamicText" cb-source="cL-Y0d-t0aT" class="signal" id="48P">
<text baseline-shift="5%" cb-classname="GraphicTextEntity" class="signal" fill="black" font-style="normal" font-weight="normal" id="48y" text-decoration="normal" x="1661" y="2120"/>
</g>
<g cb-classname="SignalSegment" id="4Sx">
<g cb-classname="SignalConnection" cb-graphic-line="$478$" cb-input-pin="$pSI$" id="4Sy"/>
<line cb-classname="GraphicLineEntity" class="signalline" id="4SP" x1="1670" x2="1810" y1="2130" y2="2130"/>
</g>
</g>
</g>
<g cb-alg-K9="$448$cb-alg-out$" cb-alg-dnoA="1" cb-alg-zk="$463$cb-alg-out$" cb-algorithm-id="00E" cb-classname="ControlMacroReference" cb-function-name="ENRO-DB" cb-macro-crc="63859" cb-modify-id="00000003" id="4zP">
<rect cb-classname="GraphicRectangleEntity" class="annotation" fill="white" height="60" id="4zy" width="80" x="1830" y="2090"/>
<text baseline-shift="0%" cb-classname="GraphicTextEntity" class="annotation" fill="#000000" font-family="MS Shell Dlg 2" font-size="8" id="4jD" x="1850" y="2110">
ENERO
</text>
<text baseline-shift="0%" cb-classname="GraphicTextEntity" class="annotation" fill="#000000" font-family="MS Shell Dlg 2" font-size="8" id="4jX" x="1850" y="2120">
DeadBand
</text>
<g cb-classname="ControlPin" cb-pin-name="8P-Yn8-aE" id="4jU">
<line cb-classname="GraphicLineEntity" class="signalline" id="4ja" x1="1860" x2="1860" y1="2070" y2="2090"/>
<polygon cb-classname="GraphicPolygonEntity" class="signal" id="4j4" points="1860,2090 1865,2079 1854,2079"/>
<g cb-classname="DynamicText" cb-source="Hw-uaE-5Z5p" id="4jx">
<text cb-classname="GraphicTextEntity" class="signal" id="4jA" text-anchor="start" transform="translate(1857,2075)rotate(-90)"/>
</g>
</g>
<g cb-classname="ControlPin" cb-pin-name="cS-zN2-uu6" id="4jZ">
<line cb-classname="GraphicLineEntity" class="signalline" id="4jP" x1="1860" x2="1860" y1="2150" y2="2170"/>
<g cb-classname="DynamicText" cb-source="cL-Y0d-t0aT" id="4jy">
<text cb-classname="GraphicTextEntity" class="signal" id="4bD" text-anchor="end" transform="translate(1857,2164)rotate(-90)"/>
</g>
<g cb-classname="SignalSegment" id="4ND">
<g cb-classname="SignalConnection" cb-graphic-line="$483$" cb-input-pin="$WzZ$" id="4N4"/>
<line cb-classname="GraphicLineEntity" class="signalline" id="4Na" x1="1860" x2="1860" y1="2170" y2="2310"/>
</g>
</g>
<g cb-classname="ControlPin" cb-pin-name="tk-AjN-Qw" id="4bX">
<line cb-classname="GraphicLineEntity" class="signalline" id="4bU" x1="1810" x2="1830" y1="2130" y2="2130"/>
<polygon cb-classname="GraphicPolygonEntity" class="signal" id="4ba" points="1830,2130 1819,2124 1819,2135"/>
<g cb-classname="DynamicText" cb-source="lN-2lL-d5wI" id="4b4">
<text cb-classname="GraphicTextEntity" class="signal" id="4bx" text-anchor="end" x="1815" y="2127"/>
</g>
</g>
</g>
<g cb-alg-7E5u="ON" cb-alg-82S4="999999999" cb-alg-8EYI="2.500000" cb-alg-8X9C="ON" cb-alg-N0lL="1.000000" cb-alg-PdYx="0.000000" cb-alg-PfS4="-999999999" cb-alg-fJu="$418$cb-alg-out$" cb-alg-ldYE="76" cb-algorithm-id="00F" cb-classname="ControlAlgorithm" cb-function-name="GAINBIAS" cb-modify-id="00000003" id="4bA">
<rect cb-classname="GraphicRectangleEntity" class="algorithm" height="60" id="4bZ" width="100" x="1810" y="2330"/>
<text baseline-shift="-50%" cb-classname="GraphicTextEntity" class="algorithm" font-size="33" id="4bP" text-anchor="middle" x="1860" y="2355">
K
</text>
<g cb-classname="ControlPin" cb-pin-name="4y-5T1-gbY" id="4by">
<line cb-classname="GraphicLineEntity" class="signalline" id="4iD" x1="1860" x2="1860" y1="2310" y2="2330"/>
<polygon cb-classname="GraphicPolygonEntity" class="signal" id="4iX" points="1860,2330 1864,2319 1856,2319"/>
<g cb-classname="DynamicText" cb-source="cL-Y0d-t0aT" class="signal" id="4iU">
<text baseline-shift="5%" cb-classname="GraphicTextEntity" class="signal" fill="black" font-style="normal" font-weight="normal" id="4ia" text-decoration="normal" transform="translate(1850,2310)rotate(-90)"/>
</g>
</g>
<g cb-classname="ControlPin" cb-pin-name="tk-AjN-55w" id="4i4">
<line cb-classname="GraphicLineEntity" class="signalline" id="4ix" x1="1860" x2="1860" y1="2390" y2="2410"/>
<g cb-classname="DynamicText" cb-source="yb-7dT-WYXP" class="signal" id="4iA" text-anchor="end">
<text baseline-shift="5%" cb-classname="GraphicTextEntity" class="signal" fill="black" font-style="normal" font-weight="normal" id="4iZ" text-anchor="end" text-decoration="normal" transform="translate(1852,2402)rotate(-90)"/>
</g>
</g>
</g>
<g cb-alg-iUU="$127$cb-alg-out$" cb-alg-iUX="$65$cb-alg-out$" cb-algorithm-id="004" cb-classname="FastBooleanAlgorithm" cb-function-name="AND" cb-modify-id="00000001" id="1F4">
<rect cb-classname="GraphicRectangleEntity" class="algorithm" height="60" id="1Fx" width="80" x="1150" y="810"/>
<text baseline-shift="-50%" cb-classname="GraphicTextEntity" class="algorithm" id="1FA" text-anchor="middle" x="1190" y="839">
AND
</text>
<line cb-classname="GraphicLineEntity" class="algorithmline" id="1FZ" x1="1150" x2="1150" y1="780" y2="900"/>
<g cb-classname="ControlPin" cb-pin-name="yb-AUI-Cdk" id="1FP">
<line cb-classname="GraphicLineEntity" class="signalline" id="1Fy" x1="1130" x2="1150" y1="800" y2="800"/>
<polygon cb-classname="GraphicPolygonEntity" class="signal" id="1zD" points="1150,800 1139,796 1139,804"/>
<g cb-classname="DynamicText" cb-source="cX-GCd-EWgM" class="signal" id="1zX" text-anchor="end">
<text baseline-shift="5%" cb-classname="GraphicTextEntity" class="signal" fill="black" font-style="normal" font-weight="normal" id="1zU" text-anchor="end" text-decoration="normal" x="1143" y="792"/>
</g>
</g>
<g cb-classname="ControlPin" cb-pin-name="Hw-YRu-eOR" id="1za">
<line cb-classname="GraphicLineEntity" class="signalline" id="1z4" x1="1230" x2="1250" y1="840" y2="840"/>
<g cb-classname="DynamicText" cb-source="cS-8C5-bZiR" class="signal" id="1zx">
<text baseline-shift="5%" cb-classname="GraphicTextEntity" class="signal" fill="black" font-style="normal" font-weight="normal" id="1zA" text-decoration="normal" x="1242" y="832"/>
</g>
<g cb-classname="SignalSegment" id="1i4">
<line cb-classname="GraphicLineEntity" class="signalline" id="1iy" stroke="#1e12bf" stroke-dasharray="5,4" x1="1250" x2="1360" y1="840" y2="840"/>
<g cb-classname="SignalSegment" id="1yD">
<line cb-classname="GraphicLineEntity" class="signalline" id="1yX" stroke="#1e12bf" stroke-dasharray="5,4" x1="1360" x2="1360" y1="840" y2="820"/>
<g cb-classname="SignalSegment" id="1yU">
<line cb-classname="GraphicLineEntity" class="signalline" id="1ya" stroke="#1e12bf" stroke-dasharray="5,4" x1="1360" x2="1430" y1="820" y2="820"/>
<g cb-classname="SignalConnection" cb-graphic-line="$153$" cb-input-pin="$HM$" id="1y4"/>
</g>
<line cb-classname="GraphicLineEntity" class="signalline" id="1iZ" stroke="#1e12bf" stroke-dasharray="5,4" x1="1360" x2="1430" y1="840" y2="840"/>
<g cb-classname="SignalConnection" cb-graphic-line="$147$" cb-input-pin="$Cz$" id="1iP"/>
<ellipse cb-classname="GraphicEllipseEntity" class="signal" cx="1360" cy="840" fill="#1e12bf" id="1yx" rx="5" ry="5" stroke="#1e12bf" stroke-dasharray="5,4"/>
</g>
</g>
</g>
<g cb-classname="ControlPin" cb-pin-name="cL-GHO-fJU" id="1zZ">
<line cb-classname="GraphicLineEntity" class="signalline" id="1zP" x1="1130" x2="1150" y1="880" y2="880"/>
<polygon cb-classname="GraphicPolygonEntity" class="signal" id="1zy" points="1150,880 1139,876 1139,884"/>
<g cb-classname="DynamicText" cb-source="TJ-3fJ-LZnl" class="signal" id="1jD" text-anchor="end">
<text baseline-shift="5%" cb-classname="GraphicTextEntity" class="signal" fill="black" font-style="normal" font-weight="normal" id="1jX" text-anchor="end" text-decoration="normal" x="1140" y="870"/>
</g>
</g>
<g cb-classname="ControlPin" cb-pin-name="lN-09E-eKY" id="1jU">
<line cb-classname="GraphicLineEntity" class="signalline" id="1ja" x1="1130" x2="1150" y1="840" y2="840"/>
<polygon cb-classname="GraphicPolygonEntity" class="signal" id="1j4" points="1150,840 1139,836 1139,844"/>
<g cb-classname="DynamicText" cb-source="IW-AeK-DX4E" class="signal" id="1jx" text-anchor="end">
<text baseline-shift="5%" cb-classname="GraphicTextEntity" class="signal" fill="black" font-style="normal" font-weight="normal" id="1jA" text-anchor="end" text-decoration="normal" x="1140" y="830"/>
</g>
</g>
</g>
<g cb-alg-XYxG="1.000000" cb-alg-dTR="$104$cb-alg-out$" cb-alg-fYq8="2" cb-alg-vl88="96" cb-alg-yTw6="$104$cb-alg-out$" cb-algorithm-id="002" cb-classname="ControlAlgorithm" cb-function-name="ONDELAY" cb-modify-id="00000001" id="7b">
<rect cb-classname="GraphicRectangleEntity" class="algorithm" height="60" id="7i" width="60" x="1450" y="800"/>
<text baseline-shift="-50%" cb-classname="GraphicTextEntity" class="algorithm" font-size="18" id="7y" text-anchor="middle" x="1479" y="812">
TD
</text>
<text cb-classname="GraphicTextEntity" class="algorithm" font-size="18" id="78" text-anchor="middle" x="1479" y="847">
ON
</text>
<g cb-classname="ControlPin" cb-pin-name="xm-Wc7-6q8" id="7S">
<line cb-classname="GraphicLineEntity" class="signalline" id="7N" x1="1430" x2="1450" y1="820" y2="820"/>
<polygon cb-classname="GraphicPolygonEntity" class="signal" id="7t" points="1450,820 1439,816 1439,824"/>
<g cb-classname="DynamicText" cb-source="tk-Grt-T8hw" class="signal" id="8F" text-anchor="end">
<text baseline-shift="5%" cb-classname="GraphicTextEntity" class="signal" fill="black" font-style="normal" font-weight="normal" id="8z" text-anchor="end" text-decoration="normal" x="1414" y="816"/>
</g>
</g>
<g cb-classname="ControlPin" cb-pin-name="yb-AUI-l86" id="8j">
<line cb-classname="GraphicLineEntity" class="signalline" id="8b" x1="1510" x2="1530" y1="820" y2="820"/>
<g cb-classname="DynamicText" cb-source="8P-qSW-Kzho" class="signal" id="8i">
<text baseline-shift="5%" cb-classname="GraphicTextEntity" class="signal" fill="black" font-style="normal" font-weight="normal" id="8y" text-decoration="normal" x="1546" y="816"/>
</g>
<g cb-classname="SignalSegment" id="1yA">
<g cb-classname="SignalConnection" cb-graphic-line="$159$" cb-input-pin="$ks$" id="18D"/>
<line cb-classname="GraphicLineEntity" class="signalline" id="1yy" stroke="#1e12bf" stroke-dasharray="5,4" x1="1530" x2="1730" y1="820" y2="820"/>
</g>
</g>
<g cb-classname="ControlPin" cb-pin-name="IW-ZVV-I5Sr" id="88">
<line cb-classname="GraphicLineEntity" class="signalline" id="8S" x1="1430" x2="1450" y1="840" y2="840"/>
<polygon cb-classname="GraphicPolygonEntity" class="signal" id="8N" points="1450,840 1439,836 1439,844"/>
<g cb-classname="DynamicText" cb-source="cS-8C5-bZiR" class="signal" id="8t" text-anchor="end">
<text baseline-shift="5%" cb-classname="GraphicTextEntity" class="signal" fill="black" font-style="normal" font-weight="normal" id="9F" text-anchor="end" text-decoration="normal" x="1414" y="836"/>
</g>
</g>
</g>
<g cb-alg-bVJX="1.000000" cb-alg-dgdQ="97" cb-alg-iUX="$73$cb-alg-out$" cb-alg-ocs="D10B2-OUT1" cb-alg-tVSQ="2" cb-algorithm-id="003" cb-classname="ControlAlgorithm" cb-function-name="OFFDELAY" cb-modify-id="00000001" id="9z">
<rect cb-classname="GraphicRectangleEntity" class="algorithm" height="60" id="9j" width="60" x="1750" y="790"/>
<text baseline-shift="-50%" cb-classname="GraphicTextEntity" class="algorithm" font-size="18" id="9b" text-anchor="middle" x="1780" y="805">
TD
</text>
<text baseline-shift="-50%" cb-classname="GraphicTextEntity" class="algorithm" font-size="18" id="9i" text-anchor="middle" x="1780" y="827">
OFF
</text>
<g cb-classname="ControlPin" cb-pin-name="yb-AUI-Cdk" id="9y">
<line cb-classname="GraphicLineEntity" class="signalline" id="98" x1="1730" x2="1750" y1="820" y2="820"/>
<polygon cb-classname="GraphicPolygonEntity" class="signal" id="9S" points="1750,820 1739,816 1739,824"/>
<g cb-classname="DynamicText" cb-source="cX-GCd-EWgM" class="signal" id="9N" text-anchor="end">
<text baseline-shift="5%" cb-classname="GraphicTextEntity" class="signal" fill="black" font-style="normal" font-weight="normal" id="9t" text-anchor="end" text-decoration="normal" x="1714" y="816"/>
</g>
</g>
<g cb-classname="ControlPin" cb-pin-name="Hw-YRu-eOR" id="1FD">
<line cb-classname="GraphicLineEntity" class="signalline" id="1FX" x1="1810" x2="1830" y1="820" y2="820"/>
<g cb-classname="DynamicText" cb-source="cS-8C5-bZiR" class="signal" id="1FU">
<text baseline-shift="5%" cb-classname="GraphicTextEntity" class="signal" fill="black" font-style="normal" font-weight="normal" id="1Fa" text-decoration="normal" x="1846" y="816"/>
</g>
<g cb-classname="SignalSegment" id="18X">
<line cb-classname="GraphicLineEntity" class="signalline" id="18U" stroke="#1e12bf" stroke-dasharray="5,4" x1="1830" x2="1950" y1="820" y2="820"/>
<g cb-classname="SignalSegment" id="18a">
<line cb-classname="GraphicLineEntity" class="signalline" id="184" stroke="#1e12bf" stroke-dasharray="5,4" x1="1950" x2="1950" y1="820" y2="1010"/>
<g cb-classname="SignalSegment" id="18x">
<line cb-classname="GraphicLineEntity" class="signalline" id="18A" stroke="#1e12bf" stroke-dasharray="5,4" x1="1950" x2="1530" y1="1010" y2="1010"/>
<g cb-classname="SignalConnection" cb-graphic-line="$166$" cb-input-pin="$jSf$" id="18Z"/>
<g cb-classname="SignalConnection" cb-graphic-line="$205$" cb-input-pin="$Eif$" id="2FA"/>
<line cb-classname="GraphicLineEntity" class="signalline" id="2Fx" stroke="#1e12bf" stroke-dasharray="5,4" x1="1950" x2="2680" y1="1010" y2="1010"/>
<ellipse cb-classname="GraphicEllipseEntity" class="signal" cx="1950" cy="1010" fill="#1e12bf" id="2FZ" rx="5" ry="5" stroke="#1e12bf" stroke-dasharray="5,4"/>
</g>
</g>
</g>
</g>
</g>
<g cb-alg-SWj="$91$cb-alg-out$" cb-algorithm-id="005" cb-classname="FastBooleanAlgorithm" cb-function-name="NOT" id="1jZ">
<rect cb-classname="GraphicRectangleEntity" class="algorithm" height="40" id="1jP" width="40" x="1470" y="990"/>
<text baseline-shift="-50%" cb-classname="GraphicTextEntity" class="algorithm" font-size="28" id="1jy" text-anchor="middle" x="1490" y="1007">
N
</text>
<g cb-classname="ControlPin" cb-pin-name="cL-GHO-fJu" id="1bD">
<line cb-classname="GraphicLineEntity" class="signalline" id="1bX" x1="1530" x2="1510" y1="1010" y2="1010"/>
<polygon cb-classname="GraphicPolygonEntity" class="signal" id="1bU" points="1510,1010 1521,1014 1521,1006"/>
<g cb-classname="DynamicText" cb-source="TJ-3fJ-LZnl" class="signal" id="1ba">
<text baseline-shift="5%" cb-classname="GraphicTextEntity" class="signal" fill="black" font-style="normal" font-weight="normal" id="1b4" text-decoration="normal" x="1517" y="999"/>
</g>
</g>
<g cb-classname="ControlPin" cb-pin-name="lN-09E-oxA" id="1bx">
<line cb-classname="GraphicLineEntity" class="signalline" id="1bA" x1="1470" x2="1450" y1="1010" y2="1010"/>
<g cb-classname="DynamicText" cb-source="cX-GCd-EWgM" class="signal" id="1bZ" text-anchor="end">
<text baseline-shift="5%" cb-classname="GraphicTextEntity" class="signal" fill="black" font-style="normal" font-weight="normal" id="1bP" text-anchor="end" text-decoration="normal" x="1464" y="1002"/>
</g>
<g cb-classname="SignalSegment" id="18P">
<line cb-classname="GraphicLineEntity" class="signalline" id="18y" stroke="#1e12bf" stroke-dasharray="5,4" x1="1450" x2="1080" y1="1010" y2="1010"/>
<g cb-classname="SignalSegment" id="1SD">
<line cb-classname="GraphicLineEntity" class="signalline" id="1SX" stroke="#1e12bf" stroke-dasharray="5,4" x1="1080" x2="1080" y1="1010" y2="880"/>
<g cb-classname="SignalSegment" id="1SU">
<line cb-classname="GraphicLineEntity" class="signalline" id="1Sa" stroke="#1e12bf" stroke-dasharray="5,4" x1="1080" x2="1130" y1="880" y2="880"/>
<g cb-classname="SignalConnection" cb-graphic-line="$173$" cb-input-pin="$aaH$" id="1S4"/>
</g>
</g>
</g>
</g>
</g>
<g cb-alg-rt="$91$cb-alg-out$" cb-algorithm-id="006" cb-classname="ExternalPointInterface" cb-function-name="OUTPUT" id="1Sx">
<ellipse cb-classname="GraphicEllipseEntity" class="algorithm" cx="2740" cy="1010" id="1SA" rx="40" ry="40"/>
<rect cb-classname="GraphicRectangleEntity" class="algorithm" height="80" id="1SZ" width="30" x="2780" y="970"/>
<line cb-classname="GraphicLineEntity" class="algorithm" id="1SP" x1="2780" x2="2810" y1="1010" y2="1010"/>
<g cb-classname="PointStatusIndicator" cb-indicator-type="highway" cb-source="4y-5T1-gb" id="1Sy" visibility="hidden">
<line cb-classname="GraphicLineEntity" class="algorithmline" id="1ND" x1="2700" x2="2740" y1="1010" y2="970"/>
<line cb-classname="GraphicLineEntity" class="algorithmline" id="1NX" x1="2740" x2="2780" y1="970" y2="1010"/>
<line cb-classname="GraphicLineEntity" class="algorithmline" id="1NU" x1="2780" x2="2740" y1="1010" y2="1050"/>
<line cb-classname="GraphicLineEntity" class="algorithmline" id="1Na" x1="2740" x2="2700" y1="1050" y2="1010"/>
</g>
<g cb-classname="PointStatusIndicator" cb-indicator-type="hardware" cb-source="tk-AjN-lL" id="1N4" visibility="hidden">
<line cb-classname="GraphicLineEntity" class="algorithmline" id="1Nx" x1="2780" x2="2700" y1="970" y2="970"/>
<line cb-classname="GraphicLineEntity" class="algorithmline" id="1NA" x1="2700" x2="2700" y1="970" y2="1050"/>
<line cb-classname="GraphicLineEntity" class="algorithmline" id="1NZ" x1="2700" x2="2780" y1="1050" y2="1050"/>
</g>
<g cb-classname="PointStatusIndicator" cb-indicator-type="alarm" cb-source="8P-Yn8-aE" id="1NP" visibility="hidden">
<text cb-classname="GraphicTextEntity" class="algorithm" fill="#000000" font-family="Arial" font-size="20" id="1Ny" x="2787" y="999">
A
</text>
</g>
<g cb-classname="PointStatusIndicator" cb-indicator-type="ingraphic" cb-source="IW-ZVV-C5" id="1tD" visibility="hidden">
<text cb-classname="GraphicTextEntity" class="algorithm" fill="#000000" font-family="Arial" font-size="20" id="1tX" x="2785" y="1040">
G
</text>
</g>
<g cb-classname="DynamicText" cb-labeled="false" cb-pin-name="tR" cb-source="4y-5T1-gb" class="algorithm" id="1tU" text-anchor="end">
<text baseline-shift="0%" cb-classname="GraphicTextEntity" class="algorithm" fill="black" font-family="Arial" font-size="20" font-style="normal" font-weight="normal" id="1ta" text-anchor="end" text-decoration="normal" x="2677" y="989"/>
</g>
<g baseline-shift="-100%" cb-anchor-x="2678" cb-anchor-y="1026" cb-classname="PointReferences" cb-max-width="240" cb-originator="false" cb-source="xm-Wc7-6q" class="signal" id="1t4" text-anchor="end">
<text baseline-shift="-100%" cb-classname="GraphicTextEntity" class="algorithm" id="1tx" text-anchor="end" x="2678" y="1026">
-
</text>
</g>
<g baseline-shift="-50%" cb-anchor-x="2831" cb-anchor-y="1008" cb-classname="PointDescription" cb-content="extended" cb-labeled="false" cb-max-width="240" cb-source="tk-AjN-lL" class="algorithm" id="1tZ" text-anchor="start">
<text baseline-shift="-50%" cb-classname="GraphicTextEntity" class="algorithm" id="1tP" text-anchor="start" x="2831" y="1008">
DO module out1
</text>
</g>
<g cb-classname="ControlPin" cb-pin-name="lN-09E-eK" id="2FD">
<line cb-classname="GraphicLineEntity" class="signalline" id="2FX" x1="2680" x2="2700" y1="1010" y2="1010"/>
<polygon cb-classname="GraphicPolygonEntity" class="signal" id="2FU" points="2700,1010 2689,1004 2689,1015"/>
</g>
</g>
<g cb-alg-lLD="$382$cb-alg-out$" cb-alg-lLQ="$333$cb-alg-out$" cb-alg-lLz="$245$cb-alg-out$" cb-algorithm-id="008" cb-classname="FastBooleanAlgorithm" cb-function-name="AND" cb-modify-id="00000002" id="2yA">
<rect cb-classname="GraphicRectangleEntity" class="algorithm" height="60" id="2yZ" width="80" x="1140" y="1330"/>
<text baseline-shift="-50%" cb-classname="GraphicTextEntity" class="algorithm" id="2yP" text-anchor="middle" x="1180" y="1359">
AND
</text>
<line cb-classname="GraphicLineEntity" class="algorithmline" id="2yy" x1="1140" x2="1140" y1="1300" y2="1420"/>
<g cb-classname="ControlPin" cb-pin-name="cL-GHO-fJu" id="28D">
<line cb-classname="GraphicLineEntity" class="signalline" id="28X" x1="1120" x2="1140" y1="1320" y2="1320"/>
<polygon cb-classname="GraphicPolygonEntity" class="signal" id="28U" points="1140,1320 1129,1316 1129,1324"/>
<g cb-classname="DynamicText" cb-source="TJ-3fJ-LZnl" class="signal" id="28a" text-anchor="end">
<text baseline-shift="5%" cb-classname="GraphicTextEntity" class="signal" fill="black" font-style="normal" font-weight="normal" id="284" text-anchor="end" text-decoration="normal" x="1133" y="1312"/>
</g>
</g>
<g cb-classname="ControlPin" cb-pin-name="lN-09E-oxA" id="28x">
<line cb-classname="GraphicLineEntity" class="signalline" id="28A" x1="1220" x2="1240" y1="1360" y2="1360"/>
<g cb-classname="DynamicText" cb-source="cX-GCd-EWgM" class="signal" id="28Z">
<text baseline-shift="5%" cb-classname="GraphicTextEntity" class="signal" fill="black" font-style="normal" font-weight="normal" id="28P" text-decoration="normal" x="1232" y="1352"/>
</g>
<g cb-classname="SignalSegment" id="28y">
<line cb-classname="GraphicLineEntity" class="signalline" id="2SD" stroke="#1e12bf" stroke-dasharray="5,4" x1="1240" x2="1350" y1="1360" y2="1360"/>
<g cb-classname="SignalSegment" id="2SX">
<line cb-classname="GraphicLineEntity" class="signalline" id="2SU" stroke="#1e12bf" stroke-dasharray="5,4" x1="1350" x2="1350" y1="1360" y2="1340"/>
<g cb-classname="SignalSegment" id="2Sa">
<line cb-classname="GraphicLineEntity" class="signalline" id="2S4" stroke="#1e12bf" stroke-dasharray="5,4" x1="1350" x2="1420" y1="1340" y2="1340"/>
<g cb-classname="SignalConnection" cb-graphic-line="$274$" cb-input-pin="$c8z$" id="2Sx"/>
</g>
<line cb-classname="GraphicLineEntity" class="signalline" id="2SA" stroke="#1e12bf" stroke-dasharray="5,4" x1="1350" x2="1420" y1="1360" y2="1360"/>
<g cb-classname="SignalConnection" cb-graphic-line="$276$" cb-input-pin="$zLM$" id="2SZ"/>
<ellipse cb-classname="GraphicEllipseEntity" class="signal" cx="1350" cy="1360" fill="#1e12bf" id="2SP" rx="5" ry="5" stroke="#1e12bf" stroke-dasharray="5,4"/>
</g>
</g>
</g>
<g cb-classname="ControlPin" cb-pin-name="8P-Yn8-aEx" id="2Sy">
<line cb-classname="GraphicLineEntity" class="signalline" id="2ND" x1="1120" x2="1140" y1="1400" y2="1400"/>
<polygon cb-classname="GraphicPolygonEntity" class="signal" id="2NX" points="1140,1400 1129,1396 1129,1404"/>
<g cb-classname="DynamicText" cb-source="Hw-uaE-5Z5p" class="signal" id="2NU" text-anchor="end">
<text baseline-shift="5%" cb-classname="GraphicTextEntity" class="signal" fill="black" font-style="normal" font-weight="normal" id="2Na" text-anchor="end" text-decoration="normal" x="1130" y="1390"/>
</g>
</g>
<g cb-classname="ControlPin" cb-pin-name="cS-zN2-t2x" id="2N4">
<line cb-classname="GraphicLineEntity" class="signalline" id="2Nx" x1="1120" x2="1140" y1="1360" y2="1360"/>
<polygon cb-classname="GraphicPolygonEntity" class="signal" id="2NA" points="1140,1360 1129,1356 1129,1364"/>
<g cb-classname="DynamicText" cb-source="Bm-56w-JYDG" class="signal" id="2NZ" text-anchor="end">
<text baseline-shift="5%" cb-classname="GraphicTextEntity" class="signal" fill="black" font-style="normal" font-weight="normal" id="2NP" text-anchor="end" text-decoration="normal" x="1130" y="1350"/>
</g>
</g>
</g>
<g cb-alg-WVc="$256$cb-alg-out$" cb-alg-XVbj="$256$cb-alg-out$" cb-alg-kKH2="1.000000" cb-alg-x0Ab="96" cb-alg-zK1b="2" cb-algorithm-id="009" cb-classname="ControlAlgorithm" cb-function-name="ONDELAY" cb-modify-id="00000002" id="2Ny">
<rect cb-classname="GraphicRectangleEntity" class="algorithm" height="60" id="2tD" width="60" x="1440" y="1320"/>
<text baseline-shift="-50%" cb-classname="GraphicTextEntity" class="algorithm" font-size="18" id="2tX" text-anchor="middle" x="1469" y="1332">
TD
</text>
<text cb-classname="GraphicTextEntity" class="algorithm" font-size="18" id="2tU" text-anchor="middle" x="1469" y="1367">
ON
</text>
<g cb-classname="ControlPin" cb-pin-name="cX-86a-XDM" id="2ta">
<line cb-classname="GraphicLineEntity" class="signalline" id="2t4" x1="1420" x2="1440" y1="1340" y2="1340"/>
<polygon cb-classname="GraphicPolygonEntity" class="signal" id="2tx" points="1440,1340 1429,1336 1429,1344"/>
<g cb-classname="DynamicText" cb-source="4y-qXD-zPLJ" class="signal" id="2tA" text-anchor="end">
<text baseline-shift="5%" cb-classname="GraphicTextEntity" class="signal" fill="black" font-style="normal" font-weight="normal" id="2tZ" text-anchor="end" text-decoration="normal" x="1404" y="1336"/>
</g>
</g>
<g cb-classname="ControlPin" cb-pin-name="xm-Wc7-0rJ" id="2tP">
<line cb-classname="GraphicLineEntity" class="signalline" id="2ty" x1="1500" x2="1520" y1="1340" y2="1340"/>
<g cb-classname="DynamicText" cb-source="Bm-56w-JYDG" class="signal" id="3FD">
<text baseline-shift="5%" cb-classname="GraphicTextEntity" class="signal" fill="black" font-style="normal" font-weight="normal" id="3FX" text-decoration="normal" x="1536" y="1336"/>
</g>
<g cb-classname="SignalSegment" id="3FU">
<g cb-classname="SignalConnection" cb-graphic-line="$304$" cb-input-pin="$zao$" id="3Fa"/>
<line cb-classname="GraphicLineEntity" class="signalline" id="3F4" stroke="#1e12bf" stroke-dasharray="5,4" x1="1520" x2="1720" y1="1340" y2="1340"/>
</g>
</g>
<g cb-classname="ControlPin" cb-pin-name="8P-Yn8-lEQc" id="3Fx">
<line cb-classname="GraphicLineEntity" class="signalline" id="3FA" x1="1420" x2="1440" y1="1360" y2="1360"/>
<polygon cb-classname="GraphicPolygonEntity" class="signal" id="3FZ" points="1440,1360 1429,1356 1429,1364"/>
<g cb-classname="DynamicText" cb-source="Hw-uaE-5Z5p" class="signal" id="3FP" text-anchor="end">
<text baseline-shift="5%" cb-classname="GraphicTextEntity" class="signal" fill="black" font-style="normal" font-weight="normal" id="3Fy" text-anchor="end" text-decoration="normal" x="1404" y="1356"/>
</g>
</g>
</g>
<g cb-alg-7e5u="97" cb-alg-Cdk="$289$cb-alg-out$" cb-alg-l86="D10B2-OUT2" cb-alg-wYju="2" cb-alg-yY0P="1.000000" cb-algorithm-id="00A" cb-classname="ControlAlgorithm" cb-function-name="OFFDELAY" cb-modify-id="00000002" id="3zD">
<rect cb-classname="GraphicRectangleEntity" class="algorithm" height="60" id="3zX" width="60" x="1740" y="1310"/>
<text baseline-shift="-50%" cb-classname="GraphicTextEntity" class="algorithm" font-size="18" id="3zU" text-anchor="middle" x="1770" y="1325">
TD
</text>
<text baseline-shift="-50%" cb-classname="GraphicTextEntity" class="algorithm" font-size="18" id="3za" text-anchor="middle" x="1770" y="1347">
OFF
</text>
<g cb-classname="ControlPin" cb-pin-name="tk-AjN-lLz" id="3z4">
<line cb-classname="GraphicLineEntity" class="signalline" id="3zx" x1="1720" x2="1740" y1="1340" y2="1340"/>
<polygon cb-classname="GraphicPolygonEntity" class="signal" id="3zA" points="1740,1340 1729,1336 1729,1344"/>
<g cb-classname="DynamicText" cb-source="lN-2lL-d5wI" class="signal" id="3zZ" text-anchor="end">
<text baseline-shift="5%" cb-classname="GraphicTextEntity" class="signal" fill="black" font-style="normal" font-weight="normal" id="3zP" text-anchor="end" text-decoration="normal" x="1704" y="1336"/>
</g>
</g>
<g cb-classname="ControlPin" cb-pin-name="cX-86a-CvQ" id="3zy">
<line cb-classname="GraphicLineEntity" class="signalline" id="3jD" x1="1800" x2="1820" y1="1340" y2="1340"/>
<g cb-classname="DynamicText" cb-source="Hw-uaE-5Z5p" class="signal" id="3jX">
<text baseline-shift="5%" cb-classname="GraphicTextEntity" class="signal" fill="black" font-style="normal" font-weight="normal" id="3jU" text-decoration="normal" x="1836" y="1336"/>
</g>
<g cb-classname="SignalSegment" id="3ja">
<line cb-classname="GraphicLineEntity" class="signalline" id="3j4" stroke="#1e12bf" stroke-dasharray="5,4" x1="1820" x2="1940" y1="1340" y2="1340"/>
<g cb-classname="SignalSegment" id="3jx">
<line cb-classname="GraphicLineEntity" class="signalline" id="3jA" stroke="#1e12bf" stroke-dasharray="5,4" x1="1940" x2="1940" y1="1340" y2="1530"/>
<g cb-classname="SignalSegment" id="3jZ">
<line cb-classname="GraphicLineEntity" class="signalline" id="3jP" stroke="#1e12bf" stroke-dasharray="5,4" x1="1940" x2="1520" y1="1530" y2="1530"/>
<g cb-classname="SignalConnection" cb-graphic-line="$328$" cb-input-pin="$zlz$" id="3jy"/>
<g cb-classname="SignalConnection" cb-graphic-line="$331$" cb-input-pin="$lIk$" id="3bD"/>
<line cb-classname="GraphicLineEntity" class="signalline" id="3bX" stroke="#1e12bf" stroke-dasharray="5,4" x1="1940" x2="2670" y1="1530" y2="1530"/>
<ellipse cb-classname="GraphicEllipseEntity" class="signal" cx="1940" cy="1530" fill="#1e12bf" id="3bU" rx="5" ry="5" stroke="#1e12bf" stroke-dasharray="5,4"/>
</g>
</g>
</g>
</g>
</g>
<g cb-alg-dTR="$310$cb-alg-out$" cb-algorithm-id="00B" cb-classname="FastBooleanAlgorithm" cb-function-name="NOT" id="3ba">
<rect cb-classname="GraphicRectangleEntity" class="algorithm" height="40" id="3b4" width="40" x="1460" y="1510"/>
<text baseline-shift="-50%" cb-classname="GraphicTextEntity" class="algorithm" font-size="28" id="3bx" text-anchor="middle" x="1480" y="1527">
N
</text>
<g cb-classname="ControlPin" cb-pin-name="cS-zN2-t2W" id="3bA">
<line cb-classname="GraphicLineEntity" class="signalline" id="3bZ" x1="1520" x2="1500" y1="1530" y2="1530"/>
<polygon cb-classname="GraphicPolygonEntity" class="signal" id="3bP" points="1500,1530 1511,1534 1511,1526"/>
<g cb-classname="DynamicText" cb-source="Bm-56w-JYDG" class="signal" id="3by">
<text baseline-shift="5%" cb-classname="GraphicTextEntity" class="signal" fill="black" font-style="normal" font-weight="normal" id="3iD" text-decoration="normal" x="1507" y="1519"/>
</g>
</g>
<g cb-classname="ControlPin" cb-pin-name="TJ-qy4-vT2" id="3iX">
<line cb-classname="GraphicLineEntity" class="signalline" id="3iU" x1="1460" x2="1440" y1="1530" y2="1530"/>
<g cb-classname="DynamicText" cb-source="lN-2lL-d5wI" class="signal" id="3ia" text-anchor="end">
<text baseline-shift="5%" cb-classname="GraphicTextEntity" class="signal" fill="black" font-style="normal" font-weight="normal" id="3i4" text-anchor="end" text-decoration="normal" x="1454" y="1522"/>
</g>
<g cb-classname="SignalSegment" id="3ix">
<line cb-classname="GraphicLineEntity" class="signalline" id="3iA" stroke="#1e12bf" stroke-dasharray="5,4" x1="1440" x2="1070" y1="1530" y2="1530"/>
<g cb-classname="SignalSegment" id="3iZ">
<line cb-classname="GraphicLineEntity" class="signalline" id="3iP" stroke="#1e12bf" stroke-dasharray="5,4" x1="1070" x2="1070" y1="1530" y2="1400"/>
<g cb-classname="SignalSegment" id="3iy">
<line cb-classname="GraphicLineEntity" class="signalline" id="3yD" stroke="#1e12bf" stroke-dasharray="5,4" x1="1070" x2="1120" y1="1400" y2="1400"/>
<g cb-classname="SignalConnection" cb-graphic-line="$350$" cb-input-pin="$jZS$" id="3yX"/>
</g>
</g>
</g>
</g>
</g>
<g cb-alg-g2="$310$cb-alg-out$" cb-algorithm-id="00C" cb-classname="ExternalPointInterface" cb-function-name="OUTPUT" id="3yU">
<ellipse cb-classname="GraphicEllipseEntity" class="algorithm" cx="2730" cy="1530" id="3ya" rx="40" ry="40"/>
<rect cb-classname="GraphicRectangleEntity" class="algorithm" height="80" id="3y4" width="30" x="2770" y="1490"/>
<line cb-classname="GraphicLineEntity" class="algorithm" id="3yx" x1="2770" x2="2800" y1="1530" y2="1530"/>
<g cb-classname="PointStatusIndicator" cb-indicator-type="highway" cb-source="lN-09E-eK" id="3yA" visibility="hidden">
<line cb-classname="GraphicLineEntity" class="algorithmline" id="3yZ" x1="2690" x2="2730" y1="1530" y2="1490"/>
<line cb-classname="GraphicLineEntity" class="algorithmline" id="3yP" x1="2730" x2="2770" y1="1490" y2="1530"/>
<line cb-classname="GraphicLineEntity" class="algorithmline" id="3yy" x1="2770" x2="2730" y1="1530" y2="1570"/>
<line cb-classname="GraphicLineEntity" class="algorithmline" id="38D" x1="2730" x2="2690" y1="1570" y2="1530"/>
</g>
<g cb-classname="PointStatusIndicator" cb-indicator-type="hardware" cb-source="4y-5T1-gb" id="38X" visibility="hidden">
<line cb-classname="GraphicLineEntity" class="algorithmline" id="38U" x1="2770" x2="2690" y1="1490" y2="1490"/>
<line cb-classname="GraphicLineEntity" class="algorithmline" id="38a" x1="2690" x2="2690" y1="1490" y2="1570"/>
<line cb-classname="GraphicLineEntity" class="algorithmline" id="384" x1="2690" x2="2770" y1="1570" y2="1570"/>
</g>
<g cb-classname="PointStatusIndicator" cb-indicator-type="alarm" cb-source="Bm-Kgb-dT" id="38x" visibility="hidden">
<text cb-classname="GraphicTextEntity" class="algorithm" fill="#000000" font-family="Arial" font-size="20" id="38A" x="2777" y="1519">
A
</text>
</g>
<g cb-classname="PointStatusIndicator" cb-indicator-type="ingraphic" cb-source="TJ-qy4-SW" id="38Z" visibility="hidden">
<text cb-classname="GraphicTextEntity" class="algorithm" fill="#000000" font-family="Arial" font-size="20" id="38P" x="2775" y="1560">
G
</text>
</g>
<g cb-classname="DynamicText" cb-labeled="false" cb-pin-name="Fh" cb-source="lN-09E-eK" class="algorithm" id="38y" text-anchor="end">
<text baseline-shift="0%" cb-classname="GraphicTextEntity" class="algorithm" fill="black" font-family="Arial" font-size="20" font-style="normal" font-weight="normal" id="3SD" text-anchor="end" text-decoration="normal" x="2667" y="1509"/>
</g>
<g baseline-shift="-100%" cb-anchor-x="2668" cb-anchor-y="1546" cb-classname="PointReferences" cb-max-width="240" cb-originator="false" cb-source="cX-86a-XD" class="signal" id="3SX" text-anchor="end">
<text baseline-shift="-100%" cb-classname="GraphicTextEntity" class="algorithm" id="3SU" text-anchor="end" x="2668" y="1546">
-
</text>
</g>
<g baseline-shift="-50%" cb-anchor-x="2821" cb-anchor-y="1528" cb-classname="PointDescription" cb-content="extended" cb-labeled="false" cb-max-width="240" cb-source="Hw-YRu-Oz" class="algorithm" id="3Sa" text-anchor="start">
<text baseline-shift="-50%" cb-classname="GraphicTextEntity" class="algorithm" id="3S4" text-anchor="start" x="2821" y="1528">
DO module out2
</text>
</g>
<g cb-classname="ControlPin" cb-pin-name="cS-zN2-t2" id="3Sx">
<line cb-classname="GraphicLineEntity" class="signalline" id="3SA" x1="2670" x2="2690" y1="1530" y2="1530"/>
<polygon cb-classname="GraphicPolygonEntity" class="signal" id="3SZ" points="2690,1530 2679,1524 2679,1535"/>
</g>
</g>
</g>
<g cb-classname="IncludeDocument" cb-modify-time="03/12/2018 11:07:58" cb-objectname="frame" id="5">
<text cb-classname="GraphicTextEntity" class="frame" font-size="50" id="4Nx" x="3660" y="3146">
Project Title &lt;Edit in FRAME.SVG&gt;
</text>
<g baseline-shift="-50%" cb-classname="DynamicText" cb-source="lN-vfvA-ak" class="frame" id="4NA">
<text cb-classname="GraphicTextEntity" class="frame" fill="black" font-family="arial" font-size="25" font-style="normal" font-weight="normal" id="4NZ" text-decoration="normal" x="4715" y="3325">
10
</text>
</g>
<g baseline-shift="-50%" cb-classname="DynamicText" cb-source="cX-BIoq-C7" class="frame" id="4NP" text-anchor="middle">
<text cb-classname="GraphicTextEntity" class="frame" fill="black" font-family="arial" font-size="48" font-style="normal" font-weight="normal" id="4Ny" text-anchor="middle" text-decoration="normal" x="4900" y="3320">
10
</text>
</g>
<g baseline-shift="-50%" cb-classname="DynamicText" cb-source="Hw-25qp-gQ" class="frame" id="4tD" text-anchor="middle">
<text cb-classname="GraphicTextEntity" class="frame" fill="black" font-family="arial" font-size="48" font-style="normal" font-weight="normal" id="4tX" text-anchor="middle" text-decoration="normal" x="5067" y="3324">
2
</text>
</g>
<g cb-classname="DynamicText" cb-source="cS-q2oMR-6VBgb" class="frame" id="4tU">
<text cb-classname="GraphicTextEntity" class="frame" fill="black" font-family="arial" font-size="48" font-style="normal" font-weight="normal" id="4ta" text-decoration="normal" x="3660" y="3224">
Test - HW
</text>
</g>
<g baseline-shift="-50%" cb-classname="DynamicText" cb-source="cL-sXS28-T5hSlM" class="frame" id="4t4" text-anchor="middle">
<text cb-classname="GraphicTextEntity" class="frame" fill="black" font-family="arial" font-size="48" font-style="normal" font-weight="normal" id="4tx" text-anchor="middle" text-decoration="normal" x="5270" y="3324">
001
</text>
</g>
<g baseline-shift="0%" cb-classname="DynamicText" cb-source="tk-12vdSSld" class="frame" id="4tA" text-anchor="middle">
<text cb-classname="GraphicTextEntity" class="frame" fill="black" font-family="arial" font-size="36" font-style="normal" font-weight="normal" id="4tZ" text-anchor="middle" text-decoration="normal" x="5270" y="3150">
A
</text>
</g>
<g baseline-shift="0%" cb-classname="DynamicText" cb-source="yb-EyRSpeLE-Qg5p" class="frame" id="4tP" text-anchor="middle">
<text cb-classname="GraphicTextEntity" class="frame" fill="black" font-family="arial" font-size="20" font-style="normal" font-weight="normal" id="4ty" text-anchor="middle" text-decoration="normal" x="5270" y="3230">
03/01/2018
</text>
</g>
<g baseline-shift="-50%" cb-classname="DynamicText" cb-source="8P-EL8eKPIf" class="frame" id="5FD" text-anchor="end">
<text cb-classname="GraphicTextEntity" class="frame" fill="black" font-family="arial" font-size="26" font-style="normal" font-weight="normal" id="5FX" text-anchor="end" text-decoration="normal" x="4500" y="3420">
R.Kragnys
</text>
</g>
<g baseline-shift="-50%" cb-classname="DynamicText" cb-source="IW-IwPXI6Mp" class="frame" id="5FU" text-anchor="end">
<text cb-classname="GraphicTextEntity" class="frame" fill="black" font-family="arial" font-size="26" font-style="normal" font-weight="normal" id="5Fa" text-anchor="end" text-decoration="normal" x="5353" y="3420">

</text>
</g>
<g cb-classname="GraphicShape" cb-tag="BORDER" id="5F4">
<line cb-classname="GraphicLineEntity" class="frameline" id="5Fx" x1="40" x2="40" y1="40" y2="3460"/>
<line cb-classname="GraphicLineEntity" class="frameline" id="5FA" x1="40" x2="5380" y1="3460" y2="3460"/>
<line cb-classname="GraphicLineEntity" class="frameline" id="5FZ" x1="5380" x2="5380" y1="3460" y2="40"/>
<line cb-classname="GraphicLineEntity" class="frameline" id="5FP" x1="5380" x2="40" y1="40" y2="40"/>
<line cb-classname="GraphicLineEntity" class="frame" id="5Fy" x1="5430" x2="5440" y1="3510" y2="3510"/>
</g>
<g cb-classname="GraphicShape" cb-tag="TITLE BOX" id="5zD">
<line cb-classname="GraphicLineEntity" class="frameline" id="5zX" x1="2340" x2="2340" y1="3080" y2="3460"/>
<line cb-classname="GraphicLineEntity" class="frameline" id="5zU" x1="2340" x2="5380" y1="3080" y2="3080"/>
<line cb-classname="GraphicLineEntity" class="frameline" id="5za" x1="3650" x2="3650" y1="3460" y2="3080"/>
<line cb-classname="GraphicLineEntity" class="frameline" id="5z4" x1="3650" x2="5380" y1="3240" y2="3240"/>
<line cb-classname="GraphicLineEntity" class="frameline" id="5zx" x1="3650" x2="5380" y1="3390" y2="3390"/>
<line cb-classname="GraphicLineEntity" class="frameline" id="5zA" x1="3650" x2="5380" y1="3160" y2="3160"/>
<line cb-classname="GraphicLineEntity" class="frameline" id="5zZ" x1="3650" x2="4520" y1="3320" y2="3320"/>
<line cb-classname="GraphicLineEntity" class="frameline" id="5zP" x1="4520" x2="5380" y1="3290" y2="3290"/>
<line cb-classname="GraphicLineEntity" class="frameline" id="5zy" x1="4520" x2="5380" y1="3240" y2="3240"/>
<line cb-classname="GraphicLineEntity" class="frameline" id="5jD" x1="4520" x2="4520" y1="3240" y2="3460"/>
<line cb-classname="GraphicLineEntity" class="frameline" id="5jX" x1="4810" x2="4810" y1="3240" y2="3390"/>
<line cb-classname="GraphicLineEntity" class="frameline" id="5jU" x1="4990" x2="4990" y1="3240" y2="3390"/>
<line cb-classname="GraphicLineEntity" class="frameline" id="5ja" x1="5150" x2="5150" y1="3080" y2="3390"/>
</g>
<g cb-classname="GraphicShape" cb-tag="TEXT LABELS" id="5j4">
<text baseline-shift="-50%" cb-classname="GraphicTextEntity" class="frame" font-size="25" id="5jx" text-anchor="middle" x="4890" y="3252">
Drop
</text>
<text baseline-shift="-50%" cb-classname="GraphicTextEntity" class="frame" font-size="25" id="5jA" text-anchor="middle" x="5075" y="3252">
Task
</text>
<text baseline-shift="-50%" cb-classname="GraphicTextEntity" class="frame" font-size="25" id="5jZ" text-anchor="middle" x="5265" y="3252">
Sheet
</text>
<text cb-classname="GraphicTextEntity" class="frame" font-size="25" id="5jP" x="5152" y="3107">
Rev.
</text>
<text cb-classname="GraphicTextEntity" class="frame" font-size="25" id="5jy" x="3653" y="3418">
Engineer
</text>
<text cb-classname="GraphicTextEntity" class="frame" font-size="25" id="5bD" x="4528" y="3419">
Approved
</text>
<text cb-classname="GraphicTextEntity" class="frame" font-size="25" id="5bX" x="5152" y="3187">
Date
</text>
<text baseline-shift="-50%" cb-classname="GraphicTextEntity" class="frame" font-size="25" id="5bU" text-anchor="middle" x="4660" y="3252">
Drawing Number
</text>
<text baseline-shift="-50%" cb-classname="GraphicTextEntity" class="frame" font-size="25" id="5ba" text-anchor="middle" x="4680" y="3325">
CTL
</text>
</g>
<text baseline-shift="-50%" cb-classname="GraphicTextEntity" class="frame" font-size="48" id="5b4" text-anchor="middle" x="3000" y="3100">
EMERSON PROCESS MANAGEMENT
</text>
<g baseline-shift="-100%" cb-anchor-x="2360" cb-anchor-y="3140" cb-classname="GroupText" cb-max-width="1260" fill="black" id="5bx">
<text baseline-shift="-100%" cb-classname="GraphicTextEntity" class="frame" fill="black" font-family="arial" font-size="22" font-weight="normal" id="5bA" text-anchor="start" text-decoration="normal" x="2360" y="3140">
THIS DOCUMENT CONTAINS INFORMATION PROPRIETARY TO EMERSON PROCESS
</text>
<text baseline-shift="-100%" cb-classname="GraphicTextEntity" class="frame" fill="black" font-family="arial" font-size="22" font-weight="normal" id="5bZ" text-anchor="start" text-decoration="normal" x="2360" y="3176">
MANAGEMENT POWER &amp; WATER SOLUTIONS, INC. IT IS SUBMITTED IN CONFIDENCE AND
</text>
<text baseline-shift="-100%" cb-classname="GraphicTextEntity" class="frame" fill="black" font-family="arial" font-size="22" font-weight="normal" id="5bP" text-anchor="start" text-decoration="normal" x="2360" y="3212">
TRUST, IS TO BE USED BY YOU SOLELY FOR THE PURPOSES FOR WHICH IT IS
</text>
<text baseline-shift="-100%" cb-classname="GraphicTextEntity" class="frame" fill="black" font-family="arial" font-size="22" font-weight="normal" id="5by" text-anchor="start" text-decoration="normal" x="2360" y="3248">
FURNISHED AND IS TO BE RETURNED UPON REQUEST. THIS DOCUMENT AND ANY
</text>
<text baseline-shift="-100%" cb-classname="GraphicTextEntity" class="frame" fill="black" font-family="arial" font-size="22" font-weight="normal" id="5iD" text-anchor="start" text-decoration="normal" x="2360" y="3284">
OTHER INFORMATION PROVIDED TO YOU IS NOT TO BE REPRODUCED, TRANSMITTED,
</text>
<text baseline-shift="-100%" cb-classname="GraphicTextEntity" class="frame" fill="black" font-family="arial" font-size="22" font-weight="normal" id="5iX" text-anchor="start" text-decoration="normal" x="2360" y="3320">
DISCLOSED, OR USED OTHERWISE IN WHOLE OR IN PART WITHOUT THE PRIOR
</text>
<text baseline-shift="-100%" cb-classname="GraphicTextEntity" class="frame" fill="black" font-family="arial" font-size="22" font-weight="normal" id="5iU" text-anchor="start" text-decoration="normal" x="2360" y="3356">
WRITTEN AUTHORIZATION OF EMERSON PROCESS MANAGEMENT POWER &amp; WATER
</text>
<text baseline-shift="-100%" cb-classname="GraphicTextEntity" class="frame" fill="black" font-family="arial" font-size="22" font-weight="normal" id="5ia" text-anchor="start" text-decoration="normal" x="2360" y="3392">
SOLUTIONS,INC.
</text>
</g>
</g>
</svg>